 Data for JOB [40866,1] offset 0 Total slots allocated 2

 ========================   JOB MAP   ========================

 Data for node: n001	Num slots: 2	Max slots: 0	Num procs: 2
 	Process OMPI jobid: [40866,1] App: 0 Process rank: 0 Bound: socket 0[core 1[hwt 0-1]]:[../BB/../../../../../../../../../../../../../../../../../../../../../../../../../../../../../..][../../../../../../../../../../../../../../../../../../../../../../../../../../../../../../../..]
 	Process OMPI jobid: [40866,1] App: 0 Process rank: 1 Bound: socket 1[core 42[hwt 0-1]]:[../../../../../../../../../../../../../../../../../../../../../../../../../../../../../../../..][../../../../../../../../../../BB/../../../../../../../../../../../../../../../../../../../../..]

 =============================================================
dune-size 1 5.41228e-06 5.41648e-06 
dune-size 2 5.17958e-06 5.18078e-06 
dune-size 4 6.32838e-06 6.33018e-06 
dune-size 8 5.58698e-06 5.58968e-06 
dune-size 16 6.07068e-06 6.06498e-06 
dune-size 32 6.81328e-06 6.81448e-06 
dune-size 64 8.92688e-06 8.92788e-06 
dune-size 128 1.2149e-05 1.21531e-05 
dune-size 256 2.07429e-05 2.07511e-05 
dune-size 512 3.31614e-05 3.31679e-05 
dune-size 1024 0.000109072 0.000109057 
dune-size 2048 0.000199298 0.000199313 
dune-size 4096 0.000386384 0.000386359 
dune-size 8192 0.000616954 0.000616892 
dune-size 16384 0.000951629 0.000951547 
dune-size 32768 0.00172587 0.00172565 
dune-size 65536 0.00342743 0.00341569 
dune-size 131072 0.00657911 0.00657478 
dune-size 262144 0.0130239 0.0130212 
dune-size 524288 0.0258233 0.0258118 
dune-size 1048576 0.0513085 0.0513159 
