 Data for JOB [47404,1] offset 0 Total slots allocated 2

 ========================   JOB MAP   ========================

 Data for node: n001	Num slots: 2	Max slots: 0	Num procs: 2
 	Process OMPI jobid: [47404,1] App: 0 Process rank: 0 Bound: socket 1[core 49[hwt 0-1]]:[../../../../../../../../../../../../../../../../../../../../../../../../../../../../../../../..][../../../../../../../../../../../../../../../../../BB/../../../../../../../../../../../../../..]
 	Process OMPI jobid: [47404,1] App: 0 Process rank: 1 Bound: socket 0[core 2[hwt 0-1]]:[../../BB/../../../../../../../../../../../../../../../../../../../../../../../../../../../../..][../../../../../../../../../../../../../../../../../../../../../../../../../../../../../../../..]

 =============================================================
dune-size 1 6.36809e-06 6.36829e-06 
dune-size 2 4.74789e-06 4.74659e-06 
dune-size 4 4.92219e-06 4.92169e-06 
dune-size 8 5.17178e-06 5.17128e-06 
dune-size 16 5.56118e-06 5.55908e-06 
dune-size 32 6.49269e-06 6.48479e-06 
dune-size 64 8.19848e-06 8.19608e-06 
dune-size 128 1.18184e-05 1.18233e-05 
dune-size 256 1.97785e-05 1.97818e-05 
dune-size 512 3.30081e-05 3.30025e-05 
dune-size 1024 0.000109388 0.000109389 
dune-size 2048 0.000190942 0.000190942 
dune-size 4096 0.000377523 0.000377507 
dune-size 8192 0.000655081 0.000655026 
dune-size 16384 0.000955346 0.000955233 
dune-size 32768 0.00168387 0.00168391 
dune-size 65536 0.00348853 0.00349131 
dune-size 131072 0.00677363 0.00677214 
dune-size 262144 0.0129273 0.0129279 
dune-size 524288 0.0265187 0.026484 
dune-size 1048576 0.0516001 0.0516124 
