 Data for JOB [31092,1] offset 0 Total slots allocated 4

 ========================   JOB MAP   ========================

 Data for node: n004	Num slots: 4	Max slots: 0	Num procs: 4
 	Process OMPI jobid: [31092,1] App: 0 Process rank: 0 Bound: socket 0[core 9[hwt 0-1]]:[../../../../../../../../../BB/../../../../../../../../../../../../../../../../../../../../../..][../../../../../../../../../../../../../../../../../../../../../../../../../../../../../../../..]
 	Process OMPI jobid: [31092,1] App: 0 Process rank: 1 Bound: socket 1[core 51[hwt 0-1]]:[../../../../../../../../../../../../../../../../../../../../../../../../../../../../../../../..][../../../../../../../../../../../../../../../../../../../BB/../../../../../../../../../../../..]
 	Process OMPI jobid: [31092,1] App: 0 Process rank: 2 Bound: socket 0[core 10[hwt 0-1]]:[../../../../../../../../../../BB/../../../../../../../../../../../../../../../../../../../../..][../../../../../../../../../../../../../../../../../../../../../../../../../../../../../../../..]
 	Process OMPI jobid: [31092,1] App: 0 Process rank: 3 Bound: socket 1[core 52[hwt 0-1]]:[../../../../../../../../../../../../../../../../../../../../../../../../../../../../../../../..][../../../../../../../../../../../../../../../../../../../../BB/../../../../../../../../../../..]

 =============================================================
Two group cota
0 1 1
2 3 3
1 0 0
3 2 2
dune-size 1 9.26051e-06 9.65121e-06 9.24931e-06 9.65051e-06 
dune-size 2 7.14261e-06 7.14521e-06 6.95641e-06 6.95581e-06 
dune-size 4 6.95211e-06 6.95551e-06 6.97491e-06 6.97661e-06 
dune-size 8 7.46501e-06 7.46671e-06 7.40311e-06 7.40721e-06 
dune-size 16 8.15971e-06 8.15621e-06 7.94411e-06 7.94191e-06 
dune-size 32 9.26211e-06 9.26511e-06 9.21011e-06 9.21311e-06 
dune-size 64 1.23357e-05 1.23336e-05 1.23256e-05 1.23187e-05 
dune-size 128 1.80223e-05 1.80225e-05 1.66568e-05 1.66557e-05 
dune-size 256 1.98963e-05 1.98892e-05 1.98954e-05 1.98917e-05 
dune-size 512 3.44688e-05 3.44708e-05 3.44638e-05 3.44672e-05 
dune-size 1024 0.000109243 0.000109256 0.000110201 0.00011023 
dune-size 2048 0.000207843 0.000207866 0.000206513 0.000206508 
dune-size 4096 0.000382215 0.000382232 0.00037688 0.000376885 
dune-size 8192 0.000651247 0.000651284 0.000661928 0.000661954 
dune-size 16384 0.00109921 0.00109929 0.00113377 0.00113383 
dune-size 32768 0.00166647 0.00166647 0.0016562 0.0016563 
dune-size 65536 0.00326945 0.00327216 0.00328394 0.00328635 
dune-size 131072 0.00661971 0.00662097 0.00660219 0.00660667 
