 Data for JOB [31000,1] offset 0 Total slots allocated 4

 ========================   JOB MAP   ========================

 Data for node: n004	Num slots: 4	Max slots: 0	Num procs: 4
 	Process OMPI jobid: [31000,1] App: 0 Process rank: 0 Bound: socket 0[core 9[hwt 0-1]]:[../../../../../../../../../BB/../../../../../../../../../../../../../../../../../../../../../..][../../../../../../../../../../../../../../../../../../../../../../../../../../../../../../../..]
 	Process OMPI jobid: [31000,1] App: 0 Process rank: 1 Bound: socket 1[core 43[hwt 0-1]]:[../../../../../../../../../../../../../../../../../../../../../../../../../../../../../../../..][../../../../../../../../../../../BB/../../../../../../../../../../../../../../../../../../../..]
 	Process OMPI jobid: [31000,1] App: 0 Process rank: 2 Bound: socket 0[core 10[hwt 0-1]]:[../../../../../../../../../../BB/../../../../../../../../../../../../../../../../../../../../..][../../../../../../../../../../../../../../../../../../../../../../../../../../../../../../../..]
 	Process OMPI jobid: [31000,1] App: 0 Process rank: 3 Bound: socket 1[core 44[hwt 0-1]]:[../../../../../../../../../../../../../../../../../../../../../../../../../../../../../../../..][../../../../../../../../../../../../BB/../../../../../../../../../../../../../../../../../../..]

 =============================================================
3 2 2
1 0 0
2 3 3
Two group cota
0 1 1
dune-size 1 7.29231e-06 7.28911e-06 9.38622e-06 9.38092e-06 
dune-size 2 6.88431e-06 6.88071e-06 8.89961e-06 8.89221e-06 
dune-size 4 7.343e-06 7.3399e-06 9.60971e-06 9.60191e-06 
dune-size 8 7.41011e-06 7.39991e-06 8.54941e-06 8.54521e-06 
dune-size 16 8.1545e-06 8.1444e-06 7.9377e-06 7.93e-06 
dune-size 32 9.74991e-06 9.73871e-06 9.64841e-06 9.64281e-06 
dune-size 64 8.80761e-06 8.80401e-06 1.26051e-05 1.25873e-05 
dune-size 128 1.22097e-05 1.22128e-05 1.8207e-05 1.81846e-05 
dune-size 256 1.97092e-05 1.97041e-05 2.00551e-05 2.0053e-05 
dune-size 512 3.47873e-05 3.47846e-05 3.4822e-05 3.48193e-05 
dune-size 1024 0.000107977 0.00010798 0.0001082 0.000108219 
dune-size 2048 0.000209704 0.000209735 0.000210588 0.000210626 
dune-size 4096 0.00038952 0.000389495 0.000367671 0.000367654 
dune-size 8192 0.000644659 0.000644658 0.000603992 0.000603985 
dune-size 16384 0.00125456 0.00125456 0.00112432 0.00112435 
dune-size 32768 0.00182746 0.00182737 0.00176769 0.00176768 
dune-size 65536 0.00331895 0.00331935 0.00332807 0.00332847 
dune-size 131072 0.0066986 0.00669352 0.00670015 0.00669377 
