 Data for JOB [15203,1] offset 0 Total slots allocated 2

 ========================   JOB MAP   ========================

 Data for node: n004	Num slots: 2	Max slots: 0	Num procs: 2
 	Process OMPI jobid: [15203,1] App: 0 Process rank: 0 Bound: socket 0[core 1[hwt 0-1]]:[../BB/../../../../../../../../../../../../../../../../../../../../../../../../../../../../../..][../../../../../../../../../../../../../../../../../../../../../../../../../../../../../../../..]
 	Process OMPI jobid: [15203,1] App: 0 Process rank: 1 Bound: socket 0[core 2[hwt 0-1]]:[../../BB/../../../../../../../../../../../../../../../../../../../../../../../../../../../../..][../../../../../../../../../../../../../../../../../../../../../../../../../../../../../../../..]

 =============================================================
dune-size 1 6.01761e-06 6.01611e-06 
dune-size 2 5.60041e-06 5.59861e-06 
dune-size 4 6.5513e-06 6.5525e-06 
dune-size 8 6.32191e-06 6.32121e-06 
dune-size 16 7.61061e-06 7.59951e-06 
dune-size 32 9.79432e-06 9.78442e-06 
dune-size 64 9.50481e-06 9.51941e-06 
dune-size 128 9.69491e-06 9.69321e-06 
dune-size 256 1.49367e-05 1.49373e-05 
dune-size 512 2.72213e-05 2.7222e-05 
dune-size 1024 5.59425e-05 5.59399e-05 
dune-size 2048 0.000106944 0.000106947 
dune-size 4096 0.000208593 0.000208594 
dune-size 8192 0.00040826 0.000408254 
dune-size 16384 0.000790474 0.000790463 
dune-size 32768 0.00155596 0.00155593 
dune-size 65536 0.00310818 0.00310802 
dune-size 131072 0.0062966 0.00629795 
dune-size 262144 0.0126449 0.0126427 
dune-size 524288 0.0253099 0.0253064 
dune-size 1048576 0.0509099 0.0509271 
