 Data for JOB [51000,1] offset 0 Total slots allocated 16

 ========================   JOB MAP   ========================

 Data for node: n004	Num slots: 16	Max slots: 0	Num procs: 16
 	Process OMPI jobid: [51000,1] App: 0 Process rank: 0 Bound: socket 0[core 0[hwt 0-1]]:[BB/../../../../../../../../../../../../../../../../../../../../../../../../../../../../../../..][../../../../../../../../../../../../../../../../../../../../../../../../../../../../../../../..]
 	Process OMPI jobid: [51000,1] App: 0 Process rank: 1 Bound: socket 0[core 1[hwt 0-1]]:[../BB/../../../../../../../../../../../../../../../../../../../../../../../../../../../../../..][../../../../../../../../../../../../../../../../../../../../../../../../../../../../../../../..]
 	Process OMPI jobid: [51000,1] App: 0 Process rank: 2 Bound: socket 0[core 8[hwt 0-1]]:[../../../../../../../../BB/../../../../../../../../../../../../../../../../../../../../../../..][../../../../../../../../../../../../../../../../../../../../../../../../../../../../../../../..]
 	Process OMPI jobid: [51000,1] App: 0 Process rank: 3 Bound: socket 0[core 9[hwt 0-1]]:[../../../../../../../../../BB/../../../../../../../../../../../../../../../../../../../../../..][../../../../../../../../../../../../../../../../../../../../../../../../../../../../../../../..]
 	Process OMPI jobid: [51000,1] App: 0 Process rank: 4 Bound: socket 0[core 16[hwt 0-1]]:[../../../../../../../../../../../../../../../../BB/../../../../../../../../../../../../../../..][../../../../../../../../../../../../../../../../../../../../../../../../../../../../../../../..]
 	Process OMPI jobid: [51000,1] App: 0 Process rank: 5 Bound: socket 0[core 17[hwt 0-1]]:[../../../../../../../../../../../../../../../../../BB/../../../../../../../../../../../../../..][../../../../../../../../../../../../../../../../../../../../../../../../../../../../../../../..]
 	Process OMPI jobid: [51000,1] App: 0 Process rank: 6 Bound: socket 0[core 24[hwt 0-1]]:[../../../../../../../../../../../../../../../../../../../../../../../../BB/../../../../../../..][../../../../../../../../../../../../../../../../../../../../../../../../../../../../../../../..]
 	Process OMPI jobid: [51000,1] App: 0 Process rank: 7 Bound: socket 0[core 25[hwt 0-1]]:[../../../../../../../../../../../../../../../../../../../../../../../../../BB/../../../../../..][../../../../../../../../../../../../../../../../../../../../../../../../../../../../../../../..]
 	Process OMPI jobid: [51000,1] App: 0 Process rank: 8 Bound: socket 1[core 32[hwt 0-1]]:[../../../../../../../../../../../../../../../../../../../../../../../../../../../../../../../..][BB/../../../../../../../../../../../../../../../../../../../../../../../../../../../../../../..]
 	Process OMPI jobid: [51000,1] App: 0 Process rank: 9 Bound: socket 1[core 33[hwt 0-1]]:[../../../../../../../../../../../../../../../../../../../../../../../../../../../../../../../..][../BB/../../../../../../../../../../../../../../../../../../../../../../../../../../../../../..]
 	Process OMPI jobid: [51000,1] App: 0 Process rank: 10 Bound: socket 1[core 40[hwt 0-1]]:[../../../../../../../../../../../../../../../../../../../../../../../../../../../../../../../..][../../../../../../../../BB/../../../../../../../../../../../../../../../../../../../../../../..]
 	Process OMPI jobid: [51000,1] App: 0 Process rank: 11 Bound: socket 1[core 41[hwt 0-1]]:[../../../../../../../../../../../../../../../../../../../../../../../../../../../../../../../..][../../../../../../../../../BB/../../../../../../../../../../../../../../../../../../../../../..]
 	Process OMPI jobid: [51000,1] App: 0 Process rank: 12 Bound: socket 1[core 48[hwt 0-1]]:[../../../../../../../../../../../../../../../../../../../../../../../../../../../../../../../..][../../../../../../../../../../../../../../../../BB/../../../../../../../../../../../../../../..]
 	Process OMPI jobid: [51000,1] App: 0 Process rank: 13 Bound: socket 1[core 49[hwt 0-1]]:[../../../../../../../../../../../../../../../../../../../../../../../../../../../../../../../..][../../../../../../../../../../../../../../../../../BB/../../../../../../../../../../../../../..]
 	Process OMPI jobid: [51000,1] App: 0 Process rank: 14 Bound: socket 1[core 56[hwt 0-1]]:[../../../../../../../../../../../../../../../../../../../../../../../../../../../../../../../..][../../../../../../../../../../../../../../../../../../../../../../../../BB/../../../../../../..]
 	Process OMPI jobid: [51000,1] App: 0 Process rank: 15 Bound: socket 1[core 57[hwt 0-1]]:[../../../../../../../../../../../../../../../../../../../../../../../../../../../../../../../..][../../../../../../../../../../../../../../../../../../../../../../../../../BB/../../../../../..]

 =============================================================
[1579248323.977673] [n004:50759:0]         mxm.c:196  MXM  WARN  The 'ulimit -s' on the system is set to 'unlimited'. This may have negative performance implications. Please set the stack size to the default value (10240) 
[1579248323.979147] [n004:50760:0]         mxm.c:196  MXM  WARN  The 'ulimit -s' on the system is set to 'unlimited'. This may have negative performance implications. Please set the stack size to the default value (10240) 
[1579248323.979614] [n004:50761:0]         mxm.c:196  MXM  WARN  The 'ulimit -s' on the system is set to 'unlimited'. This may have negative performance implications. Please set the stack size to the default value (10240) 
[1579248323.979791] [n004:50766:0]         mxm.c:196  MXM  WARN  The 'ulimit -s' on the system is set to 'unlimited'. This may have negative performance implications. Please set the stack size to the default value (10240) 
[1579248323.980309] [n004:50763:0]         mxm.c:196  MXM  WARN  The 'ulimit -s' on the system is set to 'unlimited'. This may have negative performance implications. Please set the stack size to the default value (10240) 
[1579248323.980383] [n004:50765:0]         mxm.c:196  MXM  WARN  The 'ulimit -s' on the system is set to 'unlimited'. This may have negative performance implications. Please set the stack size to the default value (10240) 
[1579248323.980881] [n004:50757:0]         mxm.c:196  MXM  WARN  The 'ulimit -s' on the system is set to 'unlimited'. This may have negative performance implications. Please set the stack size to the default value (10240) 
[1579248323.980882] [n004:50758:0]         mxm.c:196  MXM  WARN  The 'ulimit -s' on the system is set to 'unlimited'. This may have negative performance implications. Please set the stack size to the default value (10240) 
[1579248323.981839] [n004:50768:0]         mxm.c:196  MXM  WARN  The 'ulimit -s' on the system is set to 'unlimited'. This may have negative performance implications. Please set the stack size to the default value (10240) 
[1579248323.982103] [n004:50764:0]         mxm.c:196  MXM  WARN  The 'ulimit -s' on the system is set to 'unlimited'. This may have negative performance implications. Please set the stack size to the default value (10240) 
[1579248323.984087] [n004:50762:0]         mxm.c:196  MXM  WARN  The 'ulimit -s' on the system is set to 'unlimited'. This may have negative performance implications. Please set the stack size to the default value (10240) 
[1579248323.984406] [n004:50767:0]         mxm.c:196  MXM  WARN  The 'ulimit -s' on the system is set to 'unlimited'. This may have negative performance implications. Please set the stack size to the default value (10240) 
[1579248323.984741] [n004:50769:0]         mxm.c:196  MXM  WARN  The 'ulimit -s' on the system is set to 'unlimited'. This may have negative performance implications. Please set the stack size to the default value (10240) 
[1579248323.984741] [n004:50770:0]         mxm.c:196  MXM  WARN  The 'ulimit -s' on the system is set to 'unlimited'. This may have negative performance implications. Please set the stack size to the default value (10240) 
[1579248323.984937] [n004:50771:0]         mxm.c:196  MXM  WARN  The 'ulimit -s' on the system is set to 'unlimited'. This may have negative performance implications. Please set the stack size to the default value (10240) 
[1579248323.984905] [n004:50772:0]         mxm.c:196  MXM  WARN  The 'ulimit -s' on the system is set to 'unlimited'. This may have negative performance implications. Please set the stack size to the default value (10240) 
0: 2 

Rank 0 ghostCells: 172
Rank 1 ghostCells: 354
Rank 2 ghostCells: 328
Rank 3 ghostCells: 662
Rank 4 ghostCells: 723
Rank 5 ghostCells: 728
Rank 6 ghostCells: 307
Rank 7 ghostCells: 300
Rank 8 ghostCells: 795
Rank 9 ghostCells: 639
Rank 10 ghostCells: 791
Rank 11 ghostCells: 884
Rank 12 ghostCells: 652
Rank 13 ghostCells: 782
Rank 14 ghostCells: 941
Rank 15 ghostCells: 972

Rank 0 numCells: 2577
Rank 1 numCells: 3003
Rank 2 numCells: 2354
Rank 3 numCells: 3712
Rank 4 numCells: 3777
Rank 5 numCells: 3386
Rank 6 numCells: 2928
Rank 7 numCells: 2752
Rank 8 numCells: 3849
Rank 9 numCells: 3607
Rank 10 numCells: 3842
Rank 11 numCells: 3542
Rank 12 numCells: 3611
Rank 13 numCells: 3575
Rank 14 numCells: 3956
Rank 15 numCells: 3990

Rank 0 interiorCells: 2405
Rank 1 interiorCells: 2649
Rank 2 interiorCells: 2026
Rank 3 interiorCells: 3050
Rank 4 interiorCells: 3054
Rank 5 interiorCells: 2658
Rank 6 interiorCells: 2621
Rank 7 interiorCells: 2452
Rank 8 interiorCells: 3054
Rank 9 interiorCells: 2968
Rank 10 interiorCells: 3051
Rank 11 interiorCells: 2658
Rank 12 interiorCells: 2959
Rank 13 interiorCells: 2793
Rank 14 interiorCells: 3015
Rank 15 interiorCells: 3018

MeasComm+1 16: 2.719e-05 5.351e-05 6.14e-05 7.284e-05 7.3761e-05 6.647e-05 4.294e-05 5.98e-05 6.7641e-05 5.118e-05 7.048e-05 8.027e-05 7.474e-05 9.651e-05 9.421e-05 0.00010664 
MeasComm+1 16: 2.682e-05 5.359e-05 6.244e-05 7.267e-05 7.394e-05 6.648e-05 4.267e-05 5.942e-05 6.73e-05 5.233e-05 6.953e-05 8.093e-05 7.492e-05 9.856e-05 9.308e-05 0.00010587 
MeasComm+1 16: 2.687e-05 5.389e-05 6.22e-05 7.206e-05 7.443e-05 6.658e-05 4.343e-05 5.967e-05 6.785e-05 5.139e-05 6.948e-05 8.446e-05 7.5521e-05 9.795e-05 9.4531e-05 0.00010713 
MeasComm+1 16: 2.695e-05 5.287e-05 6.166e-05 7.144e-05 7.496e-05 6.545e-05 4.35e-05 6.015e-05 6.757e-05 5.179e-05 7e-05 8.042e-05 7.452e-05 9.7071e-05 8.551e-05 0.00010534 
MeasComm+1 16: 2.71e-05 5.289e-05 6.272e-05 7.186e-05 7.431e-05 6.635e-05 4.327e-05 6.005e-05 6.723e-05 5.226e-05 7.0641e-05 8.498e-05 7.42e-05 9.799e-05 9.293e-05 0.00010636 
MeasComm+1 16: 2.7e-05 5.345e-05 6.172e-05 7.226e-05 7.505e-05 6.654e-05 4.302e-05 5.989e-05 6.7711e-05 5.137e-05 7.051e-05 8.506e-05 7.357e-05 9.837e-05 9.481e-05 0.00010691 
MeasComm+1 16: 2.65e-05 5.2871e-05 5.952e-05 7.181e-05 7.551e-05 6.61e-05 4.375e-05 5.982e-05 6.73e-05 5.183e-05 7.022e-05 8.2351e-05 7.389e-05 9.771e-05 9.2631e-05 0.00010645 
MeasComm+1 16: 2.693e-05 5.228e-05 6.11e-05 7.156e-05 7.583e-05 6.614e-05 4.362e-05 5.971e-05 6.704e-05 5.127e-05 6.937e-05 8.525e-05 7.511e-05 9.749e-05 9.203e-05 0.00010685 
MeasComm+1 16: 2.632e-05 5.249e-05 6.089e-05 7.247e-05 7.527e-05 6.648e-05 4.362e-05 5.9841e-05 6.7411e-05 5.149e-05 7.044e-05 8.483e-05 7.393e-05 9.8e-05 9.441e-05 0.00010711 
MeasComm+1 16: 2.667e-05 5.228e-05 6.095e-05 7.212e-05 7.3751e-05 6.645e-05 4.259e-05 5.989e-05 6.754e-05 5.169e-05 6.9841e-05 8.275e-05 7.38e-05 9.7841e-05 8.897e-05 0.00010768 

MeasCopy 16: 8.07e-06 1.663e-05 1.536e-05 3.103e-05 3.391e-05 3.412e-05 1.442e-05 1.404e-05 3.721e-05 2.995e-05 3.71e-05 4.142e-05 3.057e-05 3.667e-05 4.4081e-05 4.553e-05 
MeasCopy 16: 8.07e-06 1.658e-05 1.539e-05 3.104e-05 3.383e-05 3.412e-05 1.441e-05 1.407e-05 3.725e-05 2.992e-05 3.707e-05 4.144e-05 3.053e-05 3.665e-05 4.41e-05 4.554e-05 
MeasCopy 16: 8.09e-06 1.661e-05 1.537e-05 3.099e-05 3.385e-05 3.41e-05 1.438e-05 1.407e-05 3.726e-05 2.998e-05 3.703e-05 4.137e-05 3.055e-05 3.664e-05 4.412e-05 4.556e-05 
MeasCopy 16: 8.061e-06 1.661e-05 1.539e-05 3.104e-05 3.386e-05 3.411e-05 1.439e-05 1.405e-05 3.723e-05 2.998e-05 3.708e-05 4.142e-05 3.053e-05 3.666e-05 4.41e-05 4.556e-05 
MeasCopy 16: 8.08e-06 1.663e-05 1.538e-05 3.101e-05 3.392e-05 3.411e-05 1.441e-05 1.406e-05 3.724e-05 2.996e-05 3.706e-05 4.14e-05 3.057e-05 3.666e-05 4.4141e-05 4.549e-05 
MeasCopy 16: 8.07e-06 1.66e-05 1.538e-05 3.103e-05 3.385e-05 3.407e-05 1.439e-05 1.407e-05 3.722e-05 2.998e-05 3.705e-05 4.14e-05 3.05e-05 3.664e-05 4.404e-05 4.556e-05 
MeasCopy 16: 8.08e-06 1.657e-05 1.536e-05 3.104e-05 3.387e-05 3.4101e-05 1.444e-05 1.408e-05 3.721e-05 2.998e-05 3.704e-05 4.143e-05 3.056e-05 3.663e-05 4.409e-05 4.557e-05 
MeasCopy 16: 8.07e-06 1.66e-05 1.539e-05 3.1e-05 3.387e-05 3.413e-05 1.44e-05 1.404e-05 3.723e-05 2.991e-05 3.705e-05 4.144e-05 3.046e-05 3.665e-05 4.41e-05 4.552e-05 
MeasCopy 16: 8.09e-06 1.66e-05 1.535e-05 3.105e-05 3.387e-05 3.412e-05 1.439e-05 1.407e-05 3.725e-05 2.993e-05 3.707e-05 4.146e-05 3.058e-05 3.661e-05 4.412e-05 4.558e-05 
MeasCopy 16: 8.09e-06 1.663e-05 1.538e-05 3.102e-05 3.39e-05 3.409e-05 1.44e-05 1.41e-05 3.725e-05 2.996e-05 3.7e-05 4.144e-05 3.056e-05 3.664e-05 4.407e-05 4.556e-05 

ComTab rank 0: 0 143 3 0 0 0 0 30 0 0 0 0 0 0 0 0 
ComTab rank 1: 143 0 35 160 0 0 0 26 0 0 0 0 0 21 0 0 
ComTab rank 2: 5 37 0 268 0 9 0 0 0 0 0 0 0 46 0 16 
ComTab rank 3: 0 162 253 0 0 0 0 8 0 0 0 0 171 86 0 43 
ComTab rank 4: 0 0 0 0 0 362 163 76 0 0 0 0 0 61 0 139 
ComTab rank 5: 0 0 44 0 416 0 108 0 0 0 0 0 0 68 0 171 
ComTab rank 6: 0 0 0 0 168 132 0 57 0 0 0 0 0 0 0 0 
ComTab rank 7: 53 29 0 14 106 0 78 0 0 0 0 0 0 45 0 9 
ComTab rank 8: 0 0 0 0 0 0 0 0 0 270 170 267 26 25 138 10 
ComTab rank 9: 0 0 0 0 0 0 0 0 251 0 162 276 9 0 0 0 
ComTab rank 10: 0 0 0 0 0 0 0 0 172 162 0 289 114 17 136 0 
ComTab rank 11: 0 0 0 0 0 0 0 0 253 262 286 0 81 8 93 38 
ComTab rank 12: 0 0 0 171 0 0 0 0 17 11 117 75 0 125 174 82 
ComTab rank 13: 0 27 75 130 124 86 0 43 26 0 22 8 133 0 117 181 
ComTab rank 14: 0 0 0 0 0 0 0 0 139 0 138 94 168 101 0 457 
ComTab rank 15: 0 0 38 74 134 160 0 9 10 0 0 40 78 151 440 0 

Edge-cut: 7199

Wgt-cut: 3.32096e-08

[1579248334.254890] [n004:50761:0]          mpool.c:38   UCX  WARN  object 0x155544122f60 was not returned to mpool mm_recv_desc
[1579248334.300183] [n004:50759:0]          mpool.c:38   UCX  WARN  object 0x155544112b60 was not returned to mpool mm_recv_desc
[1579248334.308466] [n004:50765:0]          mpool.c:38   UCX  WARN  object 0x155544120ee0 was not returned to mpool mm_recv_desc
[1579248334.314752] [n004:50758:0]          mpool.c:38   UCX  WARN  object 0x15554411ad60 was not returned to mpool mm_recv_desc
