 Data for JOB [29803,1] offset 0 Total slots allocated 4

 ========================   JOB MAP   ========================

 Data for node: n004	Num slots: 4	Max slots: 0	Num procs: 4
 	Process OMPI jobid: [29803,1] App: 0 Process rank: 0 Bound: socket 0[core 1[hwt 0-1]]:[../BB/../../../../../../../../../../../../../../../../../../../../../../../../../../../../../..][../../../../../../../../../../../../../../../../../../../../../../../../../../../../../../../..]
 	Process OMPI jobid: [29803,1] App: 0 Process rank: 1 Bound: socket 1[core 51[hwt 0-1]]:[../../../../../../../../../../../../../../../../../../../../../../../../../../../../../../../..][../../../../../../../../../../../../../../../../../../../BB/../../../../../../../../../../../..]
 	Process OMPI jobid: [29803,1] App: 0 Process rank: 2 Bound: socket 0[core 2[hwt 0-1]]:[../../BB/../../../../../../../../../../../../../../../../../../../../../../../../../../../../..][../../../../../../../../../../../../../../../../../../../../../../../../../../../../../../../..]
 	Process OMPI jobid: [29803,1] App: 0 Process rank: 3 Bound: socket 1[core 52[hwt 0-1]]:[../../../../../../../../../../../../../../../../../../../../../../../../../../../../../../../..][../../../../../../../../../../../../../../../../../../../../BB/../../../../../../../../../../..]

 =============================================================
Two group cota
0 1 1
1 0 0
2 3 3
3 2 2
dune-size 1 6.83651e-06 6.83181e-06 9.02051e-06 9.01881e-06 
dune-size 2 6.28001e-06 6.27581e-06 8.44581e-06 8.43641e-06 
dune-size 4 6.48361e-06 6.47991e-06 8.80241e-06 8.79221e-06 
dune-size 8 7.00961e-06 7.00311e-06 9.66591e-06 9.65791e-06 
dune-size 16 7.545e-06 7.5336e-06 9.54791e-06 9.54991e-06 
dune-size 32 9.51772e-06 9.51182e-06 8.81641e-06 8.81951e-06 
dune-size 64 1.07284e-05 1.07313e-05 1.04e-05 1.04002e-05 
dune-size 128 1.20281e-05 1.20257e-05 1.19553e-05 1.19544e-05 
dune-size 256 1.95458e-05 1.95366e-05 1.97423e-05 1.97435e-05 
dune-size 512 3.52065e-05 3.52029e-05 3.49931e-05 3.49865e-05 
dune-size 1024 0.000106079 0.000106079 0.000105979 0.000105985 
dune-size 2048 0.000202249 0.000202238 0.000201324 0.000201317 
dune-size 4096 0.000388192 0.000388196 0.000390989 0.000391 
dune-size 8192 0.00066221 0.000662138 0.000661978 0.000661999 
dune-size 16384 0.000951203 0.000951234 0.000970721 0.000970753 
dune-size 32768 0.00166194 0.00166202 0.00167312 0.0016732 
dune-size 65536 0.00327422 0.00327518 0.00330159 0.00330251 
dune-size 131072 0.00655724 0.00656003 0.00653822 0.00653922 
