 Data for JOB [21440,1] offset 0 Total slots allocated 2

 ========================   JOB MAP   ========================

 Data for node: n004	Num slots: 2	Max slots: 0	Num procs: 2
 	Process OMPI jobid: [21440,1] App: 0 Process rank: 0 Bound: socket 1[core 40[hwt 0-1]]:[../../../../../../../../../../../../../../../../../../../../../../../../../../../../../../../..][../../../../../../../../BB/../../../../../../../../../../../../../../../../../../../../../../..]
 	Process OMPI jobid: [21440,1] App: 0 Process rank: 1 Bound: socket 1[core 41[hwt 0-1]]:[../../../../../../../../../../../../../../../../../../../../../../../../../../../../../../../..][../../../../../../../../../BB/../../../../../../../../../../../../../../../../../../../../../..]

 =============================================================
[1579610118.021100] [n004:21200:0]         mxm.c:196  MXM  WARN  The 'ulimit -s' on the system is set to 'unlimited'. This may have negative performance implications. Please set the stack size to the default value (10240) 
[1579610118.021100] [n004:21201:0]         mxm.c:196  MXM  WARN  The 'ulimit -s' on the system is set to 'unlimited'. This may have negative performance implications. Please set the stack size to the default value (10240) 
0: 1 

Rank 0 ghostCells: 12469
Rank 1 ghostCells: 13431

Rank 0 numCells: 206192
Rank 1 numCells: 175115

Rank 0 interiorCells: 193723
Rank 1 interiorCells: 161684

MeasComm+1 2: 0.000930673 0.000919633 
MeasComm+1 2: 0.000931493 0.000919303 
MeasComm+1 2: 0.000931543 0.000918844 
MeasComm+1 2: 0.000931024 0.000921883 
MeasComm+1 2: 0.000925103 0.000918173 
MeasComm+1 2: 0.000927974 0.000919863 
MeasComm+1 2: 0.000927023 0.000920223 
MeasComm+1 2: 0.000928743 0.000919933 
MeasComm+1 2: 0.000928163 0.000917143 
MeasComm+1 2: 0.000926643 0.000921643 

MeasCopy 2: 0.000585042 0.000630202 
MeasCopy 2: 0.000585023 0.000630402 
MeasCopy 2: 0.000585082 0.000630132 
MeasCopy 2: 0.000584862 0.000629922 
MeasCopy 2: 0.000584922 0.000630212 
MeasCopy 2: 0.000584962 0.000629662 
MeasCopy 2: 0.000584962 0.000630212 
MeasCopy 2: 0.000584921 0.000630182 
MeasCopy 2: 0.000585022 0.000630032 
MeasCopy 2: 0.000585032 0.000630262 

ComTab rank 0: 0 12469 
ComTab rank 1: 13431 0 

Edge-cut: 21788

Wgt-cut: 2.68323e-09

[1579610191.203500] [n004:21201:0]          mpool.c:38   UCX  WARN  object 0x5555620ae200 was not returned to mpool ucp_am_bufs
