[1578476913.940047] [srl-adm2:6723 :0]         mxm.c:196  MXM  WARN  The 'ulimit -s' on the system is set to 'unlimited'. This may have negative performance implications. Please set the stack size to the default value (10240) 
[1578476913.939959] [srl-adm2:6724 :0]         mxm.c:196  MXM  WARN  The 'ulimit -s' on the system is set to 'unlimited'. This may have negative performance implications. Please set the stack size to the default value (10240) 
0: 4 
After loadbalancing process 0 has 22259 cells.
After loadbalancing process 1 has 26297 cells.

Rank 0 ghostCells: 2179
Rank 1 ghostCells: 1946

Rank 0 numCells: 22259
Rank 1 numCells: 26297

Rank 0 interiorCells: 20080
Rank 1 interiorCells: 24351

ComTab rank 0: 0 2179 
ComTab rank 1: 1946 0 

Edge-cut: 4254

Wgt-cut: 1.03941e-09

[1578476917.810164] [srl-adm2:6724 :0]          mpool.c:38   UCX  WARN  object 0x155544122f60 was not returned to mpool mm_recv_desc
