 Data for JOB [53789,1] offset 0 Total slots allocated 4

 ========================   JOB MAP   ========================

 Data for node: n004	Num slots: 4	Max slots: 0	Num procs: 4
 	Process OMPI jobid: [53789,1] App: 0 Process rank: 0 Bound: socket 0[core 0[hwt 0-1]]:[BB/../../../../../../../../../../../../../../../../../../../../../../../../../../../../../../..][../../../../../../../../../../../../../../../../../../../../../../../../../../../../../../../..]
 	Process OMPI jobid: [53789,1] App: 0 Process rank: 1 Bound: socket 0[core 8[hwt 0-1]]:[../../../../../../../../BB/../../../../../../../../../../../../../../../../../../../../../../..][../../../../../../../../../../../../../../../../../../../../../../../../../../../../../../../..]
 	Process OMPI jobid: [53789,1] App: 0 Process rank: 2 Bound: socket 0[core 16[hwt 0-1]]:[../../../../../../../../../../../../../../../../BB/../../../../../../../../../../../../../../..][../../../../../../../../../../../../../../../../../../../../../../../../../../../../../../../..]
 	Process OMPI jobid: [53789,1] App: 0 Process rank: 3 Bound: socket 0[core 24[hwt 0-1]]:[../../../../../../../../../../../../../../../../../../../../../../../../BB/../../../../../../..][../../../../../../../../../../../../../../../../../../../../../../../../../../../../../../../..]

 =============================================================
[1579602107.421610] [n004:119595:0]         mxm.c:196  MXM  WARN  The 'ulimit -s' on the system is set to 'unlimited'. This may have negative performance implications. Please set the stack size to the default value (10240) 
[1579602107.422417] [n004:119596:0]         mxm.c:196  MXM  WARN  The 'ulimit -s' on the system is set to 'unlimited'. This may have negative performance implications. Please set the stack size to the default value (10240) 
[1579602107.422910] [n004:119597:0]         mxm.c:196  MXM  WARN  The 'ulimit -s' on the system is set to 'unlimited'. This may have negative performance implications. Please set the stack size to the default value (10240) 
[1579602107.423011] [n004:119594:0]         mxm.c:196  MXM  WARN  The 'ulimit -s' on the system is set to 'unlimited'. This may have negative performance implications. Please set the stack size to the default value (10240) 
0: 2 

Rank 0 ghostCells: 1266
Rank 1 ghostCells: 2200
Rank 2 ghostCells: 2049
Rank 3 ghostCells: 5338

Rank 0 numCells: 83009
Rank 1 numCells: 86404
Rank 2 numCells: 96601
Rank 3 numCells: 100246

Rank 0 interiorCells: 81743
Rank 1 interiorCells: 84204
Rank 2 interiorCells: 94552
Rank 3 interiorCells: 94908

MeasComm+1 4: 0.00021751 0.00021566 0.00022907 0.00030085 
MeasComm+1 4: 0.00023049 0.000220181 0.000230591 0.000303031 
MeasComm+1 4: 0.000227561 0.000220751 0.00024387 0.000302181 
MeasComm+1 4: 0.00023075 0.00021374 0.00022692 0.000302021 
MeasComm+1 4: 0.00022004 0.000218121 0.000240541 0.00030358 
MeasComm+1 4: 0.00022743 0.00022046 0.00024372 0.000302261 
MeasComm+1 4: 0.00022717 0.00021482 0.00023597 0.000303261 
MeasComm+1 4: 0.000228581 0.000214491 0.000233301 0.00030093 
MeasComm+1 4: 0.000228761 0.00021487 0.00022912 0.000301481 
MeasComm+1 4: 0.000230241 0.00021783 0.00023765 0.00030147 

MeasCopy 4: 5.9331e-05 0.00010319 9.606e-05 0.000250641 
MeasCopy 4: 5.937e-05 0.00010311 9.595e-05 0.00025037 
MeasCopy 4: 5.934e-05 0.00010311 9.604e-05 0.00025065 
MeasCopy 4: 5.933e-05 0.00010316 9.609e-05 0.000250241 
MeasCopy 4: 5.931e-05 0.00010316 9.6061e-05 0.00025054 
MeasCopy 4: 5.924e-05 0.00010312 9.603e-05 0.00025063 
MeasCopy 4: 5.936e-05 0.00010311 9.604e-05 0.00025058 
MeasCopy 4: 5.932e-05 0.00010316 9.598e-05 0.00025058 
MeasCopy 4: 5.932e-05 0.00010317 9.6051e-05 0.000250591 
MeasCopy 4: 5.923e-05 0.00010316 9.601e-05 0.00025053 

ComTab rank 0: 0 168 0 1103 
ComTab rank 1: 422 0 0 1781 
ComTab rank 2: 0 0 0 2049 
ComTab rank 3: 1614 1637 2089 0 

Edge-cut: 7873

Wgt-cut: 2.24825e-08

[1579602158.700495] [n004:119596:0]          mpool.c:38   UCX  WARN  object 0x155544120ee0 was not returned to mpool mm_recv_desc
[1579602158.700951] [n004:119597:0]          mpool.c:38   UCX  WARN  object 0x155544122f60 was not returned to mpool mm_recv_desc
[1579602158.701787] [n004:119595:0]          mpool.c:38   UCX  WARN  object 0x55555d561540 was not returned to mpool ucp_am_bufs
