 Data for JOB [54563,1] offset 0 Total slots allocated 8

 ========================   JOB MAP   ========================

 Data for node: n004	Num slots: 8	Max slots: 0	Num procs: 8
 	Process OMPI jobid: [54563,1] App: 0 Process rank: 0 Bound: socket 0[core 0[hwt 0-1]]:[BB/../../../../../../../../../../../../../../../../../../../../../../../../../../../../../../..][../../../../../../../../../../../../../../../../../../../../../../../../../../../../../../../..]
 	Process OMPI jobid: [54563,1] App: 0 Process rank: 1 Bound: socket 0[core 1[hwt 0-1]]:[../BB/../../../../../../../../../../../../../../../../../../../../../../../../../../../../../..][../../../../../../../../../../../../../../../../../../../../../../../../../../../../../../../..]
 	Process OMPI jobid: [54563,1] App: 0 Process rank: 2 Bound: socket 0[core 8[hwt 0-1]]:[../../../../../../../../BB/../../../../../../../../../../../../../../../../../../../../../../..][../../../../../../../../../../../../../../../../../../../../../../../../../../../../../../../..]
 	Process OMPI jobid: [54563,1] App: 0 Process rank: 3 Bound: socket 0[core 9[hwt 0-1]]:[../../../../../../../../../BB/../../../../../../../../../../../../../../../../../../../../../..][../../../../../../../../../../../../../../../../../../../../../../../../../../../../../../../..]
 	Process OMPI jobid: [54563,1] App: 0 Process rank: 4 Bound: socket 0[core 16[hwt 0-1]]:[../../../../../../../../../../../../../../../../BB/../../../../../../../../../../../../../../..][../../../../../../../../../../../../../../../../../../../../../../../../../../../../../../../..]
 	Process OMPI jobid: [54563,1] App: 0 Process rank: 5 Bound: socket 0[core 17[hwt 0-1]]:[../../../../../../../../../../../../../../../../../BB/../../../../../../../../../../../../../..][../../../../../../../../../../../../../../../../../../../../../../../../../../../../../../../..]
 	Process OMPI jobid: [54563,1] App: 0 Process rank: 6 Bound: socket 0[core 24[hwt 0-1]]:[../../../../../../../../../../../../../../../../../../../../../../../../BB/../../../../../../..][../../../../../../../../../../../../../../../../../../../../../../../../../../../../../../../..]
 	Process OMPI jobid: [54563,1] App: 0 Process rank: 7 Bound: socket 0[core 25[hwt 0-1]]:[../../../../../../../../../../../../../../../../../../../../../../../../../BB/../../../../../..][../../../../../../../../../../../../../../../../../../../../../../../../../../../../../../../..]

 =============================================================
[1579602161.099863] [n004:119859:0]         mxm.c:196  MXM  WARN  The 'ulimit -s' on the system is set to 'unlimited'. This may have negative performance implications. Please set the stack size to the default value (10240) 
[1579602161.099859] [n004:119860:0]         mxm.c:196  MXM  WARN  The 'ulimit -s' on the system is set to 'unlimited'. This may have negative performance implications. Please set the stack size to the default value (10240) 
[1579602161.100178] [n004:119863:0]         mxm.c:196  MXM  WARN  The 'ulimit -s' on the system is set to 'unlimited'. This may have negative performance implications. Please set the stack size to the default value (10240) 
[1579602161.100177] [n004:119864:0]         mxm.c:196  MXM  WARN  The 'ulimit -s' on the system is set to 'unlimited'. This may have negative performance implications. Please set the stack size to the default value (10240) 
[1579602161.100311] [n004:119861:0]         mxm.c:196  MXM  WARN  The 'ulimit -s' on the system is set to 'unlimited'. This may have negative performance implications. Please set the stack size to the default value (10240) 
[1579602161.100311] [n004:119862:0]         mxm.c:196  MXM  WARN  The 'ulimit -s' on the system is set to 'unlimited'. This may have negative performance implications. Please set the stack size to the default value (10240) 
[1579602161.100824] [n004:119857:0]         mxm.c:196  MXM  WARN  The 'ulimit -s' on the system is set to 'unlimited'. This may have negative performance implications. Please set the stack size to the default value (10240) 
[1579602161.100824] [n004:119858:0]         mxm.c:196  MXM  WARN  The 'ulimit -s' on the system is set to 'unlimited'. This may have negative performance implications. Please set the stack size to the default value (10240) 
0: 2 

Rank 0 ghostCells: 2404
Rank 1 ghostCells: 3655
Rank 2 ghostCells: 4080
Rank 3 ghostCells: 2157
Rank 4 ghostCells: 3250
Rank 5 ghostCells: 1604
Rank 6 ghostCells: 978
Rank 7 ghostCells: 3099

Rank 0 numCells: 50044
Rank 1 numCells: 43417
Rank 2 numCells: 49199
Rank 3 numCells: 47998
Rank 4 numCells: 51598
Rank 5 numCells: 37602
Rank 6 numCells: 49846
Rank 7 numCells: 46930

Rank 0 interiorCells: 47640
Rank 1 interiorCells: 39762
Rank 2 interiorCells: 45119
Rank 3 interiorCells: 45841
Rank 4 interiorCells: 48348
Rank 5 interiorCells: 35998
Rank 6 interiorCells: 48868
Rank 7 interiorCells: 43831

MeasComm+1 8: 0.00029906 0.00032463 0.00026531 0.00018945 0.00023729 0.00015772 0.00020292 0.00020352 
MeasComm+1 8: 0.000254041 0.000272121 0.000252131 0.000186871 0.00022307 0.00015803 0.00016938 0.00020116 
MeasComm+1 8: 0.00024114 0.00027431 0.000261881 0.000190431 0.00021966 0.00015806 0.0001891 0.00018923 
MeasComm+1 8: 0.00023981 0.00027747 0.000265491 0.00018914 0.00022229 0.00015804 0.00019083 0.00019488 
MeasComm+1 8: 0.000239431 0.000264751 0.00025004 0.00018497 0.000220341 0.000158211 0.000183281 0.00019608 
MeasComm+1 8: 0.000245611 0.000279401 0.00026617 0.000185701 0.000215221 0.00015812 0.000192681 0.000199311 
MeasComm+1 8: 0.00023926 0.00027529 0.00025498 0.00018891 0.00021094 0.00015703 0.00018797 0.00019021 
MeasComm+1 8: 0.00024707 0.00026286 0.00025666 0.00018342 0.00021778 0.00014891 0.00017214 0.00018919 
MeasComm+1 8: 0.00027239 0.00029794 0.00024824 0.00018737 0.00022065 0.00015571 0.00018713 0.00019369 
MeasComm+1 8: 0.000287601 0.000282531 0.000255811 0.00018728 0.000217531 0.00015828 0.000186261 0.000201731 

MeasCopy 8: 0.000112761 0.00017135 0.000191411 0.000101181 0.00015241 7.518e-05 4.582e-05 0.0001453 
MeasCopy 8: 0.00011269 0.000171411 0.000191351 0.00010117 0.00015236 7.522e-05 4.581e-05 0.00014525 
MeasCopy 8: 0.00011272 0.00017134 0.00019131 0.000101161 0.00015232 7.515e-05 4.585e-05 0.00014527 
MeasCopy 8: 0.00011272 0.000171341 0.000191411 0.00010116 0.00015235 7.512e-05 4.584e-05 0.00014527 
MeasCopy 8: 0.0001127 0.00017145 0.000191441 0.00010117 0.000152371 7.518e-05 4.583e-05 0.000145281 
MeasCopy 8: 0.00011266 0.00017138 0.0001914 0.00010118 0.000152451 7.515e-05 4.583e-05 0.00014529 
MeasCopy 8: 0.00011271 0.00017125 0.00019134 0.00010122 0.00015235 7.522e-05 4.586e-05 0.0001453 
MeasCopy 8: 0.00011266 0.000171351 0.00019129 0.00010119 0.00015243 7.514e-05 4.584e-05 0.000145171 
MeasCopy 8: 0.00011273 0.00017134 0.00019144 0.00010118 0.00015237 7.516e-05 4.585e-05 0.0001452 
MeasCopy 8: 0.000112761 0.000171291 0.00019146 0.00010123 0.00015237 7.521e-05 4.579e-05 0.0001452 

ComTab rank 0: 0 931 621 0 63 0 597 285 
ComTab rank 1: 1012 0 1296 0 1053 0 0 374 
ComTab rank 2: 620 1282 0 2144 0 0 0 113 
ComTab rank 3: 0 0 2101 0 0 0 0 62 
ComTab rank 4: 306 1053 0 0 0 1346 0 612 
ComTab rank 5: 0 0 0 0 1429 0 15 185 
ComTab rank 6: 664 0 0 0 0 14 0 309 
ComTab rank 7: 521 537 123 65 1058 381 579 0 

Edge-cut: 16574

Wgt-cut: 3.34852e-08

[1579602240.002698] [n004:119862:0]          mpool.c:38   UCX  WARN  object 0x155544120ee0 was not returned to mpool mm_recv_desc
[1579602240.014013] [n004:119863:0]          mpool.c:38   UCX  WARN  object 0x155544122f60 was not returned to mpool mm_recv_desc
[1579602240.020424] [n004:119864:0]          mpool.c:38   UCX  WARN  object 0x15554411ee60 was not returned to mpool mm_recv_desc
[1579602240.021739] [n004:119861:0]          mpool.c:38   UCX  WARN  object 0x15554411cde0 was not returned to mpool mm_recv_desc
[1579602240.031002] [n004:119860:0]          mpool.c:38   UCX  WARN  object 0x15554411ad60 was not returned to mpool mm_recv_desc
[1579602240.036265] [n004:119859:0]          mpool.c:38   UCX  WARN  object 0x555563ec41c0 was not returned to mpool ucp_am_bufs
[1579602240.037481] [n004:119858:0]          mpool.c:38   UCX  WARN  object 0x555563044380 was not returned to mpool ucp_am_bufs
