[1578557807.734700] [srl-mds1:30069:0]         mxm.c:196  MXM  WARN  The 'ulimit -s' on the system is set to 'unlimited'. This may have negative performance implications. Please set the stack size to the default value (10240) 
[1578557807.734699] [srl-mds1:30070:0]         mxm.c:196  MXM  WARN  The 'ulimit -s' on the system is set to 'unlimited'. This may have negative performance implications. Please set the stack size to the default value (10240) 
[1578557807.734905] [srl-mds1:30067:0]         mxm.c:196  MXM  WARN  The 'ulimit -s' on the system is set to 'unlimited'. This may have negative performance implications. Please set the stack size to the default value (10240) 
[1578557807.734905] [srl-mds1:30068:0]         mxm.c:196  MXM  WARN  The 'ulimit -s' on the system is set to 'unlimited'. This may have negative performance implications. Please set the stack size to the default value (10240) 
0: 11 
Edge Weight Method: 11
Cell on rank 0: 11147
Cell on rank 1: 10908
Cell on rank 2: 11492
Cell on rank 3: 10884
Edge-cut: 22294212

Rank 0 ghostCells: 602
Rank 1 ghostCells: 1308
Rank 2 ghostCells: 636
Rank 3 ghostCells: 479

Rank 0 numCells: 11749
Rank 1 numCells: 12216
Rank 2 numCells: 12128
Rank 3 numCells: 11363

Rank 0 interiorCells: 11147
Rank 1 interiorCells: 10908
Rank 2 interiorCells: 11492
Rank 3 interiorCells: 10884

MeasComm+1 4: 4.717e-05 6.2206e-05 5.6276e-05 4.1884e-05 
MeasComm+1 4: 4.6929e-05 6.1656e-05 5.6338e-05 4.1388e-05 
MeasComm+1 4: 4.5875e-05 6.1811e-05 5.5813e-05 4.1419e-05 
MeasComm+1 4: 4.6993e-05 6.189e-05 5.5554e-05 4.1403e-05 
MeasComm+1 4: 4.7183e-05 6.18e-05 5.622e-05 4.1964e-05 
MeasComm+1 4: 4.5292e-05 6.1542e-05 5.3774e-05 4.1575e-05 
MeasComm+1 4: 4.2352e-05 6.1697e-05 4.7592e-05 4.1371e-05 
MeasComm+1 4: 4.6936e-05 6.149e-05 5.0152e-05 4.1023e-05 
MeasComm+1 4: 4.7118e-05 6.1948e-05 5.0825e-05 4.0937e-05 
MeasComm+1 4: 4.673e-05 6.1915e-05 5.5713e-05 4.1317e-05 

ComTab rank 0: 0 602 0 0 
ComTab rank 1: 596 0 435 322 
ComTab rank 2: 0 466 0 206 
ComTab rank 3: 0 328 188 0 

Edge-cut: 2551

Wgt-cut: 2.27341e-08

[1578557812.427041] [srl-mds1:30069:0]          mpool.c:38   UCX  WARN  object 0x1555394fce60 was not returned to mpool mm_recv_desc
[1578557812.431480] [srl-mds1:30070:0]          mpool.c:38   UCX  WARN  object 0x155539500f60 was not returned to mpool mm_recv_desc
[1578557812.431618] [srl-mds1:30068:0]          mpool.c:38   UCX  WARN  object 0x1555394feee0 was not returned to mpool mm_recv_desc
