 Data for JOB [41511,1] offset 0 Total slots allocated 2

 ========================   JOB MAP   ========================

 Data for node: n001	Num slots: 2	Max slots: 0	Num procs: 2
 	Process OMPI jobid: [41511,1] App: 0 Process rank: 0 Bound: socket 0[core 9[hwt 0-1]]:[../../../../../../../../../BB/../../../../../../../../../../../../../../../../../../../../../..][../../../../../../../../../../../../../../../../../../../../../../../../../../../../../../../..]
 	Process OMPI jobid: [41511,1] App: 0 Process rank: 1 Bound: socket 1[core 42[hwt 0-1]]:[../../../../../../../../../../../../../../../../../../../../../../../../../../../../../../../..][../../../../../../../../../../BB/../../../../../../../../../../../../../../../../../../../../..]

 =============================================================
dune-size 1 5.42599e-06 5.41899e-06 
dune-size 2 5.30239e-06 5.30519e-06 
dune-size 4 5.44508e-06 5.44648e-06 
dune-size 8 5.62739e-06 5.62889e-06 
dune-size 16 6.08949e-06 6.08839e-06 
dune-size 32 6.97748e-06 6.98138e-06 
dune-size 64 8.88978e-06 8.89068e-06 
dune-size 128 1.23214e-05 1.232e-05 
dune-size 256 1.95792e-05 1.95625e-05 
dune-size 512 3.32863e-05 3.32817e-05 
dune-size 1024 0.000107649 0.000107638 
dune-size 2048 0.000201095 0.000201081 
dune-size 4096 0.000380501 0.000380473 
dune-size 8192 0.000633945 0.000633859 
dune-size 16384 0.000947684 0.000947564 
dune-size 32768 0.00170184 0.00170161 
dune-size 65536 0.00331835 0.00329794 
dune-size 131072 0.00656734 0.00656373 
dune-size 262144 0.0130926 0.0130939 
dune-size 524288 0.0257194 0.025716 
dune-size 1048576 0.0515912 0.0515483 
