 Data for JOB [24407,1] offset 0 Total slots allocated 2

 ========================   JOB MAP   ========================

 Data for node: n004	Num slots: 2	Max slots: 0	Num procs: 2
 	Process OMPI jobid: [24407,1] App: 0 Process rank: 0 Bound: socket 1[core 49[hwt 0-1]]:[../../../../../../../../../../../../../../../../../../../../../../../../../../../../../../../..][../../../../../../../../../../../../../../../../../BB/../../../../../../../../../../../../../..]
 	Process OMPI jobid: [24407,1] App: 0 Process rank: 1 Bound: socket 1[core 34[hwt 0-1]]:[../../../../../../../../../../../../../../../../../../../../../../../../../../../../../../../..][../../BB/../../../../../../../../../../../../../../../../../../../../../../../../../../../../..]

 =============================================================
dune-size 1 7.62681e-06 7.63401e-06 
dune-size 2 7.35461e-06 7.36291e-06 
dune-size 4 7.63091e-06 7.63841e-06 
dune-size 8 8.09001e-06 8.09831e-06 
dune-size 16 9.07861e-06 9.08741e-06 
dune-size 32 1.05795e-05 1.0592e-05 
dune-size 64 1.42901e-05 1.42797e-05 
dune-size 128 1.55067e-05 1.54845e-05 
dune-size 256 1.73936e-05 1.73951e-05 
dune-size 512 3.06052e-05 3.0606e-05 
dune-size 1024 8.61877e-05 8.61978e-05 
dune-size 2048 0.000162894 0.000162887 
dune-size 4096 0.000313541 0.000313531 
dune-size 8192 0.000564531 0.000564488 
dune-size 16384 0.000858907 0.000858884 
dune-size 32768 0.00163035 0.00163032 
dune-size 65536 0.00318405 0.00318917 
dune-size 131072 0.00636421 0.00635634 
dune-size 262144 0.0126671 0.0126647 
dune-size 524288 0.0252723 0.0252714 
dune-size 1048576 0.0504348 0.0504593 
