 Data for JOB [25775,1] offset 0 Total slots allocated 4

 ========================   JOB MAP   ========================

 Data for node: n004	Num slots: 4	Max slots: 0	Num procs: 4
 	Process OMPI jobid: [25775,1] App: 0 Process rank: 0 Bound: socket 0[core 0[hwt 0-1]]:[BB/../../../../../../../../../../../../../../../../../../../../../../../../../../../../../../..][../../../../../../../../../../../../../../../../../../../../../../../../../../../../../../../..]
 	Process OMPI jobid: [25775,1] App: 0 Process rank: 1 Bound: socket 0[core 1[hwt 0-1]]:[../BB/../../../../../../../../../../../../../../../../../../../../../../../../../../../../../..][../../../../../../../../../../../../../../../../../../../../../../../../../../../../../../../..]
 	Process OMPI jobid: [25775,1] App: 0 Process rank: 2 Bound: socket 0[core 2[hwt 0-1]]:[../../BB/../../../../../../../../../../../../../../../../../../../../../../../../../../../../..][../../../../../../../../../../../../../../../../../../../../../../../../../../../../../../../..]
 	Process OMPI jobid: [25775,1] App: 0 Process rank: 3 Bound: socket 0[core 3[hwt 0-1]]:[../../../BB/../../../../../../../../../../../../../../../../../../../../../../../../../../../..][../../../../../../../../../../../../../../../../../../../../../../../../../../../../../../../..]

 =============================================================
[1579612219.163895] [n004:26049:0]         mxm.c:196  MXM  WARN  The 'ulimit -s' on the system is set to 'unlimited'. This may have negative performance implications. Please set the stack size to the default value (10240) 
[1579612219.163891] [n004:26052:0]         mxm.c:196  MXM  WARN  The 'ulimit -s' on the system is set to 'unlimited'. This may have negative performance implications. Please set the stack size to the default value (10240) 
[1579612219.164435] [n004:26050:0]         mxm.c:196  MXM  WARN  The 'ulimit -s' on the system is set to 'unlimited'. This may have negative performance implications. Please set the stack size to the default value (10240) 
[1579612219.164503] [n004:26051:0]         mxm.c:196  MXM  WARN  The 'ulimit -s' on the system is set to 'unlimited'. This may have negative performance implications. Please set the stack size to the default value (10240) 
0: 1 

Rank 0 ghostCells: 21015
Rank 1 ghostCells: 12650
Rank 2 ghostCells: 7285
Rank 3 ghostCells: 15733

Rank 0 numCells: 108160
Rank 1 numCells: 109869
Rank 2 numCells: 99270
Rank 3 numCells: 94791

Rank 0 interiorCells: 87145
Rank 1 interiorCells: 97219
Rank 2 interiorCells: 91985
Rank 3 interiorCells: 79058

MeasComm+1 4: 0.00136441 0.00111804 0.000901073 0.00117025 
MeasComm+1 4: 0.0013647 0.00110791 0.000912223 0.00118109 
MeasComm+1 4: 0.00136758 0.00110485 0.000916582 0.00118268 
MeasComm+1 4: 0.00136603 0.00110863 0.000913912 0.00118351 
MeasComm+1 4: 0.00136642 0.00109941 0.000895002 0.00118595 
MeasComm+1 4: 0.00136578 0.00111863 0.000915512 0.00118016 
MeasComm+1 4: 0.0013537 0.00111345 0.000866632 0.00106779 
MeasComm+1 4: 0.00136634 0.00112845 0.000907503 0.00118083 
MeasComm+1 4: 0.0013681 0.00112363 0.000912972 0.001186 
MeasComm+1 4: 0.00136278 0.00110929 0.000921272 0.00113693 

MeasCopy 4: 0.000986692 0.000593582 0.000341851 0.000738272 
MeasCopy 4: 0.000986623 0.000593692 0.000341761 0.000738392 
MeasCopy 4: 0.000986703 0.000593441 0.000341821 0.000738392 
MeasCopy 4: 0.000986603 0.000593602 0.000341811 0.000738362 
MeasCopy 4: 0.000986623 0.000593671 0.000341821 0.000738322 
MeasCopy 4: 0.000986573 0.000593692 0.000341881 0.000738432 
MeasCopy 4: 0.000986593 0.000593641 0.000341831 0.000738422 
MeasCopy 4: 0.000986593 0.000593601 0.000341931 0.000738282 
MeasCopy 4: 0.000986753 0.000593682 0.000341711 0.000738342 
MeasCopy 4: 0.000986653 0.000593391 0.000341751 0.000738292 

ComTab rank 0: 0 9642 3459 8842 
ComTab rank 1: 9952 0 502 6390 
ComTab rank 2: 3025 660 0 3745 
ComTab rank 3: 9461 6413 4046 0 

Edge-cut: 43990

Wgt-cut: 4.17767e-09

[1579612328.201679] [n004:26051:0]          mpool.c:38   UCX  WARN  object 0x155544122f60 was not returned to mpool mm_recv_desc
[1579612328.206930] [n004:26052:0]          mpool.c:38   UCX  WARN  object 0x155544120ee0 was not returned to mpool mm_recv_desc
[1579612328.208269] [n004:26050:0]          mpool.c:38   UCX  WARN  object 0x1555394fce60 was not returned to mpool mm_recv_desc
