 Data for JOB [24175,1] offset 0 Total slots allocated 8

 ========================   JOB MAP   ========================

 Data for node: srl-adm2	Num slots: 8	Max slots: 0	Num procs: 8
 	Process OMPI jobid: [24175,1] App: 0 Process rank: 0 Bound: socket 0[core 0[hwt 0-1]]:[BB/../../../../../../../../../../../../../../..][../../../../../../../../../../../../../../../..]
 	Process OMPI jobid: [24175,1] App: 0 Process rank: 1 Bound: socket 0[core 1[hwt 0-1]]:[../BB/../../../../../../../../../../../../../..][../../../../../../../../../../../../../../../..]
 	Process OMPI jobid: [24175,1] App: 0 Process rank: 2 Bound: socket 0[core 2[hwt 0-1]]:[../../BB/../../../../../../../../../../../../..][../../../../../../../../../../../../../../../..]
 	Process OMPI jobid: [24175,1] App: 0 Process rank: 3 Bound: socket 0[core 3[hwt 0-1]]:[../../../BB/../../../../../../../../../../../..][../../../../../../../../../../../../../../../..]
 	Process OMPI jobid: [24175,1] App: 0 Process rank: 4 Bound: socket 1[core 16[hwt 0-1]]:[../../../../../../../../../../../../../../../..][BB/../../../../../../../../../../../../../../..]
 	Process OMPI jobid: [24175,1] App: 0 Process rank: 5 Bound: socket 1[core 17[hwt 0-1]]:[../../../../../../../../../../../../../../../..][../BB/../../../../../../../../../../../../../..]
 	Process OMPI jobid: [24175,1] App: 0 Process rank: 6 Bound: socket 1[core 18[hwt 0-1]]:[../../../../../../../../../../../../../../../..][../../BB/../../../../../../../../../../../../..]
 	Process OMPI jobid: [24175,1] App: 0 Process rank: 7 Bound: socket 1[core 19[hwt 0-1]]:[../../../../../../../../../../../../../../../..][../../../BB/../../../../../../../../../../../..]

 =============================================================
[1578657494.713833] [srl-adm2:6186 :0]         mxm.c:196  MXM  WARN  The 'ulimit -s' on the system is set to 'unlimited'. This may have negative performance implications. Please set the stack size to the default value (10240) 
[1578657494.713754] [srl-adm2:6189 :0]         mxm.c:196  MXM  WARN  The 'ulimit -s' on the system is set to 'unlimited'. This may have negative performance implications. Please set the stack size to the default value (10240) 
[1578657494.713866] [srl-adm2:6192 :0]         mxm.c:196  MXM  WARN  The 'ulimit -s' on the system is set to 'unlimited'. This may have negative performance implications. Please set the stack size to the default value (10240) 
[1578657494.713870] [srl-adm2:6185 :0]         mxm.c:196  MXM  WARN  The 'ulimit -s' on the system is set to 'unlimited'. This may have negative performance implications. Please set the stack size to the default value (10240) 
[1578657494.715181] [srl-adm2:6190 :0]         mxm.c:196  MXM  WARN  The 'ulimit -s' on the system is set to 'unlimited'. This may have negative performance implications. Please set the stack size to the default value (10240) 
[1578657494.715170] [srl-adm2:6191 :0]         mxm.c:196  MXM  WARN  The 'ulimit -s' on the system is set to 'unlimited'. This may have negative performance implications. Please set the stack size to the default value (10240) 
[1578657494.717314] [srl-adm2:6187 :0]         mxm.c:196  MXM  WARN  The 'ulimit -s' on the system is set to 'unlimited'. This may have negative performance implications. Please set the stack size to the default value (10240) 
[1578657494.717244] [srl-adm2:6188 :0]         mxm.c:196  MXM  WARN  The 'ulimit -s' on the system is set to 'unlimited'. This may have negative performance implications. Please set the stack size to the default value (10240) 
0: 10 
Edge Weight Method: 10
Cell on rank 0: 5689
Cell on rank 1: 5992
Cell on rank 2: 5148
Cell on rank 3: 5417
Cell on rank 4: 5818
Cell on rank 5: 5079
Cell on rank 6: 5664
Cell on rank 7: 5624
Edge-cut: 4368

Rank 0 ghostCells: 1184
Rank 1 ghostCells: 1172
Rank 2 ghostCells: 721
Rank 3 ghostCells: 664
Rank 4 ghostCells: 553
Rank 5 ghostCells: 1026
Rank 6 ghostCells: 646
Rank 7 ghostCells: 395

Rank 0 numCells: 6873
Rank 1 numCells: 7164
Rank 2 numCells: 5869
Rank 3 numCells: 6081
Rank 4 numCells: 6371
Rank 5 numCells: 6105
Rank 6 numCells: 6310
Rank 7 numCells: 6019

Rank 0 interiorCells: 5689
Rank 1 interiorCells: 5992
Rank 2 interiorCells: 5148
Rank 3 interiorCells: 5417
Rank 4 interiorCells: 5818
Rank 5 interiorCells: 5079
Rank 6 interiorCells: 5664
Rank 7 interiorCells: 5624

MeasComm+1 8: 5.9589e-05 5.9197e-05 4.439e-05 3.6195e-05 3.973e-05 5.0934e-05 3.8412e-05 3.3849e-05 
MeasComm+1 8: 5.954e-05 5.8767e-05 4.4169e-05 3.5942e-05 3.8465e-05 4.9866e-05 3.7707e-05 3.388e-05 
MeasComm+1 8: 5.9517e-05 5.899e-05 4.3701e-05 3.5921e-05 3.1696e-05 4.9988e-05 3.7964e-05 3.3722e-05 
MeasComm+1 8: 5.9374e-05 5.904e-05 4.452e-05 3.5792e-05 3.9584e-05 5.0095e-05 3.7787e-05 3.3481e-05 
MeasComm+1 8: 5.9775e-05 5.8931e-05 4.4611e-05 3.5734e-05 3.9185e-05 5.0025e-05 3.7783e-05 3.3234e-05 
MeasComm+1 8: 5.9479e-05 5.9027e-05 4.3765e-05 3.5912e-05 3.9499e-05 5.0181e-05 3.7772e-05 3.3754e-05 
MeasComm+1 8: 5.9203e-05 5.8975e-05 4.3998e-05 3.5889e-05 3.786e-05 4.9776e-05 3.7823e-05 3.3619e-05 
MeasComm+1 8: 5.9522e-05 5.8757e-05 4.4502e-05 3.5799e-05 3.8944e-05 5.022e-05 3.7839e-05 3.3763e-05 
MeasComm+1 8: 5.9338e-05 5.877e-05 4.3021e-05 3.592e-05 3.9385e-05 4.9836e-05 3.7963e-05 3.3609e-05 
MeasComm+1 8: 5.9594e-05 5.8818e-05 4.4253e-05 3.5383e-05 3.9395e-05 4.9811e-05 3.8068e-05 3.3632e-05 

ComTab rank 0: 0 560 374 140 0 0 188 0 
ComTab rank 1: 582 0 0 102 0 455 0 68 
ComTab rank 2: 378 0 0 276 0 0 88 0 
ComTab rank 3: 151 105 276 0 0 0 187 0 
ComTab rank 4: 0 0 0 0 0 503 0 57 
ComTab rank 5: 0 456 0 0 522 0 0 61 
ComTab rank 6: 187 0 112 180 0 0 0 223 
ComTab rank 7: 0 69 0 0 57 58 226 0 

Edge-cut: 4805

Wgt-cut: 8.34927e-08

[1578657499.575296] [srl-adm2:6191 :0]          mpool.c:38   UCX  WARN  object 0x1555393fdee0 was not returned to mpool mm_recv_desc
[1578657499.575396] [srl-adm2:6186 :0]          mpool.c:38   UCX  WARN  object 0x1555393fff60 was not returned to mpool mm_recv_desc
[1578657499.575295] [srl-adm2:6190 :0]          mpool.c:38   UCX  WARN  object 0x1555393fbe60 was not returned to mpool mm_recv_desc
[1578657499.575370] [srl-adm2:6189 :0]          mpool.c:38   UCX  WARN  object 0x555558859980 was not returned to mpool ucp_am_bufs
[1578657499.575408] [srl-adm2:6192 :0]          mpool.c:38   UCX  WARN  object 0x55555884e180 was not returned to mpool ucp_am_bufs
[1578657499.575419] [srl-adm2:6187 :0]          mpool.c:38   UCX  WARN  object 0x55555885f280 was not returned to mpool ucp_am_bufs
[1578657499.575490] [srl-adm2:6188 :0]          mpool.c:38   UCX  WARN  object 0x15554411cde0 was not returned to mpool mm_recv_desc
