 Data for JOB [20899,1] offset 0 Total slots allocated 1

 ========================   JOB MAP   ========================

 Data for node: srl-adm2	Num slots: 1	Max slots: 0	Num procs: 1
 	Process OMPI jobid: [20899,1] App: 0 Process rank: 0 Bound: socket 0[core 0[hwt 0-1]]:[BB/../../../../../../../../../../../../../../..][../../../../../../../../../../../../../../../..]

 =============================================================
[1578657484.853177] [srl-adm2:6116 :0]         mxm.c:196  MXM  WARN  The 'ulimit -s' on the system is set to 'unlimited'. This may have negative performance implications. Please set the stack size to the default value (10240) 
0: 10 

Rank 0 ghostCells: 0

Rank 0 numCells: 44431

Rank 0 interiorCells: 44431

MeasComm+1 1: 7.42e-07 
MeasComm+1 1: 7.47e-07 
MeasComm+1 1: 7.25e-07 
MeasComm+1 1: 8e-07 
MeasComm+1 1: 7.77e-07 
MeasComm+1 1: 7.67e-07 
MeasComm+1 1: 7.59e-07 
MeasComm+1 1: 7.75e-07 
MeasComm+1 1: 7.83e-07 
MeasComm+1 1: 6.73e-07 

ComTab rank 0: 0 

Edge-cut: 0

Wgt-cut: 0

