 Data for JOB [18683,1] offset 0 Total slots allocated 2

 ========================   JOB MAP   ========================

 Data for node: n004	Num slots: 2	Max slots: 0	Num procs: 2
 	Process OMPI jobid: [18683,1] App: 0 Process rank: 0 Bound: socket 0[core 17[hwt 0-1]]:[../../../../../../../../../../../../../../../../../BB/../../../../../../../../../../../../../..][../../../../../../../../../../../../../../../../../../../../../../../../../../../../../../../..]
 	Process OMPI jobid: [18683,1] App: 0 Process rank: 1 Bound: socket 1[core 58[hwt 0-1]]:[../../../../../../../../../../../../../../../../../../../../../../../../../../../../../../../..][../../../../../../../../../../../../../../../../../../../../../../../../../../BB/../../../../..]

 =============================================================
dune-size 1 8.88501e-06 8.89421e-06 
dune-size 2 9.52491e-06 9.53351e-06 
dune-size 4 6.91511e-06 6.91991e-06 
dune-size 8 7.12671e-06 7.12621e-06 
dune-size 16 7.78051e-06 7.78071e-06 
dune-size 32 9.16621e-06 9.16631e-06 
dune-size 64 1.16187e-05 1.16332e-05 
dune-size 128 2.2999e-05 2.30531e-05 
dune-size 256 1.99042e-05 1.99057e-05 
dune-size 512 3.34169e-05 3.34135e-05 
dune-size 1024 0.000108776 0.00010882 
dune-size 2048 0.000208246 0.000208281 
dune-size 4096 0.000394097 0.0003941 
dune-size 8192 0.000663338 0.000663315 
dune-size 16384 0.000973057 0.000973038 
dune-size 32768 0.0016763 0.00167619 
dune-size 65536 0.00330568 0.00330327 
dune-size 131072 0.00655179 0.00654741 
dune-size 262144 0.0129404 0.0129341 
dune-size 524288 0.0256778 0.0256663 
dune-size 1048576 0.0512469 0.0512196 
