 Data for JOB [22964,1] offset 0 Total slots allocated 8

 ========================   JOB MAP   ========================

 Data for node: n004	Num slots: 8	Max slots: 0	Num procs: 8
 	Process OMPI jobid: [22964,1] App: 0 Process rank: 0 Bound: socket 0[core 16[hwt 0-1]]:[../../../../../../../../../../../../../../../../BB/../../../../../../../../../../../../../../..][../../../../../../../../../../../../../../../../../../../../../../../../../../../../../../../..]
 	Process OMPI jobid: [22964,1] App: 0 Process rank: 1 Bound: socket 1[core 53[hwt 0-1]]:[../../../../../../../../../../../../../../../../../../../../../../../../../../../../../../../..][../../../../../../../../../../../../../../../../../../../../../BB/../../../../../../../../../..]
 	Process OMPI jobid: [22964,1] App: 0 Process rank: 2 Bound: socket 0[core 18[hwt 0-1]]:[../../../../../../../../../../../../../../../../../../BB/../../../../../../../../../../../../..][../../../../../../../../../../../../../../../../../../../../../../../../../../../../../../../..]
 	Process OMPI jobid: [22964,1] App: 0 Process rank: 3 Bound: socket 1[core 55[hwt 0-1]]:[../../../../../../../../../../../../../../../../../../../../../../../../../../../../../../../..][../../../../../../../../../../../../../../../../../../../../../../../BB/../../../../../../../..]
 	Process OMPI jobid: [22964,1] App: 0 Process rank: 4 Bound: socket 1[core 52[hwt 0-1]]:[../../../../../../../../../../../../../../../../../../../../../../../../../../../../../../../..][../../../../../../../../../../../../../../../../../../../../BB/../../../../../../../../../../..]
 	Process OMPI jobid: [22964,1] App: 0 Process rank: 5 Bound: socket 0[core 17[hwt 0-1]]:[../../../../../../../../../../../../../../../../../BB/../../../../../../../../../../../../../..][../../../../../../../../../../../../../../../../../../../../../../../../../../../../../../../..]
 	Process OMPI jobid: [22964,1] App: 0 Process rank: 6 Bound: socket 1[core 54[hwt 0-1]]:[../../../../../../../../../../../../../../../../../../../../../../../../../../../../../../../..][../../../../../../../../../../../../../../../../../../../../../../BB/../../../../../../../../..]
 	Process OMPI jobid: [22964,1] App: 0 Process rank: 7 Bound: socket 0[core 19[hwt 0-1]]:[../../../../../../../../../../../../../../../../../../../BB/../../../../../../../../../../../..][../../../../../../../../../../../../../../../../../../../../../../../../../../../../../../../..]

 =============================================================
3 0 2
3 1 1
3 2 0
4 5 7
4 6 6
4 7 5
6 7 5
6 4 4
6 5 7
7 4 6
7 5 5
7 6 4
Two group cota
0 1 3
0 2 2
0 3 1
2 3 1
2 0 0
2 1 3
1 2 0
1 3 3
1 0 2
5 6 4
5 7 7
5 4 6
dune-size 1 2.33551e-05 2.33976e-05 2.33803e-05 2.3403e-05 2.50432e-05 2.50322e-05 2.49924e-05 2.50047e-05 
dune-size 2 1.75805e-05 1.76001e-05 1.76357e-05 1.7624e-05 1.96068e-05 1.96434e-05 1.96302e-05 1.96433e-05 
dune-size 4 1.83573e-05 1.83997e-05 1.83739e-05 1.84019e-05 1.85922e-05 1.86241e-05 1.85877e-05 1.8605e-05 
dune-size 8 1.99248e-05 1.99912e-05 1.99931e-05 1.99543e-05 1.96799e-05 1.97185e-05 1.96736e-05 1.96997e-05 
dune-size 16 1.67309e-05 1.67215e-05 1.67621e-05 1.6759e-05 2.19416e-05 2.18801e-05 2.18881e-05 2.19416e-05 
dune-size 32 1.80737e-05 1.81119e-05 1.80798e-05 1.80989e-05 1.82125e-05 1.81782e-05 1.82096e-05 1.82051e-05 
dune-size 64 2.36032e-05 2.36453e-05 2.36576e-05 2.36417e-05 2.33761e-05 2.33894e-05 2.33733e-05 2.33981e-05 
dune-size 128 3.32415e-05 3.33167e-05 3.32764e-05 3.33137e-05 3.34739e-05 3.3456e-05 3.34778e-05 3.35074e-05 
dune-size 256 5.47588e-05 5.48057e-05 5.47596e-05 5.47976e-05 5.39234e-05 5.38278e-05 5.38467e-05 5.39866e-05 
dune-size 512 9.55148e-05 9.53723e-05 9.54125e-05 9.53992e-05 9.47033e-05 9.47638e-05 9.47018e-05 9.47741e-05 
dune-size 1024 0.000276805 0.000276377 0.000276412 0.000276674 0.000282393 0.000281918 0.000281822 0.000282178 
dune-size 2048 0.000490216 0.000490853 0.000490692 0.000490229 0.000500131 0.000499252 0.000499128 0.000499742 
dune-size 4096 0.000797097 0.000796421 0.000796347 0.00079782 0.000799229 0.000800025 0.000798323 0.000798208 
dune-size 8192 0.00133446 0.00133712 0.00133547 0.00133445 0.00132026 0.00132039 0.00132204 0.00132024 
dune-size 16384 0.00248507 0.00248518 0.00249127 0.00248878 0.00248249 0.00247821 0.00247831 0.0024818 
dune-size 32768 0.00494431 0.00494704 0.00494435 0.00494466 0.00494572 0.00494057 0.00494741 0.0049407 
dune-size 65536 0.00992491 0.00991595 0.00992884 0.00991583 0.0099286 0.00992214 0.00993175 0.00991437 
dune-size 131072 0.0198919 0.0201344 0.0198903 0.020138 0.0200823 0.0198028 0.0200086 0.0198027 
