 Data for JOB [27023,1] offset 0 Total slots allocated 4

 ========================   JOB MAP   ========================

 Data for node: n004	Num slots: 4	Max slots: 0	Num procs: 4
 	Process OMPI jobid: [27023,1] App: 0 Process rank: 0 Bound: socket 0[core 0[hwt 0-1]]:[BB/../../../../../../../../../../../../../../../../../../../../../../../../../../../../../../..][../../../../../../../../../../../../../../../../../../../../../../../../../../../../../../../..]
 	Process OMPI jobid: [27023,1] App: 0 Process rank: 1 Bound: socket 0[core 1[hwt 0-1]]:[../BB/../../../../../../../../../../../../../../../../../../../../../../../../../../../../../..][../../../../../../../../../../../../../../../../../../../../../../../../../../../../../../../..]
 	Process OMPI jobid: [27023,1] App: 0 Process rank: 2 Bound: socket 0[core 2[hwt 0-1]]:[../../BB/../../../../../../../../../../../../../../../../../../../../../../../../../../../../..][../../../../../../../../../../../../../../../../../../../../../../../../../../../../../../../..]
 	Process OMPI jobid: [27023,1] App: 0 Process rank: 3 Bound: socket 0[core 3[hwt 0-1]]:[../../../BB/../../../../../../../../../../../../../../../../../../../../../../../../../../../..][../../../../../../../../../../../../../../../../../../../../../../../../../../../../../../../..]

 =============================================================
[1579612528.503930] [n004:26782:0]         mxm.c:196  MXM  WARN  The 'ulimit -s' on the system is set to 'unlimited'. This may have negative performance implications. Please set the stack size to the default value (10240) 
[1579612528.504135] [n004:26780:0]         mxm.c:196  MXM  WARN  The 'ulimit -s' on the system is set to 'unlimited'. This may have negative performance implications. Please set the stack size to the default value (10240) 
[1579612528.504181] [n004:26781:0]         mxm.c:196  MXM  WARN  The 'ulimit -s' on the system is set to 'unlimited'. This may have negative performance implications. Please set the stack size to the default value (10240) 
[1579612528.512236] [n004:26783:0]         mxm.c:196  MXM  WARN  The 'ulimit -s' on the system is set to 'unlimited'. This may have negative performance implications. Please set the stack size to the default value (10240) 
0: 2 

Rank 0 ghostCells: 1266
Rank 1 ghostCells: 2200
Rank 2 ghostCells: 2049
Rank 3 ghostCells: 5338

Rank 0 numCells: 83009
Rank 1 numCells: 86404
Rank 2 numCells: 96601
Rank 3 numCells: 100246

Rank 0 interiorCells: 81743
Rank 1 interiorCells: 84204
Rank 2 interiorCells: 94552
Rank 3 interiorCells: 94908

MeasComm+1 4: 0.000308231 0.00030677 0.000307641 0.000397591 
MeasComm+1 4: 0.000303371 0.000284931 0.000276481 0.000368841 
MeasComm+1 4: 0.000312361 0.000296151 0.000284581 0.000395081 
MeasComm+1 4: 0.000302391 0.000298481 0.000301201 0.000395371 
MeasComm+1 4: 0.000312461 0.000288361 0.000281881 0.000373871 
MeasComm+1 4: 0.000302961 0.00030385 0.000311341 0.000397861 
MeasComm+1 4: 0.000307071 0.000290371 0.000289651 0.000375471 
MeasComm+1 4: 0.000304281 0.000288091 0.000283341 0.000371902 
MeasComm+1 4: 0.00029762 0.000303841 0.000311291 0.000395651 
MeasComm+1 4: 0.0002795 0.000302871 0.000310781 0.000396711 

MeasCopy 4: 5.931e-05 0.00010317 9.606e-05 0.000250341 
MeasCopy 4: 5.934e-05 0.0001032 9.604e-05 0.000250391 
MeasCopy 4: 5.935e-05 0.00010317 9.608e-05 0.000250261 
MeasCopy 4: 5.931e-05 0.00010319 9.605e-05 0.000250371 
MeasCopy 4: 5.933e-05 0.000103091 9.6101e-05 0.00025035 
MeasCopy 4: 5.936e-05 0.0001031 9.606e-05 0.000250411 
MeasCopy 4: 5.927e-05 0.000103131 9.607e-05 0.00025042 
MeasCopy 4: 5.934e-05 0.000103171 9.602e-05 0.000250351 
MeasCopy 4: 5.937e-05 0.00010316 9.61e-05 0.000250331 
MeasCopy 4: 5.934e-05 0.000103171 9.603e-05 0.00025037 

ComTab rank 0: 0 168 0 1103 
ComTab rank 1: 422 0 0 1781 
ComTab rank 2: 0 0 0 2049 
ComTab rank 3: 1614 1637 2089 0 

Edge-cut: 7873

Wgt-cut: 2.24825e-08

[1579612609.747105] [n004:26783:0]          mpool.c:38   UCX  WARN  object 0x55555d561140 was not returned to mpool ucp_am_bufs
[1579612609.749477] [n004:26781:0]          mpool.c:38   UCX  WARN  object 0x55555d560f80 was not returned to mpool ucp_am_bufs
[1579612609.751653] [n004:26782:0]          mpool.c:38   UCX  WARN  object 0x55555b54b680 was not returned to mpool ucp_am_bufs
