 Data for JOB [41203,1] offset 0 Total slots allocated 32

 ========================   JOB MAP   ========================

 Data for node: n004	Num slots: 32	Max slots: 0	Num procs: 32
 	Process OMPI jobid: [41203,1] App: 0 Process rank: 0 Bound: socket 0[core 0[hwt 0-1]]:[BB/../../../../../../../../../../../../../../../../../../../../../../../../../../../../../../..][../../../../../../../../../../../../../../../../../../../../../../../../../../../../../../../..]
 	Process OMPI jobid: [41203,1] App: 0 Process rank: 1 Bound: socket 0[core 1[hwt 0-1]]:[../BB/../../../../../../../../../../../../../../../../../../../../../../../../../../../../../..][../../../../../../../../../../../../../../../../../../../../../../../../../../../../../../../..]
 	Process OMPI jobid: [41203,1] App: 0 Process rank: 2 Bound: socket 0[core 2[hwt 0-1]]:[../../BB/../../../../../../../../../../../../../../../../../../../../../../../../../../../../..][../../../../../../../../../../../../../../../../../../../../../../../../../../../../../../../..]
 	Process OMPI jobid: [41203,1] App: 0 Process rank: 3 Bound: socket 0[core 3[hwt 0-1]]:[../../../BB/../../../../../../../../../../../../../../../../../../../../../../../../../../../..][../../../../../../../../../../../../../../../../../../../../../../../../../../../../../../../..]
 	Process OMPI jobid: [41203,1] App: 0 Process rank: 4 Bound: socket 0[core 4[hwt 0-1]]:[../../../../BB/../../../../../../../../../../../../../../../../../../../../../../../../../../..][../../../../../../../../../../../../../../../../../../../../../../../../../../../../../../../..]
 	Process OMPI jobid: [41203,1] App: 0 Process rank: 5 Bound: socket 0[core 5[hwt 0-1]]:[../../../../../BB/../../../../../../../../../../../../../../../../../../../../../../../../../..][../../../../../../../../../../../../../../../../../../../../../../../../../../../../../../../..]
 	Process OMPI jobid: [41203,1] App: 0 Process rank: 6 Bound: socket 0[core 6[hwt 0-1]]:[../../../../../../BB/../../../../../../../../../../../../../../../../../../../../../../../../..][../../../../../../../../../../../../../../../../../../../../../../../../../../../../../../../..]
 	Process OMPI jobid: [41203,1] App: 0 Process rank: 7 Bound: socket 0[core 7[hwt 0-1]]:[../../../../../../../BB/../../../../../../../../../../../../../../../../../../../../../../../..][../../../../../../../../../../../../../../../../../../../../../../../../../../../../../../../..]
 	Process OMPI jobid: [41203,1] App: 0 Process rank: 8 Bound: socket 0[core 8[hwt 0-1]]:[../../../../../../../../BB/../../../../../../../../../../../../../../../../../../../../../../..][../../../../../../../../../../../../../../../../../../../../../../../../../../../../../../../..]
 	Process OMPI jobid: [41203,1] App: 0 Process rank: 9 Bound: socket 0[core 9[hwt 0-1]]:[../../../../../../../../../BB/../../../../../../../../../../../../../../../../../../../../../..][../../../../../../../../../../../../../../../../../../../../../../../../../../../../../../../..]
 	Process OMPI jobid: [41203,1] App: 0 Process rank: 10 Bound: socket 0[core 10[hwt 0-1]]:[../../../../../../../../../../BB/../../../../../../../../../../../../../../../../../../../../..][../../../../../../../../../../../../../../../../../../../../../../../../../../../../../../../..]
 	Process OMPI jobid: [41203,1] App: 0 Process rank: 11 Bound: socket 0[core 11[hwt 0-1]]:[../../../../../../../../../../../BB/../../../../../../../../../../../../../../../../../../../..][../../../../../../../../../../../../../../../../../../../../../../../../../../../../../../../..]
 	Process OMPI jobid: [41203,1] App: 0 Process rank: 12 Bound: socket 0[core 12[hwt 0-1]]:[../../../../../../../../../../../../BB/../../../../../../../../../../../../../../../../../../..][../../../../../../../../../../../../../../../../../../../../../../../../../../../../../../../..]
 	Process OMPI jobid: [41203,1] App: 0 Process rank: 13 Bound: socket 0[core 13[hwt 0-1]]:[../../../../../../../../../../../../../BB/../../../../../../../../../../../../../../../../../..][../../../../../../../../../../../../../../../../../../../../../../../../../../../../../../../..]
 	Process OMPI jobid: [41203,1] App: 0 Process rank: 14 Bound: socket 0[core 14[hwt 0-1]]:[../../../../../../../../../../../../../../BB/../../../../../../../../../../../../../../../../..][../../../../../../../../../../../../../../../../../../../../../../../../../../../../../../../..]
 	Process OMPI jobid: [41203,1] App: 0 Process rank: 15 Bound: socket 0[core 15[hwt 0-1]]:[../../../../../../../../../../../../../../../BB/../../../../../../../../../../../../../../../..][../../../../../../../../../../../../../../../../../../../../../../../../../../../../../../../..]
 	Process OMPI jobid: [41203,1] App: 0 Process rank: 16 Bound: socket 0[core 16[hwt 0-1]]:[../../../../../../../../../../../../../../../../BB/../../../../../../../../../../../../../../..][../../../../../../../../../../../../../../../../../../../../../../../../../../../../../../../..]
 	Process OMPI jobid: [41203,1] App: 0 Process rank: 17 Bound: socket 0[core 17[hwt 0-1]]:[../../../../../../../../../../../../../../../../../BB/../../../../../../../../../../../../../..][../../../../../../../../../../../../../../../../../../../../../../../../../../../../../../../..]
 	Process OMPI jobid: [41203,1] App: 0 Process rank: 18 Bound: socket 0[core 18[hwt 0-1]]:[../../../../../../../../../../../../../../../../../../BB/../../../../../../../../../../../../..][../../../../../../../../../../../../../../../../../../../../../../../../../../../../../../../..]
 	Process OMPI jobid: [41203,1] App: 0 Process rank: 19 Bound: socket 0[core 19[hwt 0-1]]:[../../../../../../../../../../../../../../../../../../../BB/../../../../../../../../../../../..][../../../../../../../../../../../../../../../../../../../../../../../../../../../../../../../..]
 	Process OMPI jobid: [41203,1] App: 0 Process rank: 20 Bound: socket 0[core 20[hwt 0-1]]:[../../../../../../../../../../../../../../../../../../../../BB/../../../../../../../../../../..][../../../../../../../../../../../../../../../../../../../../../../../../../../../../../../../..]
 	Process OMPI jobid: [41203,1] App: 0 Process rank: 21 Bound: socket 0[core 21[hwt 0-1]]:[../../../../../../../../../../../../../../../../../../../../../BB/../../../../../../../../../..][../../../../../../../../../../../../../../../../../../../../../../../../../../../../../../../..]
 	Process OMPI jobid: [41203,1] App: 0 Process rank: 22 Bound: socket 0[core 22[hwt 0-1]]:[../../../../../../../../../../../../../../../../../../../../../../BB/../../../../../../../../..][../../../../../../../../../../../../../../../../../../../../../../../../../../../../../../../..]
 	Process OMPI jobid: [41203,1] App: 0 Process rank: 23 Bound: socket 0[core 23[hwt 0-1]]:[../../../../../../../../../../../../../../../../../../../../../../../BB/../../../../../../../..][../../../../../../../../../../../../../../../../../../../../../../../../../../../../../../../..]
 	Process OMPI jobid: [41203,1] App: 0 Process rank: 24 Bound: socket 0[core 24[hwt 0-1]]:[../../../../../../../../../../../../../../../../../../../../../../../../BB/../../../../../../..][../../../../../../../../../../../../../../../../../../../../../../../../../../../../../../../..]
 	Process OMPI jobid: [41203,1] App: 0 Process rank: 25 Bound: socket 0[core 25[hwt 0-1]]:[../../../../../../../../../../../../../../../../../../../../../../../../../BB/../../../../../..][../../../../../../../../../../../../../../../../../../../../../../../../../../../../../../../..]
 	Process OMPI jobid: [41203,1] App: 0 Process rank: 26 Bound: socket 0[core 26[hwt 0-1]]:[../../../../../../../../../../../../../../../../../../../../../../../../../../BB/../../../../..][../../../../../../../../../../../../../../../../../../../../../../../../../../../../../../../..]
 	Process OMPI jobid: [41203,1] App: 0 Process rank: 27 Bound: socket 0[core 27[hwt 0-1]]:[../../../../../../../../../../../../../../../../../../../../../../../../../../../BB/../../../..][../../../../../../../../../../../../../../../../../../../../../../../../../../../../../../../..]
 	Process OMPI jobid: [41203,1] App: 0 Process rank: 28 Bound: socket 0[core 28[hwt 0-1]]:[../../../../../../../../../../../../../../../../../../../../../../../../../../../../BB/../../..][../../../../../../../../../../../../../../../../../../../../../../../../../../../../../../../..]
 	Process OMPI jobid: [41203,1] App: 0 Process rank: 29 Bound: socket 0[core 29[hwt 0-1]]:[../../../../../../../../../../../../../../../../../../../../../../../../../../../../../BB/../..][../../../../../../../../../../../../../../../../../../../../../../../../../../../../../../../..]
 	Process OMPI jobid: [41203,1] App: 0 Process rank: 30 Bound: socket 0[core 30[hwt 0-1]]:[../../../../../../../../../../../../../../../../../../../../../../../../../../../../../../BB/..][../../../../../../../../../../../../../../../../../../../../../../../../../../../../../../../..]
 	Process OMPI jobid: [41203,1] App: 0 Process rank: 31 Bound: socket 0[core 31[hwt 0-1]]:[../../../../../../../../../../../../../../../../../../../../../../../../../../../../../../../BB][../../../../../../../../../../../../../../../../../../../../../../../../../../../../../../../..]

 =============================================================
[1579598510.538680] [n004:107018:0]         mxm.c:196  MXM  WARN  The 'ulimit -s' on the system is set to 'unlimited'. This may have negative performance implications. Please set the stack size to the default value (10240) 
[1579598510.540186] [n004:107032:0]         mxm.c:196  MXM  WARN  The 'ulimit -s' on the system is set to 'unlimited'. This may have negative performance implications. Please set the stack size to the default value (10240) 
[1579598510.540427] [n004:107027:0]         mxm.c:196  MXM  WARN  The 'ulimit -s' on the system is set to 'unlimited'. This may have negative performance implications. Please set the stack size to the default value (10240) 
[1579598510.540682] [n004:107035:0]         mxm.c:196  MXM  WARN  The 'ulimit -s' on the system is set to 'unlimited'. This may have negative performance implications. Please set the stack size to the default value (10240) 
[1579598510.541897] [n004:107026:0]         mxm.c:196  MXM  WARN  The 'ulimit -s' on the system is set to 'unlimited'. This may have negative performance implications. Please set the stack size to the default value (10240) 
[1579598510.543126] [n004:107020:0]         mxm.c:196  MXM  WARN  The 'ulimit -s' on the system is set to 'unlimited'. This may have negative performance implications. Please set the stack size to the default value (10240) 
[1579598510.543250] [n004:107017:0]         mxm.c:196  MXM  WARN  The 'ulimit -s' on the system is set to 'unlimited'. This may have negative performance implications. Please set the stack size to the default value (10240) 
[1579598510.544110] [n004:107025:0]         mxm.c:196  MXM  WARN  The 'ulimit -s' on the system is set to 'unlimited'. This may have negative performance implications. Please set the stack size to the default value (10240) 
[1579598510.545930] [n004:107019:0]         mxm.c:196  MXM  WARN  The 'ulimit -s' on the system is set to 'unlimited'. This may have negative performance implications. Please set the stack size to the default value (10240) 
[1579598510.546307] [n004:107033:0]         mxm.c:196  MXM  WARN  The 'ulimit -s' on the system is set to 'unlimited'. This may have negative performance implications. Please set the stack size to the default value (10240) 
[1579598510.546646] [n004:107034:0]         mxm.c:196  MXM  WARN  The 'ulimit -s' on the system is set to 'unlimited'. This may have negative performance implications. Please set the stack size to the default value (10240) 
[1579598510.546770] [n004:107039:0]         mxm.c:196  MXM  WARN  The 'ulimit -s' on the system is set to 'unlimited'. This may have negative performance implications. Please set the stack size to the default value (10240) 
[1579598510.547318] [n004:107031:0]         mxm.c:196  MXM  WARN  The 'ulimit -s' on the system is set to 'unlimited'. This may have negative performance implications. Please set the stack size to the default value (10240) 
[1579598510.547962] [n004:107036:0]         mxm.c:196  MXM  WARN  The 'ulimit -s' on the system is set to 'unlimited'. This may have negative performance implications. Please set the stack size to the default value (10240) 
[1579598510.548217] [n004:107022:0]         mxm.c:196  MXM  WARN  The 'ulimit -s' on the system is set to 'unlimited'. This may have negative performance implications. Please set the stack size to the default value (10240) 
[1579598510.549189] [n004:107038:0]         mxm.c:196  MXM  WARN  The 'ulimit -s' on the system is set to 'unlimited'. This may have negative performance implications. Please set the stack size to the default value (10240) 
[1579598510.549675] [n004:107029:0]         mxm.c:196  MXM  WARN  The 'ulimit -s' on the system is set to 'unlimited'. This may have negative performance implications. Please set the stack size to the default value (10240) 
[1579598510.549846] [n004:107028:0]         mxm.c:196  MXM  WARN  The 'ulimit -s' on the system is set to 'unlimited'. This may have negative performance implications. Please set the stack size to the default value (10240) 
[1579598510.550167] [n004:107015:0]         mxm.c:196  MXM  WARN  The 'ulimit -s' on the system is set to 'unlimited'. This may have negative performance implications. Please set the stack size to the default value (10240) 
[1579598510.550411] [n004:107024:0]         mxm.c:196  MXM  WARN  The 'ulimit -s' on the system is set to 'unlimited'. This may have negative performance implications. Please set the stack size to the default value (10240) 
[1579598510.550670] [n004:107042:0]         mxm.c:196  MXM  WARN  The 'ulimit -s' on the system is set to 'unlimited'. This may have negative performance implications. Please set the stack size to the default value (10240) 
[1579598510.550670] [n004:107041:0]         mxm.c:196  MXM  WARN  The 'ulimit -s' on the system is set to 'unlimited'. This may have negative performance implications. Please set the stack size to the default value (10240) 
[1579598510.550783] [n004:107044:0]         mxm.c:196  MXM  WARN  The 'ulimit -s' on the system is set to 'unlimited'. This may have negative performance implications. Please set the stack size to the default value (10240) 
[1579598510.551075] [n004:107013:0]         mxm.c:196  MXM  WARN  The 'ulimit -s' on the system is set to 'unlimited'. This may have negative performance implications. Please set the stack size to the default value (10240) 
[1579598510.551513] [n004:107023:0]         mxm.c:196  MXM  WARN  The 'ulimit -s' on the system is set to 'unlimited'. This may have negative performance implications. Please set the stack size to the default value (10240) 
[1579598510.551796] [n004:107043:0]         mxm.c:196  MXM  WARN  The 'ulimit -s' on the system is set to 'unlimited'. This may have negative performance implications. Please set the stack size to the default value (10240) 
[1579598510.552075] [n004:107016:0]         mxm.c:196  MXM  WARN  The 'ulimit -s' on the system is set to 'unlimited'. This may have negative performance implications. Please set the stack size to the default value (10240) 
[1579598510.552290] [n004:107014:0]         mxm.c:196  MXM  WARN  The 'ulimit -s' on the system is set to 'unlimited'. This may have negative performance implications. Please set the stack size to the default value (10240) 
[1579598510.552548] [n004:107037:0]         mxm.c:196  MXM  WARN  The 'ulimit -s' on the system is set to 'unlimited'. This may have negative performance implications. Please set the stack size to the default value (10240) 
[1579598510.554281] [n004:107030:0]         mxm.c:196  MXM  WARN  The 'ulimit -s' on the system is set to 'unlimited'. This may have negative performance implications. Please set the stack size to the default value (10240) 
[1579598510.554577] [n004:107040:0]         mxm.c:196  MXM  WARN  The 'ulimit -s' on the system is set to 'unlimited'. This may have negative performance implications. Please set the stack size to the default value (10240) 
[1579598510.554641] [n004:107021:0]         mxm.c:196  MXM  WARN  The 'ulimit -s' on the system is set to 'unlimited'. This may have negative performance implications. Please set the stack size to the default value (10240) 
0: 0 

Rank 0 ghostCells: 443
Rank 1 ghostCells: 391
Rank 2 ghostCells: 295
Rank 3 ghostCells: 209
Rank 4 ghostCells: 426
Rank 5 ghostCells: 553
Rank 6 ghostCells: 447
Rank 7 ghostCells: 487
Rank 8 ghostCells: 463
Rank 9 ghostCells: 405
Rank 10 ghostCells: 453
Rank 11 ghostCells: 493
Rank 12 ghostCells: 343
Rank 13 ghostCells: 343
Rank 14 ghostCells: 345
Rank 15 ghostCells: 180
Rank 16 ghostCells: 347
Rank 17 ghostCells: 475
Rank 18 ghostCells: 422
Rank 19 ghostCells: 550
Rank 20 ghostCells: 536
Rank 21 ghostCells: 570
Rank 22 ghostCells: 597
Rank 23 ghostCells: 380
Rank 24 ghostCells: 560
Rank 25 ghostCells: 446
Rank 26 ghostCells: 640
Rank 27 ghostCells: 495
Rank 28 ghostCells: 643
Rank 29 ghostCells: 498
Rank 30 ghostCells: 344
Rank 31 ghostCells: 222

Rank 0 numCells: 1874
Rank 1 numCells: 1907
Rank 2 numCells: 1770
Rank 3 numCells: 1683
Rank 4 numCells: 1923
Rank 5 numCells: 2050
Rank 6 numCells: 1943
Rank 7 numCells: 1984
Rank 8 numCells: 1742
Rank 9 numCells: 1902
Rank 10 numCells: 1976
Rank 11 numCells: 1343
Rank 12 numCells: 1624
Rank 13 numCells: 1853
Rank 14 numCells: 1732
Rank 15 numCells: 1584
Rank 16 numCells: 1616
Rank 17 numCells: 1744
Rank 18 numCells: 1852
Rank 19 numCells: 2012
Rank 20 numCells: 1956
Rank 21 numCells: 1713
Rank 22 numCells: 2086
Rank 23 numCells: 1758
Rank 24 numCells: 2047
Rank 25 numCells: 1709
Rank 26 numCells: 2151
Rank 27 numCells: 1734
Rank 28 numCells: 2115
Rank 29 numCells: 1895
Rank 30 numCells: 1498
Rank 31 numCells: 1656

Rank 0 interiorCells: 1431
Rank 1 interiorCells: 1516
Rank 2 interiorCells: 1475
Rank 3 interiorCells: 1474
Rank 4 interiorCells: 1497
Rank 5 interiorCells: 1497
Rank 6 interiorCells: 1496
Rank 7 interiorCells: 1497
Rank 8 interiorCells: 1279
Rank 9 interiorCells: 1497
Rank 10 interiorCells: 1523
Rank 11 interiorCells: 850
Rank 12 interiorCells: 1281
Rank 13 interiorCells: 1510
Rank 14 interiorCells: 1387
Rank 15 interiorCells: 1404
Rank 16 interiorCells: 1269
Rank 17 interiorCells: 1269
Rank 18 interiorCells: 1430
Rank 19 interiorCells: 1462
Rank 20 interiorCells: 1420
Rank 21 interiorCells: 1143
Rank 22 interiorCells: 1489
Rank 23 interiorCells: 1378
Rank 24 interiorCells: 1487
Rank 25 interiorCells: 1263
Rank 26 interiorCells: 1511
Rank 27 interiorCells: 1239
Rank 28 interiorCells: 1472
Rank 29 interiorCells: 1397
Rank 30 interiorCells: 1154
Rank 31 interiorCells: 1434

MeasComm+1 32: 4.075e-05 3.422e-05 2.377e-05 2.751e-05 3.908e-05 6.196e-05 4.212e-05 4.672e-05 5.265e-05 4.576e-05 4.952e-05 6.024e-05 3.214e-05 3.77e-05 3.179e-05 2.449e-05 3.736e-05 5.566e-05 3.992e-05 6.463e-05 6.07e-05 5.7361e-05 5.897e-05 3.791e-05 6.852e-05 4.795e-05 6.922e-05 6.056e-05 6.638e-05 5.477e-05 5.639e-05 4.662e-05 
MeasComm+1 32: 3.944e-05 3.382e-05 2.369e-05 2.641e-05 3.825e-05 6.085e-05 4.138e-05 4.689e-05 5.061e-05 4.511e-05 4.898e-05 5.946e-05 3.191e-05 3.7301e-05 3.19e-05 2.356e-05 3.617e-05 5.565e-05 3.976e-05 6.403e-05 6e-05 5.727e-05 5.832e-05 3.8e-05 7.021e-05 4.7901e-05 6.905e-05 5.949e-05 6.572e-05 5.371e-05 5.598e-05 4.559e-05 
MeasComm+1 32: 4.039e-05 3.376e-05 2.373e-05 2.758e-05 3.845e-05 6.124e-05 4.144e-05 4.714e-05 5.083e-05 4.513e-05 4.953e-05 5.996e-05 3.175e-05 3.718e-05 3.188e-05 2.47e-05 3.741e-05 5.541e-05 3.954e-05 6.3601e-05 5.975e-05 5.722e-05 5.874e-05 3.869e-05 7.001e-05 4.769e-05 6.893e-05 5.95e-05 6.562e-05 5.427e-05 5.604e-05 4.549e-05 
MeasComm+1 32: 4.035e-05 3.407e-05 2.342e-05 2.73e-05 3.847e-05 6.073e-05 4.183e-05 4.634e-05 5.124e-05 4.682e-05 4.951e-05 6.061e-05 3.206e-05 3.705e-05 3.158e-05 2.461e-05 3.644e-05 5.5801e-05 3.99e-05 6.399e-05 6e-05 5.726e-05 5.844e-05 3.861e-05 7.045e-05 4.759e-05 6.912e-05 6.053e-05 6.574e-05 5.4421e-05 5.599e-05 4.519e-05 
MeasComm+1 32: 4.024e-05 3.398e-05 2.349e-05 2.718e-05 3.761e-05 6.157e-05 4.128e-05 4.651e-05 5.06e-05 4.611e-05 4.968e-05 6.203e-05 3.16e-05 3.744e-05 3.1881e-05 2.458e-05 3.584e-05 5.549e-05 3.936e-05 6.394e-05 6.006e-05 5.768e-05 5.774e-05 3.873e-05 7.041e-05 4.793e-05 6.783e-05 6.023e-05 6.56e-05 5.445e-05 5.627e-05 4.52e-05 
MeasComm+1 32: 3.995e-05 3.37e-05 2.371e-05 2.762e-05 3.798e-05 6.021e-05 4.165e-05 4.658e-05 5.074e-05 4.451e-05 4.909e-05 5.891e-05 3.214e-05 3.719e-05 3.177e-05 2.437e-05 3.629e-05 5.57e-05 4.033e-05 6.411e-05 5.966e-05 5.671e-05 5.848e-05 3.853e-05 6.918e-05 4.785e-05 6.899e-05 5.987e-05 6.573e-05 5.434e-05 5.622e-05 4.532e-05 
MeasComm+1 32: 4.027e-05 3.394e-05 2.333e-05 2.758e-05 3.845e-05 6.1581e-05 4.1661e-05 4.652e-05 5.089e-05 4.472e-05 4.967e-05 5.87e-05 3.205e-05 3.7181e-05 3.162e-05 2.444e-05 3.605e-05 5.578e-05 3.95e-05 6.382e-05 5.993e-05 5.689e-05 5.761e-05 3.862e-05 6.966e-05 4.789e-05 6.869e-05 5.9751e-05 6.599e-05 5.41e-05 5.563e-05 4.482e-05 
MeasComm+1 32: 3.999e-05 3.3731e-05 2.361e-05 2.7381e-05 3.804e-05 6.155e-05 4.177e-05 4.667e-05 5.115e-05 4.484e-05 4.918e-05 5.883e-05 3.217e-05 3.769e-05 3.174e-05 2.443e-05 3.682e-05 5.545e-05 3.968e-05 6.375e-05 6.028e-05 5.702e-05 5.847e-05 3.849e-05 6.935e-05 4.784e-05 6.913e-05 6.034e-05 6.558e-05 5.418e-05 5.609e-05 4.538e-05 
MeasComm+1 32: 4.03e-05 3.395e-05 2.341e-05 2.765e-05 3.759e-05 6.144e-05 4.134e-05 4.62e-05 5.035e-05 4.39e-05 4.933e-05 6.164e-05 3.162e-05 3.732e-05 3.166e-05 2.443e-05 3.593e-05 5.561e-05 3.985e-05 6.415e-05 6.023e-05 5.683e-05 5.868e-05 3.872e-05 6.877e-05 4.805e-05 6.905e-05 6.037e-05 6.572e-05 5.438e-05 5.599e-05 4.526e-05 
MeasComm+1 32: 4.111e-05 3.409e-05 2.398e-05 2.724e-05 3.867e-05 6.15e-05 4.15e-05 4.674e-05 5.029e-05 4.4691e-05 4.977e-05 6.096e-05 3.21e-05 3.703e-05 3.167e-05 2.438e-05 3.747e-05 5.542e-05 3.946e-05 6.394e-05 5.994e-05 5.757e-05 5.81e-05 3.859e-05 6.971e-05 4.7791e-05 6.899e-05 5.946e-05 6.5691e-05 5.378e-05 5.613e-05 4.502e-05 

MeasCopy 32: 2.075e-05 1.834e-05 1.381e-05 9.8e-06 2.002e-05 2.594e-05 2.094e-05 2.282e-05 2.171e-05 1.897e-05 2.123e-05 2.312e-05 1.606e-05 1.6101e-05 1.615e-05 8.45e-06 1.621e-05 2.225e-05 1.978e-05 2.578e-05 2.51e-05 2.671e-05 2.796e-05 1.783e-05 2.626e-05 2.091e-05 2.998e-05 2.32e-05 3.012e-05 2.336e-05 1.611e-05 1.039e-05 
MeasCopy 32: 2.078e-05 1.831e-05 1.386e-05 9.82e-06 2.002e-05 2.59e-05 2.094e-05 2.282e-05 2.173e-05 1.9e-05 2.125e-05 2.312e-05 1.609e-05 1.609e-05 1.619e-05 8.44e-06 1.626e-05 2.223e-05 1.976e-05 2.577e-05 2.512e-05 2.671e-05 2.799e-05 1.781e-05 2.627e-05 2.092e-05 2.999e-05 2.319e-05 3.009e-05 2.338e-05 1.614e-05 1.042e-05 
MeasCopy 32: 2.073e-05 1.833e-05 1.384e-05 9.8e-06 1.997e-05 2.593e-05 2.096e-05 2.284e-05 2.175e-05 1.897e-05 2.12e-05 2.312e-05 1.608e-05 1.609e-05 1.616e-05 8.44e-06 1.629e-05 2.225e-05 1.977e-05 2.578e-05 2.512e-05 2.67e-05 2.797e-05 1.779e-05 2.628e-05 2.09e-05 3e-05 2.32e-05 3.013e-05 2.333e-05 1.614e-05 1.043e-05 
MeasCopy 32: 2.079e-05 1.833e-05 1.382e-05 9.79e-06 1.999e-05 2.589e-05 2.095e-05 2.282e-05 2.174e-05 1.9e-05 2.122e-05 2.309e-05 1.61e-05 1.606e-05 1.617e-05 8.44e-06 1.626e-05 2.223e-05 1.978e-05 2.579e-05 2.509e-05 2.669e-05 2.8e-05 1.779e-05 2.624e-05 2.091e-05 2.999e-05 2.32e-05 3.013e-05 2.333e-05 1.613e-05 1.042e-05 
MeasCopy 32: 2.074e-05 1.836e-05 1.38e-05 9.78e-06 1.999e-05 2.593e-05 2.098e-05 2.284e-05 2.173e-05 1.899e-05 2.125e-05 2.311e-05 1.608e-05 1.608e-05 1.617e-05 8.45e-06 1.624e-05 2.226e-05 1.976e-05 2.578e-05 2.51e-05 2.672e-05 2.798e-05 1.779e-05 2.623e-05 2.09e-05 2.995e-05 2.316e-05 3.015e-05 2.332e-05 1.611e-05 1.041e-05 
MeasCopy 32: 2.075e-05 1.833e-05 1.382e-05 9.82e-06 2e-05 2.589e-05 2.093e-05 2.283e-05 2.173e-05 1.899e-05 2.125e-05 2.308e-05 1.607e-05 1.609e-05 1.619e-05 8.45e-06 1.627e-05 2.227e-05 1.973e-05 2.577e-05 2.514e-05 2.669e-05 2.797e-05 1.782e-05 2.625e-05 2.092e-05 2.999e-05 2.32e-05 3.012e-05 2.331e-05 1.613e-05 1.041e-05 
MeasCopy 32: 2.077e-05 1.834e-05 1.385e-05 9.8e-06 1.999e-05 2.589e-05 2.096e-05 2.282e-05 2.175e-05 1.897e-05 2.122e-05 2.311e-05 1.61e-05 1.608e-05 1.619e-05 8.46e-06 1.629e-05 2.225e-05 1.977e-05 2.578e-05 2.513e-05 2.672e-05 2.798e-05 1.781e-05 2.624e-05 2.09e-05 2.998e-05 2.322e-05 3.016e-05 2.33e-05 1.615e-05 1.041e-05 
MeasCopy 32: 2.075e-05 1.832e-05 1.384e-05 9.79e-06 2e-05 2.592e-05 2.096e-05 2.28e-05 2.172e-05 1.896e-05 2.121e-05 2.31e-05 1.61e-05 1.606e-05 1.617e-05 8.45e-06 1.624e-05 2.226e-05 1.978e-05 2.58e-05 2.514e-05 2.673e-05 2.797e-05 1.781e-05 2.624e-05 2.089e-05 3e-05 2.318e-05 3.009e-05 2.333e-05 1.614e-05 1.041e-05 
MeasCopy 32: 2.077e-05 1.831e-05 1.382e-05 9.79e-06 1.999e-05 2.592e-05 2.091e-05 2.284e-05 2.171e-05 1.897e-05 2.122e-05 2.31e-05 1.609e-05 1.607e-05 1.614e-05 8.44e-06 1.629e-05 2.224e-05 1.978e-05 2.577e-05 2.509e-05 2.674e-05 2.795e-05 1.782e-05 2.623e-05 2.092e-05 2.996e-05 2.322e-05 3.013e-05 2.336e-05 1.614e-05 1.042e-05 
MeasCopy 32: 2.077e-05 1.833e-05 1.382e-05 9.81e-06 2.002e-05 2.59e-05 2.096e-05 2.283e-05 2.17e-05 1.897e-05 2.125e-05 2.311e-05 1.606e-05 1.607e-05 1.619e-05 8.44e-06 1.625e-05 2.228e-05 1.978e-05 2.577e-05 2.51e-05 2.67e-05 2.792e-05 1.782e-05 2.626e-05 2.091e-05 3e-05 2.32e-05 3.015e-05 2.336e-05 1.613e-05 1.042e-05 

ComTab rank 0: 0 253 75 6 95 11 0 59 0 0 0 0 0 0 0 0 0 0 0 0 0 0 0 0 0 0 0 0 0 0 0 0 
ComTab rank 1: 246 0 93 4 77 0 0 3 0 0 0 0 0 0 0 0 0 0 0 0 0 0 0 0 0 0 0 0 0 0 0 0 
ComTab rank 2: 75 93 0 158 0 0 0 0 0 0 0 0 0 0 0 0 0 0 0 0 0 0 0 0 0 0 0 0 0 0 0 0 
ComTab rank 3: 6 5 171 0 0 0 0 36 0 0 0 0 0 0 0 0 0 0 0 0 0 0 0 0 0 0 0 0 0 0 0 0 
ComTab rank 4: 95 78 0 0 0 173 0 144 0 0 0 0 0 0 0 0 0 0 0 0 0 0 0 0 0 0 0 0 0 0 0 12 
ComTab rank 5: 11 0 0 0 171 0 148 94 0 0 29 16 0 0 0 0 0 0 0 0 0 0 0 0 14 0 0 0 148 0 0 36 
ComTab rank 6: 0 0 0 0 0 154 0 176 0 0 0 81 0 0 0 0 0 0 0 0 0 0 0 0 26 0 0 0 93 0 0 1 
ComTab rank 7: 62 4 0 36 147 105 168 0 0 0 0 39 0 0 0 0 0 0 0 0 0 0 0 0 0 0 0 0 0 0 0 0 
ComTab rank 8: 0 0 0 0 0 0 0 0 0 169 89 107 60 17 28 0 0 0 0 0 0 0 0 0 87 0 0 18 0 0 0 0 
ComTab rank 9: 0 0 0 0 0 0 0 0 153 0 77 65 2 39 78 0 0 0 0 0 0 0 0 0 27 0 0 55 0 0 0 0 
ComTab rank 10: 0 0 0 0 0 29 0 0 90 76 0 144 0 63 0 0 0 0 0 0 0 0 0 0 138 0 0 3 0 0 0 0 
ComTab rank 11: 0 0 0 0 0 18 85 42 112 46 180 0 58 52 0 0 0 0 0 0 0 0 0 0 41 0 0 0 0 0 0 0 
ComTab rank 12: 0 0 0 0 0 0 0 0 60 2 0 58 0 139 105 60 0 0 0 0 0 0 0 0 0 0 0 0 0 0 0 0 
ComTab rank 13: 0 0 0 0 0 0 0 0 15 40 63 53 131 0 101 47 0 0 0 0 0 0 0 0 0 0 0 0 0 0 0 0 
ComTab rank 14: 0 0 0 0 0 0 0 0 28 78 0 0 106 95 0 111 0 0 0 0 0 0 0 0 0 0 0 0 0 0 0 0 
ComTab rank 15: 0 0 0 0 0 0 0 0 0 0 0 0 68 47 103 0 0 0 0 0 0 0 0 0 0 0 0 0 0 0 0 0 
ComTab rank 16: 0 0 0 0 0 0 0 0 0 0 0 0 0 0 0 0 0 107 152 16 0 0 96 0 0 0 0 0 0 0 0 19 
ComTab rank 17: 0 0 0 0 0 0 0 0 0 0 0 0 0 0 0 0 107 0 37 166 0 97 49 0 0 0 16 0 0 88 28 13 
ComTab rank 18: 0 0 0 0 0 0 0 0 0 0 0 0 0 0 0 0 152 37 0 130 2 11 158 0 0 0 0 0 0 0 0 0 
ComTab rank 19: 0 0 0 0 0 0 0 0 0 0 0 0 0 0 0 0 16 168 130 0 85 82 20 0 0 10 30 0 0 144 8 0 
ComTab rank 20: 0 0 0 0 0 0 0 0 0 0 0 0 0 0 0 0 0 0 2 85 0 220 42 78 0 75 98 21 0 4 26 0 
ComTab rank 21: 0 0 0 0 0 0 0 0 0 0 0 0 0 0 0 0 0 97 11 79 225 0 93 96 0 4 88 0 0 0 15 0 
ComTab rank 22: 0 0 0 0 0 0 0 0 0 0 0 0 0 0 0 0 96 43 154 26 39 103 0 237 0 0 0 0 0 0 3 0 
ComTab rank 23: 0 0 0 0 0 0 0 0 0 0 0 0 0 0 0 0 0 0 0 0 78 86 244 0 0 0 0 0 0 0 12 0 
ComTab rank 24: 0 0 0 0 0 16 21 0 90 21 138 36 0 0 0 0 0 0 0 0 0 0 0 0 0 137 55 149 35 0 0 9 
ComTab rank 25: 0 0 0 0 0 0 0 0 0 0 0 0 0 0 0 0 0 0 0 10 75 4 0 0 142 0 161 47 84 35 0 0 
ComTab rank 26: 0 0 0 0 0 0 0 0 0 0 0 0 0 0 0 0 0 16 0 28 97 85 0 0 67 167 0 202 100 36 56 0 
ComTab rank 27: 0 0 0 0 0 0 0 0 18 59 4 0 0 0 0 0 0 0 0 0 26 0 0 0 145 51 196 0 33 0 56 30 
ComTab rank 28: 0 0 0 0 0 133 93 0 0 0 0 0 0 0 0 0 0 0 0 0 0 0 0 0 40 83 101 43 0 216 39 45 
ComTab rank 29: 0 0 0 0 0 0 0 0 0 0 0 0 0 0 0 0 0 83 0 141 4 0 0 0 0 34 36 0 232 0 66 2 
ComTab rank 30: 0 0 0 0 0 0 0 0 0 0 0 0 0 0 0 0 0 28 0 8 12 15 3 3 0 0 62 62 43 87 0 111 
ComTab rank 31: 0 0 0 0 12 37 1 0 0 0 0 0 0 0 0 0 18 14 0 0 0 0 0 0 9 0 0 30 35 2 108 0 

Edge-cut: 9152

Wgt-cut: 1.61195e-07

[1579598519.671918] [n004:107018:0]          mpool.c:38   UCX  WARN  object 0x5555588d9740 was not returned to mpool ucp_am_bufs
[1579598519.678826] [n004:107029:0]          mpool.c:38   UCX  WARN  object 0x1555441047e0 was not returned to mpool mm_recv_desc
[1579598519.781683] [n004:107014:0]          mpool.c:38   UCX  WARN  object 0x555558ee4a80 was not returned to mpool ucp_am_bufs
[1579598519.804001] [n004:107015:0]          mpool.c:38   UCX  WARN  object 0x155544118ce0 was not returned to mpool mm_recv_desc
[1579598519.817482] [n004:107021:0]          mpool.c:38   UCX  WARN  object 0x15554411cde0 was not returned to mpool mm_recv_desc
