 Data for JOB [63482,1] offset 0 Total slots allocated 2

 ========================   JOB MAP   ========================

 Data for node: n001	Num slots: 2	Max slots: 0	Num procs: 2
 	Process OMPI jobid: [63482,1] App: 0 Process rank: 0 Bound: socket 1[core 33[hwt 0-1]]:[../../../../../../../../../../../../../../../../../../../../../../../../../../../../../../../..][../BB/../../../../../../../../../../../../../../../../../../../../../../../../../../../../../..]
 	Process OMPI jobid: [63482,1] App: 0 Process rank: 1 Bound: socket 1[core 50[hwt 0-1]]:[../../../../../../../../../../../../../../../../../../../../../../../../../../../../../../../..][../../../../../../../../../../../../../../../../../../BB/../../../../../../../../../../../../..]

 =============================================================
dune-size 1 4.23299e-06 4.23589e-06 
dune-size 2 4.04119e-06 4.04199e-06 
dune-size 4 4.21489e-06 4.21449e-06 
dune-size 8 4.37379e-06 4.37319e-06 
dune-size 16 4.77729e-06 4.77839e-06 
dune-size 32 5.65188e-06 5.64838e-06 
dune-size 64 7.18718e-06 7.18438e-06 
dune-size 128 1.05781e-05 1.05731e-05 
dune-size 256 1.74309e-05 1.74364e-05 
dune-size 512 3.0694e-05 3.06952e-05 
dune-size 1024 8.88972e-05 8.89017e-05 
dune-size 2048 0.000156953 0.000156945 
dune-size 4096 0.000302341 0.000302344 
dune-size 8192 0.000538409 0.000538414 
dune-size 16384 0.000855315 0.00085533 
dune-size 32768 0.00163965 0.00163967 
dune-size 65536 0.00325806 0.00325903 
dune-size 131072 0.00637811 0.00637938 
dune-size 262144 0.0127906 0.012794 
dune-size 524288 0.0254222 0.0254217 
dune-size 1048576 0.0507488 0.0507314 
