 Data for JOB [32354,1] offset 0 Total slots allocated 4

 ========================   JOB MAP   ========================

 Data for node: n004	Num slots: 4	Max slots: 0	Num procs: 4
 	Process OMPI jobid: [32354,1] App: 0 Process rank: 0 Bound: socket 0[core 25[hwt 0-1]]:[../../../../../../../../../../../../../../../../../../../../../../../../../BB/../../../../../..][../../../../../../../../../../../../../../../../../../../../../../../../../../../../../../../..]
 	Process OMPI jobid: [32354,1] App: 0 Process rank: 1 Bound: socket 1[core 59[hwt 0-1]]:[../../../../../../../../../../../../../../../../../../../../../../../../../../../../../../../..][../../../../../../../../../../../../../../../../../../../../../../../../../../../BB/../../../..]
 	Process OMPI jobid: [32354,1] App: 0 Process rank: 2 Bound: socket 0[core 26[hwt 0-1]]:[../../../../../../../../../../../../../../../../../../../../../../../../../../BB/../../../../..][../../../../../../../../../../../../../../../../../../../../../../../../../../../../../../../..]
 	Process OMPI jobid: [32354,1] App: 0 Process rank: 3 Bound: socket 1[core 60[hwt 0-1]]:[../../../../../../../../../../../../../../../../../../../../../../../../../../../../../../../..][../../../../../../../../../../../../../../../../../../../../../../../../../../../../BB/../../..]

 =============================================================
3 2 2
Two group cota
0 1 1
1 0 0
2 3 3
dune-size 1 9.15761e-06 9.14521e-06 9.25671e-06 9.25351e-06 
dune-size 2 8.68991e-06 8.67601e-06 8.63121e-06 8.62651e-06 
dune-size 4 9.41681e-06 9.41661e-06 9.61871e-06 9.62531e-06 
dune-size 8 7.90221e-06 7.89681e-06 5.98101e-06 5.97601e-06 
dune-size 16 8.56811e-06 8.56141e-06 6.1744e-06 6.1676e-06 
dune-size 32 9.97572e-06 9.96852e-06 7.14891e-06 7.13921e-06 
dune-size 64 1.25809e-05 1.25724e-05 8.78411e-06 8.77731e-06 
dune-size 128 1.80179e-05 1.79873e-05 1.22652e-05 1.22603e-05 
dune-size 256 1.95852e-05 1.95776e-05 1.98867e-05 1.98755e-05 
dune-size 512 3.32211e-05 3.32249e-05 3.3885e-05 3.38844e-05 
dune-size 1024 0.000109165 0.00010916 0.000108664 0.000108649 
dune-size 2048 0.000207796 0.00020778 0.00020621 0.000206217 
dune-size 4096 0.000392247 0.000392248 0.000395088 0.000395109 
dune-size 8192 0.000654591 0.000654618 0.000674397 0.000674495 
dune-size 16384 0.00096392 0.000963971 0.000917031 0.000917099 
dune-size 32768 0.00166628 0.00166636 0.00164196 0.00164221 
dune-size 65536 0.00324576 0.00324697 0.00325981 0.00326622 
dune-size 131072 0.00648225 0.00648575 0.00646089 0.00646262 
