 Data for JOB [19403,1] offset 0 Total slots allocated 8

 ========================   JOB MAP   ========================

 Data for node: n004	Num slots: 8	Max slots: 0	Num procs: 8
 	Process OMPI jobid: [19403,1] App: 0 Process rank: 0 Bound: socket 0[core 0[hwt 0-1]]:[BB/../../../../../../../../../../../../../../../../../../../../../../../../../../../../../../..][../../../../../../../../../../../../../../../../../../../../../../../../../../../../../../../..]
 	Process OMPI jobid: [19403,1] App: 0 Process rank: 1 Bound: socket 0[core 13[hwt 0-1]]:[../../../../../../../../../../../../../BB/../../../../../../../../../../../../../../../../../..][../../../../../../../../../../../../../../../../../../../../../../../../../../../../../../../..]
 	Process OMPI jobid: [19403,1] App: 0 Process rank: 2 Bound: socket 0[core 2[hwt 0-1]]:[../../BB/../../../../../../../../../../../../../../../../../../../../../../../../../../../../..][../../../../../../../../../../../../../../../../../../../../../../../../../../../../../../../..]
 	Process OMPI jobid: [19403,1] App: 0 Process rank: 3 Bound: socket 0[core 15[hwt 0-1]]:[../../../../../../../../../../../../../../../BB/../../../../../../../../../../../../../../../..][../../../../../../../../../../../../../../../../../../../../../../../../../../../../../../../..]
 	Process OMPI jobid: [19403,1] App: 0 Process rank: 4 Bound: socket 0[core 12[hwt 0-1]]:[../../../../../../../../../../../../BB/../../../../../../../../../../../../../../../../../../..][../../../../../../../../../../../../../../../../../../../../../../../../../../../../../../../..]
 	Process OMPI jobid: [19403,1] App: 0 Process rank: 5 Bound: socket 0[core 1[hwt 0-1]]:[../BB/../../../../../../../../../../../../../../../../../../../../../../../../../../../../../..][../../../../../../../../../../../../../../../../../../../../../../../../../../../../../../../..]
 	Process OMPI jobid: [19403,1] App: 0 Process rank: 6 Bound: socket 0[core 14[hwt 0-1]]:[../../../../../../../../../../../../../../BB/../../../../../../../../../../../../../../../../..][../../../../../../../../../../../../../../../../../../../../../../../../../../../../../../../..]
 	Process OMPI jobid: [19403,1] App: 0 Process rank: 7 Bound: socket 0[core 3[hwt 0-1]]:[../../../BB/../../../../../../../../../../../../../../../../../../../../../../../../../../../..][../../../../../../../../../../../../../../../../../../../../../../../../../../../../../../../..]

 =============================================================
3 0 2
3 1 1
3 2 0
4 5 7
4 6 6
4 7 5
Two group cota
0 1 3
0 2 2
0 3 1
1 2 0
1 3 3
1 0 2
2 3 1
2 0 0
2 1 3
5 6 4
5 7 7
5 4 6
6 7 5
6 4 4
6 5 7
7 4 6
7 5 5
7 6 4
dune-size 1 1.60258e-05 1.60379e-05 1.60189e-05 1.60285e-05 2.10048e-05 2.10252e-05 2.10688e-05 2.10496e-05 
dune-size 2 1.43462e-05 1.43559e-05 1.43452e-05 1.43605e-05 1.43253e-05 1.43037e-05 1.43266e-05 1.43302e-05 
dune-size 4 1.6767e-05 1.6819e-05 1.67896e-05 1.67969e-05 1.54048e-05 1.54357e-05 1.54269e-05 1.53882e-05 
dune-size 8 1.65902e-05 1.66321e-05 1.66225e-05 1.65976e-05 1.70369e-05 1.70865e-05 1.71041e-05 1.70629e-05 
dune-size 16 1.32344e-05 1.32502e-05 1.32441e-05 1.32573e-05 1.85036e-05 1.85488e-05 1.85728e-05 1.85281e-05 
dune-size 32 1.50919e-05 1.51102e-05 1.50932e-05 1.5114e-05 1.5904e-05 1.59302e-05 1.59119e-05 1.59325e-05 
dune-size 64 2.02059e-05 2.0241e-05 2.02092e-05 2.02334e-05 2.0057e-05 2.0097e-05 2.0071e-05 2.00972e-05 
dune-size 128 3.17782e-05 3.18364e-05 3.1821e-05 3.18312e-05 2.99938e-05 3.00359e-05 3.00028e-05 3.00226e-05 
dune-size 256 5.2082e-05 5.21346e-05 5.20846e-05 5.21309e-05 4.95201e-05 4.95891e-05 4.95326e-05 4.95896e-05 
dune-size 512 9.12012e-05 9.11328e-05 9.11266e-05 9.11538e-05 8.85681e-05 8.84178e-05 8.85625e-05 8.84508e-05 
dune-size 1024 0.000244695 0.000244171 0.00024423 0.000244477 0.000232755 0.000232502 0.000232508 0.000232964 
dune-size 2048 0.000440075 0.000439669 0.0004392 0.000439198 0.000427391 0.00042743 0.000427891 0.000428295 
dune-size 4096 0.000771817 0.000770577 0.000770602 0.000771491 0.000724089 0.000725761 0.000724958 0.000724001 
dune-size 8192 0.00133733 0.00133655 0.0013348 0.00133483 0.00125989 0.00126121 0.00125994 0.00126238 
dune-size 16384 0.00263457 0.00262577 0.00262814 0.00262576 0.00243383 0.00243029 0.00243062 0.00243688 
dune-size 32768 0.00527146 0.00525795 0.00526511 0.00525838 0.00482907 0.00483183 0.0048237 0.00482377 
dune-size 65536 0.0104412 0.0103353 0.0101795 0.0102207 0.00975146 0.00964738 0.00975103 0.00964615 
dune-size 131072 0.0206499 0.0202842 0.0204306 0.0202835 0.0196492 0.0195855 0.0193921 0.0195343 
