 Data for JOB [48203,1] offset 0 Total slots allocated 2

 ========================   JOB MAP   ========================

 Data for node: n001	Num slots: 2	Max slots: 0	Num procs: 2
 	Process OMPI jobid: [48203,1] App: 0 Process rank: 0 Bound: socket 1[core 57[hwt 0-1]]:[../../../../../../../../../../../../../../../../../../../../../../../../../../../../../../../..][../../../../../../../../../../../../../../../../../../../../../../../../../BB/../../../../../..]
 	Process OMPI jobid: [48203,1] App: 0 Process rank: 1 Bound: socket 0[core 10[hwt 0-1]]:[../../../../../../../../../../BB/../../../../../../../../../../../../../../../../../../../../..][../../../../../../../../../../../../../../../../../../../../../../../../../../../../../../../..]

 =============================================================
dune-size 1 5.93389e-06 5.93319e-06 
dune-size 2 4.66629e-06 4.66689e-06 
dune-size 4 4.86459e-06 4.86239e-06 
dune-size 8 5.10709e-06 5.10479e-06 
dune-size 16 5.52609e-06 5.52449e-06 
dune-size 32 6.31839e-06 6.31759e-06 
dune-size 64 8.09788e-06 8.09678e-06 
dune-size 128 1.16203e-05 1.16189e-05 
dune-size 256 1.96951e-05 1.96866e-05 
dune-size 512 3.29659e-05 3.29709e-05 
dune-size 1024 0.000104857 0.000104863 
dune-size 2048 0.000196002 0.000195993 
dune-size 4096 0.00036996 0.000369952 
dune-size 8192 0.00064711 0.00064712 
dune-size 16384 0.000936718 0.000936763 
dune-size 32768 0.00168489 0.00168493 
dune-size 65536 0.00329877 0.00329933 
dune-size 131072 0.00675096 0.00675137 
dune-size 262144 0.0129018 0.012902 
dune-size 524288 0.0256566 0.0256691 
dune-size 1048576 0.0510533 0.0510742 
