[1578557821.262586] [srl-mds1:30349:0]         mxm.c:196  MXM  WARN  The 'ulimit -s' on the system is set to 'unlimited'. This may have negative performance implications. Please set the stack size to the default value (10240) 
[1578557821.262683] [srl-mds1:30348:0]         mxm.c:196  MXM  WARN  The 'ulimit -s' on the system is set to 'unlimited'. This may have negative performance implications. Please set the stack size to the default value (10240) 
0: 12 
Edge Weight Method: 12
Cell on rank 0: 21921
Cell on rank 1: 22510
Edge-cut: 20345

Rank 0 ghostCells: 547
Rank 1 ghostCells: 536

Rank 0 numCells: 22468
Rank 1 numCells: 23046

Rank 0 interiorCells: 21921
Rank 1 interiorCells: 22510

MeasComm+1 2: 3.1838e-05 3.1227e-05 
MeasComm+1 2: 3.2386e-05 3.2039e-05 
MeasComm+1 2: 3.1983e-05 3.0936e-05 
MeasComm+1 2: 3.2309e-05 3.1002e-05 
MeasComm+1 2: 3.2561e-05 3.2204e-05 
MeasComm+1 2: 3.2257e-05 3.1978e-05 
MeasComm+1 2: 3.1837e-05 3.2326e-05 
MeasComm+1 2: 3.1844e-05 3.1116e-05 
MeasComm+1 2: 3.1888e-05 3.117e-05 
MeasComm+1 2: 3.2527e-05 3.2422e-05 

ComTab rank 0: 0 547 
ComTab rank 1: 536 0 

Edge-cut: 723

Wgt-cut: 4.11639e-09

[1578557827.125264] [srl-mds1:30349:0]          mpool.c:38   UCX  WARN  object 0x55555c0969c0 was not returned to mpool ucp_am_bufs
