 Data for JOB [4312,1] offset 0 Total slots allocated 4

 ========================   JOB MAP   ========================

 Data for node: n003	Num slots: 4	Max slots: 0	Num procs: 4
 	Process OMPI jobid: [4312,1] App: 0 Process rank: 0 Bound: socket 1[core 49[hwt 0-1]]:[../../../../../../../../../../../../../../../../../../../../../../../../../../../../../../../..][../../../../../../../../../../../../../../../../../BB/../../../../../../../../../../../../../..]
 	Process OMPI jobid: [4312,1] App: 0 Process rank: 1 Bound: socket 0[core 19[hwt 0-1]]:[../../../../../../../../../../../../../../../../../../../BB/../../../../../../../../../../../..][../../../../../../../../../../../../../../../../../../../../../../../../../../../../../../../..]
 	Process OMPI jobid: [4312,1] App: 0 Process rank: 2 Bound: socket 0[core 20[hwt 0-1]]:[../../../../../../../../../../../../../../../../../../../../BB/../../../../../../../../../../..][../../../../../../../../../../../../../../../../../../../../../../../../../../../../../../../..]
 	Process OMPI jobid: [4312,1] App: 0 Process rank: 3 Bound: socket 1[core 50[hwt 0-1]]:[../../../../../../../../../../../../../../../../../../../../../../../../../../../../../../../..][../../../../../../../../../../../../../../../../../../BB/../../../../../../../../../../../../..]

 =============================================================
Two group cota
0 1 1
3 2 2
1 0 0
2 3 3
dune-size 1 5.55959e-06 5.55849e-06 5.53629e-06 5.53729e-06 
dune-size 2 5.32469e-06 5.32749e-06 5.33059e-06 5.33109e-06 
dune-size 4 5.36749e-06 5.36339e-06 5.43029e-06 5.42409e-06 
dune-size 8 8.04009e-06 8.04869e-06 8.08319e-06 8.08819e-06 
dune-size 16 6.14149e-06 6.14679e-06 6.18049e-06 6.18589e-06 
dune-size 32 7.00669e-06 7.00489e-06 6.96979e-06 6.96919e-06 
dune-size 64 8.80019e-06 8.80179e-06 8.86459e-06 8.85909e-06 
dune-size 128 1.21057e-05 1.21247e-05 1.21218e-05 1.21201e-05 
dune-size 256 1.98075e-05 1.98087e-05 1.93155e-05 1.9312e-05 
dune-size 512 3.29698e-05 3.29743e-05 3.28239e-05 3.28348e-05 
dune-size 1024 0.000104684 0.000104674 0.000106659 0.000106653 
dune-size 2048 0.000194421 0.000194423 0.000195916 0.000195924 
dune-size 4096 0.000381869 0.000381846 0.000344279 0.000344264 
dune-size 8192 0.000636884 0.000636844 0.000610376 0.000610366 
dune-size 16384 0.000965987 0.000965938 0.000943676 0.0009437 
dune-size 32768 0.00167629 0.00167626 0.00166518 0.0016652 
dune-size 65536 0.00328139 0.00327991 0.00329276 0.00329359 
dune-size 131072 0.00662736 0.0066187 0.00663356 0.00664356 
