 Data for JOB [44706,1] offset 0 Total slots allocated 2

 ========================   JOB MAP   ========================

 Data for node: srl-adm2	Num slots: 2	Max slots: 0	Num procs: 2
 	Process OMPI jobid: [44706,1] App: 0 Process rank: 0 Bound: socket 0[core 0[hwt 0-1]]:[BB/../../../../../../../../../../../../../../..][../../../../../../../../../../../../../../../..]
 	Process OMPI jobid: [44706,1] App: 0 Process rank: 1 Bound: socket 0[core 8[hwt 0-1]]:[../../../../../../../../BB/../../../../../../..][../../../../../../../../../../../../../../../..]

 =============================================================
[1578561951.997631] [srl-adm2:59619:0]         mxm.c:196  MXM  WARN  The 'ulimit -s' on the system is set to 'unlimited'. This may have negative performance implications. Please set the stack size to the default value (10240) 
[1578561951.997679] [srl-adm2:59620:0]         mxm.c:196  MXM  WARN  The 'ulimit -s' on the system is set to 'unlimited'. This may have negative performance implications. Please set the stack size to the default value (10240) 
0: 11 
Edge Weight Method: 11
Cell on rank 0: 177925
Cell on rank 1: 177482
Edge-cut: 51207264

Rank 0 ghostCells: 3612
Rank 1 ghostCells: 3631

Rank 0 numCells: 181537
Rank 1 numCells: 181113

Rank 0 interiorCells: 177925
Rank 1 interiorCells: 177482

MeasComm+1 2: 0.000157803 0.000158481 
MeasComm+1 2: 0.000157186 0.000158066 
MeasComm+1 2: 0.000157291 0.000156661 
MeasComm+1 2: 0.000158328 0.00015766 
MeasComm+1 2: 0.000157476 0.000157845 
MeasComm+1 2: 0.000156852 0.000158488 
MeasComm+1 2: 0.000156993 0.000156767 
MeasComm+1 2: 0.00015751 0.000157652 
MeasComm+1 2: 0.000157862 0.00015723 
MeasComm+1 2: 0.000157841 0.000158863 

ComTab rank 0: 0 3612 
ComTab rank 1: 3631 0 

Edge-cut: 6324

Wgt-cut: 5.11549e-08

[1578561999.222132] [srl-adm2:59620:0]          mpool.c:38   UCX  WARN  object 0x155544122f60 was not returned to mpool mm_recv_desc
