 Data for JOB [41353,1] offset 0 Total slots allocated 16

 ========================   JOB MAP   ========================

 Data for node: srl-adm2	Num slots: 16	Max slots: 0	Num procs: 16
 	Process OMPI jobid: [41353,1] App: 0 Process rank: 0 Bound: socket 0[core 0[hwt 0-1]]:[BB/../../../../../../../../../../../../../../..][../../../../../../../../../../../../../../../..]
 	Process OMPI jobid: [41353,1] App: 0 Process rank: 1 Bound: socket 0[core 1[hwt 0-1]]:[../BB/../../../../../../../../../../../../../..][../../../../../../../../../../../../../../../..]
 	Process OMPI jobid: [41353,1] App: 0 Process rank: 2 Bound: socket 0[core 2[hwt 0-1]]:[../../BB/../../../../../../../../../../../../..][../../../../../../../../../../../../../../../..]
 	Process OMPI jobid: [41353,1] App: 0 Process rank: 3 Bound: socket 0[core 3[hwt 0-1]]:[../../../BB/../../../../../../../../../../../..][../../../../../../../../../../../../../../../..]
 	Process OMPI jobid: [41353,1] App: 0 Process rank: 4 Bound: socket 0[core 8[hwt 0-1]]:[../../../../../../../../BB/../../../../../../..][../../../../../../../../../../../../../../../..]
 	Process OMPI jobid: [41353,1] App: 0 Process rank: 5 Bound: socket 0[core 9[hwt 0-1]]:[../../../../../../../../../BB/../../../../../..][../../../../../../../../../../../../../../../..]
 	Process OMPI jobid: [41353,1] App: 0 Process rank: 6 Bound: socket 0[core 10[hwt 0-1]]:[../../../../../../../../../../BB/../../../../..][../../../../../../../../../../../../../../../..]
 	Process OMPI jobid: [41353,1] App: 0 Process rank: 7 Bound: socket 0[core 11[hwt 0-1]]:[../../../../../../../../../../../BB/../../../..][../../../../../../../../../../../../../../../..]
 	Process OMPI jobid: [41353,1] App: 0 Process rank: 8 Bound: socket 1[core 16[hwt 0-1]]:[../../../../../../../../../../../../../../../..][BB/../../../../../../../../../../../../../../..]
 	Process OMPI jobid: [41353,1] App: 0 Process rank: 9 Bound: socket 1[core 17[hwt 0-1]]:[../../../../../../../../../../../../../../../..][../BB/../../../../../../../../../../../../../..]
 	Process OMPI jobid: [41353,1] App: 0 Process rank: 10 Bound: socket 1[core 18[hwt 0-1]]:[../../../../../../../../../../../../../../../..][../../BB/../../../../../../../../../../../../..]
 	Process OMPI jobid: [41353,1] App: 0 Process rank: 11 Bound: socket 1[core 19[hwt 0-1]]:[../../../../../../../../../../../../../../../..][../../../BB/../../../../../../../../../../../..]
 	Process OMPI jobid: [41353,1] App: 0 Process rank: 12 Bound: socket 1[core 24[hwt 0-1]]:[../../../../../../../../../../../../../../../..][../../../../../../../../BB/../../../../../../..]
 	Process OMPI jobid: [41353,1] App: 0 Process rank: 13 Bound: socket 1[core 25[hwt 0-1]]:[../../../../../../../../../../../../../../../..][../../../../../../../../../BB/../../../../../..]
 	Process OMPI jobid: [41353,1] App: 0 Process rank: 14 Bound: socket 1[core 26[hwt 0-1]]:[../../../../../../../../../../../../../../../..][../../../../../../../../../../BB/../../../../..]
 	Process OMPI jobid: [41353,1] App: 0 Process rank: 15 Bound: socket 1[core 27[hwt 0-1]]:[../../../../../../../../../../../../../../../..][../../../../../../../../../../../BB/../../../..]

 =============================================================
[1578561914.074770] [srl-adm2:59412:0]         mxm.c:196  MXM  WARN  The 'ulimit -s' on the system is set to 'unlimited'. This may have negative performance implications. Please set the stack size to the default value (10240) 
[1578561914.075049] [srl-adm2:59403:0]         mxm.c:196  MXM  WARN  The 'ulimit -s' on the system is set to 'unlimited'. This may have negative performance implications. Please set the stack size to the default value (10240) 
[1578561914.075920] [srl-adm2:59414:0]         mxm.c:196  MXM  WARN  The 'ulimit -s' on the system is set to 'unlimited'. This may have negative performance implications. Please set the stack size to the default value (10240) 
[1578561914.078127] [srl-adm2:59413:0]         mxm.c:196  MXM  WARN  The 'ulimit -s' on the system is set to 'unlimited'. This may have negative performance implications. Please set the stack size to the default value (10240) 
[1578561914.078284] [srl-adm2:59404:0]         mxm.c:196  MXM  WARN  The 'ulimit -s' on the system is set to 'unlimited'. This may have negative performance implications. Please set the stack size to the default value (10240) 
[1578561914.078552] [srl-adm2:59416:0]         mxm.c:196  MXM  WARN  The 'ulimit -s' on the system is set to 'unlimited'. This may have negative performance implications. Please set the stack size to the default value (10240) 
[1578561914.078800] [srl-adm2:59406:0]         mxm.c:196  MXM  WARN  The 'ulimit -s' on the system is set to 'unlimited'. This may have negative performance implications. Please set the stack size to the default value (10240) 
[1578561914.079806] [srl-adm2:59408:0]         mxm.c:196  MXM  WARN  The 'ulimit -s' on the system is set to 'unlimited'. This may have negative performance implications. Please set the stack size to the default value (10240) 
[1578561914.082090] [srl-adm2:59418:0]         mxm.c:196  MXM  WARN  The 'ulimit -s' on the system is set to 'unlimited'. This may have negative performance implications. Please set the stack size to the default value (10240) 
[1578561914.082702] [srl-adm2:59410:0]         mxm.c:196  MXM  WARN  The 'ulimit -s' on the system is set to 'unlimited'. This may have negative performance implications. Please set the stack size to the default value (10240) 
[1578561914.083736] [srl-adm2:59417:0]         mxm.c:196  MXM  WARN  The 'ulimit -s' on the system is set to 'unlimited'. This may have negative performance implications. Please set the stack size to the default value (10240) 
[1578561914.084195] [srl-adm2:59409:0]         mxm.c:196  MXM  WARN  The 'ulimit -s' on the system is set to 'unlimited'. This may have negative performance implications. Please set the stack size to the default value (10240) 
[1578561914.084291] [srl-adm2:59415:0]         mxm.c:196  MXM  WARN  The 'ulimit -s' on the system is set to 'unlimited'. This may have negative performance implications. Please set the stack size to the default value (10240) 
[1578561914.084700] [srl-adm2:59411:0]         mxm.c:196  MXM  WARN  The 'ulimit -s' on the system is set to 'unlimited'. This may have negative performance implications. Please set the stack size to the default value (10240) 
[1578561914.084820] [srl-adm2:59405:0]         mxm.c:196  MXM  WARN  The 'ulimit -s' on the system is set to 'unlimited'. This may have negative performance implications. Please set the stack size to the default value (10240) 
[1578561914.084840] [srl-adm2:59407:0]         mxm.c:196  MXM  WARN  The 'ulimit -s' on the system is set to 'unlimited'. This may have negative performance implications. Please set the stack size to the default value (10240) 
0: 0 

Rank 0 ghostCells: 2796
Rank 1 ghostCells: 2001
Rank 2 ghostCells: 2006
Rank 3 ghostCells: 3294
Rank 4 ghostCells: 1829
Rank 5 ghostCells: 2451
Rank 6 ghostCells: 3487
Rank 7 ghostCells: 1904
Rank 8 ghostCells: 1303
Rank 9 ghostCells: 594
Rank 10 ghostCells: 1552
Rank 11 ghostCells: 1706
Rank 12 ghostCells: 1874
Rank 13 ghostCells: 2699
Rank 14 ghostCells: 2348
Rank 15 ghostCells: 1719

Rank 0 numCells: 25822
Rank 1 numCells: 25044
Rank 2 numCells: 25890
Rank 3 numCells: 27177
Rank 4 numCells: 22696
Rank 5 numCells: 25294
Rank 6 numCells: 25845
Rank 7 numCells: 24261
Rank 8 numCells: 23824
Rank 9 numCells: 14815
Rank 10 numCells: 25058
Rank 11 numCells: 20567
Rank 12 numCells: 24151
Rank 13 numCells: 26969
Rank 14 numCells: 26131
Rank 15 numCells: 25426

Rank 0 interiorCells: 23026
Rank 1 interiorCells: 23043
Rank 2 interiorCells: 23884
Rank 3 interiorCells: 23883
Rank 4 interiorCells: 20867
Rank 5 interiorCells: 22843
Rank 6 interiorCells: 22358
Rank 7 interiorCells: 22357
Rank 8 interiorCells: 22521
Rank 9 interiorCells: 14221
Rank 10 interiorCells: 23506
Rank 11 interiorCells: 18861
Rank 12 interiorCells: 22277
Rank 13 interiorCells: 24270
Rank 14 interiorCells: 23783
Rank 15 interiorCells: 23707

MeasComm+1 16: 0.000146612 0.0001217 0.00010325 0.000158211 9.9515e-05 0.000126394 0.000168813 0.000122943 7.5713e-05 9.1825e-05 8.5576e-05 9.7746e-05 0.000114626 0.000162929 0.000132097 9.6413e-05 
MeasComm+1 16: 0.000144735 0.000109794 0.000108399 0.000157496 9.954e-05 0.000125674 0.00016859 0.000120334 7.2849e-05 9.0813e-05 8.5005e-05 9.7725e-05 0.00010707 0.000162069 0.000128362 9.55e-05 
MeasComm+1 16: 0.000146374 0.000108715 0.000110401 0.0001576 9.8774e-05 0.000125612 0.000168374 0.000120026 7.7971e-05 9.1181e-05 8.5206e-05 9.8124e-05 0.000114743 0.000161935 0.000127942 9.5857e-05 
MeasComm+1 16: 0.000146516 0.000121666 0.000110693 0.000157677 9.9307e-05 0.000125024 0.00016879 0.000122197 7.8217e-05 9.1114e-05 8.5514e-05 9.7999e-05 0.000114842 0.0001616 0.000132256 9.5696e-05 
MeasComm+1 16: 0.000143968 0.000121624 0.000105379 0.000157553 9.904e-05 0.000126022 0.000168989 0.000121258 7.8379e-05 9.1463e-05 8.5469e-05 9.8217e-05 0.000114608 0.000161964 0.000131289 9.6072e-05 
MeasComm+1 16: 0.000144432 0.000107521 0.000111348 0.000157784 9.8944e-05 0.000125547 0.000168812 0.000121123 7.3406e-05 9.0427e-05 8.522e-05 9.8124e-05 0.000114958 0.000161717 0.00013246 9.6137e-05 
MeasComm+1 16: 0.000147881 0.000116852 0.000106101 0.000156648 9.8842e-05 0.000124842 0.000169347 0.00012003 7.8069e-05 9.0607e-05 8.569e-05 9.7882e-05 0.000113012 0.00016186 0.000129632 9.6287e-05 
MeasComm+1 16: 0.000145128 0.000106967 0.000110877 0.000157321 9.8347e-05 0.000125802 0.000169119 0.000120422 7.7615e-05 9.0932e-05 8.5462e-05 9.8337e-05 0.0001139 0.000161335 0.000129801 9.6158e-05 
MeasComm+1 16: 0.000145787 0.000120593 0.000107873 0.00015699 9.8883e-05 0.000125256 0.00016868 0.000120839 7.3369e-05 9.1334e-05 8.5174e-05 9.8078e-05 0.000112507 0.00016263 0.000128375 9.6095e-05 
MeasComm+1 16: 0.000144726 0.000111525 0.000110249 0.000157102 9.8536e-05 0.000124974 0.000168554 0.000121035 7.5505e-05 9.02e-05 8.5829e-05 9.8536e-05 0.000114555 0.000161682 0.000131755 9.628e-05 

ComTab rank 0: 0 661 0 638 0 0 667 329 0 0 0 0 0 692 0 0 
ComTab rank 1: 677 0 858 532 0 0 0 0 0 0 0 34 0 0 0 0 
ComTab rank 2: 0 856 0 1143 0 0 0 58 0 0 0 0 0 0 0 0 
ComTab rank 3: 644 546 1139 0 0 0 1048 89 0 0 0 0 0 0 0 0 
ComTab rank 4: 0 0 0 0 0 969 0 0 0 101 682 0 0 64 38 0 
ComTab rank 5: 0 0 0 0 967 0 1178 134 0 61 0 0 0 194 0 0 
ComTab rank 6: 663 0 0 1036 0 1151 0 564 0 0 0 0 0 258 0 0 
ComTab rank 7: 318 0 62 88 0 123 538 0 0 103 0 358 167 320 0 0 
ComTab rank 8: 0 0 0 0 0 0 0 0 0 71 0 616 0 0 0 618 
ComTab rank 9: 0 0 0 0 83 53 0 106 48 0 154 34 0 107 66 0 
ComTab rank 10: 0 0 0 0 692 0 0 0 0 186 0 678 0 0 0 0 
ComTab rank 11: 0 16 0 0 0 0 0 363 607 40 683 0 0 0 0 0 
ComTab rank 12: 0 0 0 0 0 0 0 167 0 0 0 0 0 844 842 51 
ComTab rank 13: 626 0 0 0 50 172 259 351 0 114 0 0 872 0 445 0 
ComTab rank 14: 0 0 0 0 25 0 0 0 0 66 0 0 872 435 0 1000 
ComTab rank 15: 0 0 0 0 0 0 0 0 636 0 0 0 70 0 1017 0 

Edge-cut: 21281

Wgt-cut: 1.41094e-07

[1578561949.842089] [srl-adm2:59404:0]          mpool.c:38   UCX  WARN  object 0x55555bb67300 was not returned to mpool ucp_am_bufs
[1578561949.842599] [srl-adm2:59411:0]          mpool.c:38   UCX  WARN  object 0x15554411ad60 was not returned to mpool mm_recv_desc
[1578561949.842901] [srl-adm2:59407:0]          mpool.c:38   UCX  WARN  object 0x55555b6c3240 was not returned to mpool ucp_am_bufs
[1578561949.843152] [srl-adm2:59405:0]          mpool.c:38   UCX  WARN  object 0x1555393fdee0 was not returned to mpool mm_recv_desc
