 Data for JOB [5678,1] offset 0 Total slots allocated 8

 ========================   JOB MAP   ========================

 Data for node: srl-mds1	Num slots: 8	Max slots: 0	Num procs: 8
 	Process OMPI jobid: [5678,1] App: 0 Process rank: 0 Bound: socket 0[core 0[hwt 0-1]]:[BB/../../../../../../../../../../../../../../..][../../../../../../../../../../../../../../../..]
 	Process OMPI jobid: [5678,1] App: 0 Process rank: 1 Bound: socket 0[core 1[hwt 0-1]]:[../BB/../../../../../../../../../../../../../..][../../../../../../../../../../../../../../../..]
 	Process OMPI jobid: [5678,1] App: 0 Process rank: 2 Bound: socket 0[core 2[hwt 0-1]]:[../../BB/../../../../../../../../../../../../..][../../../../../../../../../../../../../../../..]
 	Process OMPI jobid: [5678,1] App: 0 Process rank: 3 Bound: socket 0[core 3[hwt 0-1]]:[../../../BB/../../../../../../../../../../../..][../../../../../../../../../../../../../../../..]
 	Process OMPI jobid: [5678,1] App: 0 Process rank: 4 Bound: socket 1[core 16[hwt 0-1]]:[../../../../../../../../../../../../../../../..][BB/../../../../../../../../../../../../../../..]
 	Process OMPI jobid: [5678,1] App: 0 Process rank: 5 Bound: socket 1[core 17[hwt 0-1]]:[../../../../../../../../../../../../../../../..][../BB/../../../../../../../../../../../../../..]
 	Process OMPI jobid: [5678,1] App: 0 Process rank: 6 Bound: socket 1[core 18[hwt 0-1]]:[../../../../../../../../../../../../../../../..][../../BB/../../../../../../../../../../../../..]
 	Process OMPI jobid: [5678,1] App: 0 Process rank: 7 Bound: socket 1[core 19[hwt 0-1]]:[../../../../../../../../../../../../../../../..][../../../BB/../../../../../../../../../../../..]

 =============================================================
[1578650067.028802] [srl-mds1:48430:0]         mxm.c:196  MXM  WARN  The 'ulimit -s' on the system is set to 'unlimited'. This may have negative performance implications. Please set the stack size to the default value (10240) 
[1578650067.028834] [srl-mds1:48427:0]         mxm.c:196  MXM  WARN  The 'ulimit -s' on the system is set to 'unlimited'. This may have negative performance implications. Please set the stack size to the default value (10240) 
[1578650067.028924] [srl-mds1:48428:0]         mxm.c:196  MXM  WARN  The 'ulimit -s' on the system is set to 'unlimited'. This may have negative performance implications. Please set the stack size to the default value (10240) 
[1578650067.030850] [srl-mds1:48425:0]         mxm.c:196  MXM  WARN  The 'ulimit -s' on the system is set to 'unlimited'. This may have negative performance implications. Please set the stack size to the default value (10240) 
[1578650067.030981] [srl-mds1:48424:0]         mxm.c:196  MXM  WARN  The 'ulimit -s' on the system is set to 'unlimited'. This may have negative performance implications. Please set the stack size to the default value (10240) 
[1578650067.031172] [srl-mds1:48423:0]         mxm.c:196  MXM  WARN  The 'ulimit -s' on the system is set to 'unlimited'. This may have negative performance implications. Please set the stack size to the default value (10240) 
[1578650067.031280] [srl-mds1:48429:0]         mxm.c:196  MXM  WARN  The 'ulimit -s' on the system is set to 'unlimited'. This may have negative performance implications. Please set the stack size to the default value (10240) 
[1578650067.031360] [srl-mds1:48426:0]         mxm.c:196  MXM  WARN  The 'ulimit -s' on the system is set to 'unlimited'. This may have negative performance implications. Please set the stack size to the default value (10240) 
0: 0 

Rank 0 ghostCells: 2626
Rank 1 ghostCells: 1160
Rank 2 ghostCells: 2040
Rank 3 ghostCells: 861
Rank 4 ghostCells: 4305
Rank 5 ghostCells: 2155
Rank 6 ghostCells: 3660
Rank 7 ghostCells: 1839

Rank 0 numCells: 49140
Rank 1 numCells: 48216
Rank 2 numCells: 49564
Rank 3 numCells: 47010
Rank 4 numCells: 52127
Rank 5 numCells: 32208
Rank 6 numCells: 48117
Rank 7 numCells: 47671

Rank 0 interiorCells: 46514
Rank 1 interiorCells: 47056
Rank 2 interiorCells: 47524
Rank 3 interiorCells: 46149
Rank 4 interiorCells: 47822
Rank 5 interiorCells: 30053
Rank 6 interiorCells: 44457
Rank 7 interiorCells: 45832

MeasComm+1 8: 0.000161483 9.6416e-05 0.000124035 7.7296e-05 0.00020623 0.000147004 0.000179621 0.000130283 
MeasComm+1 8: 0.000160475 9.7318e-05 0.000123469 7.7419e-05 0.000205765 0.000146349 0.000179327 0.000130391 
MeasComm+1 8: 0.000159922 9.7007e-05 0.000122979 7.7659e-05 0.00020567 0.000145964 0.00016915 0.00012982 
MeasComm+1 8: 0.000160582 9.7003e-05 0.000107048 7.7479e-05 0.000206081 0.000146486 0.000169578 0.000130332 
MeasComm+1 8: 0.000160769 9.7127e-05 0.000123163 7.7067e-05 0.000205898 0.000147018 0.000179169 0.000130501 
MeasComm+1 8: 0.000158262 9.781e-05 0.000121962 7.7639e-05 0.000202537 0.000144578 0.000164676 0.000128448 
MeasComm+1 8: 0.00015762 9.6855e-05 0.000121674 7.7512e-05 0.000201458 0.000143983 0.000171185 0.000127553 
MeasComm+1 8: 0.000159205 9.2939e-05 0.000123239 6.8001e-05 0.000204756 0.000141127 0.00017777 0.000127231 
MeasComm+1 8: 0.000158875 9.7492e-05 0.000123893 7.7421e-05 0.000205813 0.000146742 0.000173367 0.000130448 
MeasComm+1 8: 0.000160344 9.7189e-05 0.000123969 7.6807e-05 0.000205962 0.000146885 0.00017896 0.000129985 

ComTab rank 0: 0 1159 285 0 1152 60 0 0 
ComTab rank 1: 1160 0 0 0 0 0 0 0 
ComTab rank 2: 291 0 0 858 277 693 0 0 
ComTab rank 3: 0 0 861 0 0 0 0 0 
ComTab rank 4: 1151 0 277 0 0 1232 1729 0 
ComTab rank 5: 60 0 725 0 1236 0 172 41 
ComTab rank 6: 0 0 0 0 1722 189 0 1779 
ComTab rank 7: 0 0 0 0 0 62 1779 0 

Edge-cut: 11358

Wgt-cut: 5.88806e-08

[1578650100.821810] [srl-mds1:48429:0]          mpool.c:38   UCX  WARN  object 0x55555bab3580 was not returned to mpool ucp_am_bufs
[1578650100.831281] [srl-mds1:48427:0]          mpool.c:38   UCX  WARN  object 0x5555640c37c0 was not returned to mpool ucp_am_bufs
[1578650100.832932] [srl-mds1:48430:0]          mpool.c:38   UCX  WARN  object 0x55555bab3580 was not returned to mpool ucp_am_bufs
[1578650100.833038] [srl-mds1:48428:0]          mpool.c:38   UCX  WARN  object 0x55555bab3200 was not returned to mpool ucp_am_bufs
[1578650100.833476] [srl-mds1:48424:0]          mpool.c:38   UCX  WARN  object 0x555563edcd00 was not returned to mpool ucp_am_bufs
[1578650100.833378] [srl-mds1:48425:0]          mpool.c:38   UCX  WARN  object 0x555563edc9c0 was not returned to mpool ucp_am_bufs
[1578650100.833429] [srl-mds1:48426:0]          mpool.c:38   UCX  WARN  object 0x5555630b2ac0 was not returned to mpool ucp_am_bufs
