 Data for JOB [49541,1] offset 0 Total slots allocated 8

 ========================   JOB MAP   ========================

 Data for node: n003	Num slots: 8	Max slots: 0	Num procs: 8
 	Process OMPI jobid: [49541,1] App: 0 Process rank: 0 Bound: socket 0[core 16[hwt 0-1]]:[../../../../../../../../../../../../../../../../BB/../../../../../../../../../../../../../../..][../../../../../../../../../../../../../../../../../../../../../../../../../../../../../../../..]
 	Process OMPI jobid: [49541,1] App: 0 Process rank: 1 Bound: socket 0[core 17[hwt 0-1]]:[../../../../../../../../../../../../../../../../../BB/../../../../../../../../../../../../../..][../../../../../../../../../../../../../../../../../../../../../../../../../../../../../../../..]
 	Process OMPI jobid: [49541,1] App: 0 Process rank: 2 Bound: socket 0[core 18[hwt 0-1]]:[../../../../../../../../../../../../../../../../../../BB/../../../../../../../../../../../../..][../../../../../../../../../../../../../../../../../../../../../../../../../../../../../../../..]
 	Process OMPI jobid: [49541,1] App: 0 Process rank: 3 Bound: socket 0[core 19[hwt 0-1]]:[../../../../../../../../../../../../../../../../../../../BB/../../../../../../../../../../../..][../../../../../../../../../../../../../../../../../../../../../../../../../../../../../../../..]
 	Process OMPI jobid: [49541,1] App: 0 Process rank: 4 Bound: socket 1[core 36[hwt 0-1]]:[../../../../../../../../../../../../../../../../../../../../../../../../../../../../../../../..][../../../../BB/../../../../../../../../../../../../../../../../../../../../../../../../../../..]
 	Process OMPI jobid: [49541,1] App: 0 Process rank: 5 Bound: socket 1[core 37[hwt 0-1]]:[../../../../../../../../../../../../../../../../../../../../../../../../../../../../../../../..][../../../../../BB/../../../../../../../../../../../../../../../../../../../../../../../../../..]
 	Process OMPI jobid: [49541,1] App: 0 Process rank: 6 Bound: socket 1[core 38[hwt 0-1]]:[../../../../../../../../../../../../../../../../../../../../../../../../../../../../../../../..][../../../../../../BB/../../../../../../../../../../../../../../../../../../../../../../../../..]
 	Process OMPI jobid: [49541,1] App: 0 Process rank: 7 Bound: socket 1[core 39[hwt 0-1]]:[../../../../../../../../../../../../../../../../../../../../../../../../../../../../../../../..][../../../../../../../BB/../../../../../../../../../../../../../../../../../../../../../../../..]

 =============================================================
1 2 0
1 3 3
1 0 2
3 0 2
3 1 1
3 2 0
Two group cota
0 1 3
0 2 2
0 3 1
4 5 7
4 6 6
4 7 5
5 6 4
5 7 7
5 4 6
6 7 5
6 4 4
6 5 7
7 4 6
7 5 5
7 6 4
2 3 1
2 0 0
2 1 3
dune-size 1 8.66398e-06 8.66728e-06 7.31148e-06 8.67738e-06 8.61528e-06 8.62408e-06 7.25088e-06 8.61118e-06 
dune-size 2 6.55879e-06 6.63319e-06 6.56339e-06 6.64009e-06 6.56119e-06 6.63659e-06 6.57099e-06 6.63899e-06 
dune-size 4 9.71838e-06 9.70718e-06 9.70868e-06 9.69868e-06 1.02026e-05 1.02101e-05 1.02018e-05 1.01941e-05 
dune-size 8 7.59659e-06 7.59999e-06 7.59599e-06 7.60639e-06 7.56989e-06 7.57709e-06 7.57839e-06 7.57889e-06 
dune-size 16 8.62378e-06 8.62358e-06 8.61968e-06 8.62728e-06 8.61858e-06 8.61558e-06 8.62678e-06 8.62468e-06 
dune-size 32 1.10222e-05 1.10323e-05 1.10293e-05 1.10415e-05 1.0926e-05 1.09225e-05 1.09397e-05 1.09341e-05 
dune-size 64 1.57699e-05 1.57896e-05 1.57783e-05 1.57893e-05 1.57908e-05 1.57737e-05 1.57857e-05 1.57883e-05 
dune-size 128 2.49879e-05 2.50095e-05 2.49949e-05 2.50301e-05 2.53823e-05 2.53573e-05 2.53616e-05 2.53647e-05 
dune-size 256 4.43562e-05 4.43611e-05 4.43829e-05 4.43793e-05 4.42267e-05 4.42032e-05 4.42647e-05 4.42055e-05 
dune-size 512 8.19453e-05 8.19352e-05 8.20551e-05 8.21111e-05 8.03115e-05 8.02277e-05 8.02232e-05 8.02532e-05 
dune-size 1024 0.000175369 0.000175349 0.000175584 0.000175789 0.000173864 0.000173429 0.00017342 0.000173657 
dune-size 2048 0.000322901 0.000322886 0.000323319 0.000323721 0.000325483 0.000324934 0.000324931 0.000325098 
dune-size 4096 0.000638158 0.000638996 0.000638139 0.000639799 0.000620688 0.000620431 0.000619599 0.000619601 
dune-size 8192 0.00120181 0.0012018 0.00120317 0.00120477 0.00120001 0.00119833 0.00119835 0.00120162 
dune-size 16384 0.00238156 0.0023815 0.0023814 0.00238204 0.00238346 0.00238148 0.00238266 0.00238149 
dune-size 32768 0.0048062 0.0048062 0.0048096 0.00480956 0.00481823 0.00481389 0.00481378 0.00481387 
dune-size 65536 0.00972379 0.00972249 0.00971336 0.00971413 0.00987389 0.00987269 0.00987367 0.00987158 
dune-size 131072 0.0195175 0.0195155 0.0195145 0.0195097 0.019616 0.0196144 0.019616 0.0196142 
