 Data for JOB [12056,1] offset 0 Total slots allocated 4

 ========================   JOB MAP   ========================

 Data for node: n003	Num slots: 4	Max slots: 0	Num procs: 4
 	Process OMPI jobid: [12056,1] App: 0 Process rank: 0 Bound: socket 0[core 17[hwt 0-1]]:[../../../../../../../../../../../../../../../../../BB/../../../../../../../../../../../../../..][../../../../../../../../../../../../../../../../../../../../../../../../../../../../../../../..]
 	Process OMPI jobid: [12056,1] App: 0 Process rank: 1 Bound: socket 0[core 27[hwt 0-1]]:[../../../../../../../../../../../../../../../../../../../../../../../../../../../BB/../../../..][../../../../../../../../../../../../../../../../../../../../../../../../../../../../../../../..]
 	Process OMPI jobid: [12056,1] App: 0 Process rank: 2 Bound: socket 0[core 28[hwt 0-1]]:[../../../../../../../../../../../../../../../../../../../../../../../../../../../../BB/../../..][../../../../../../../../../../../../../../../../../../../../../../../../../../../../../../../..]
 	Process OMPI jobid: [12056,1] App: 0 Process rank: 3 Bound: socket 0[core 18[hwt 0-1]]:[../../../../../../../../../../../../../../../../../../BB/../../../../../../../../../../../../..][../../../../../../../../../../../../../../../../../../../../../../../../../../../../../../../..]

 =============================================================
1 0 0
2 3 3
3 2 2
Two group cota
0 1 1
dune-size 1 4.28659e-06 4.29319e-06 4.37949e-06 4.38589e-06 
dune-size 2 4.10029e-06 4.11069e-06 4.16759e-06 4.17449e-06 
dune-size 4 4.25839e-06 4.26049e-06 4.28849e-06 4.28989e-06 
dune-size 8 4.55619e-06 4.55069e-06 4.58599e-06 4.58289e-06 
dune-size 16 4.83499e-06 4.83989e-06 4.89579e-06 4.89849e-06 
dune-size 32 5.60249e-06 5.60509e-06 5.75319e-06 5.75569e-06 
dune-size 64 8.27649e-06 8.27839e-06 8.41109e-06 8.40469e-06 
dune-size 128 1.05142e-05 1.05117e-05 1.06805e-05 1.068e-05 
dune-size 256 1.77489e-05 1.77518e-05 1.81079e-05 1.81027e-05 
dune-size 512 3.09272e-05 3.09057e-05 3.22065e-05 3.21992e-05 
dune-size 1024 8.55277e-05 8.55066e-05 8.71447e-05 8.71552e-05 
dune-size 2048 0.000164227 0.000164223 0.000165252 0.000165258 
dune-size 4096 0.000310382 0.00031038 0.000310236 0.00031022 
dune-size 8192 0.000558182 0.000558185 0.000569361 0.000569356 
dune-size 16384 0.000917431 0.000917438 0.000876252 0.000876237 
dune-size 32768 0.00163385 0.00163393 0.00163012 0.00163008 
dune-size 65536 0.00321247 0.00321195 0.00327611 0.00327591 
dune-size 131072 0.00639325 0.00639432 0.0064391 0.0064389 
