 Data for JOB [40333,1] offset 0 Total slots allocated 2

 ========================   JOB MAP   ========================

 Data for node: n004	Num slots: 2	Max slots: 0	Num procs: 2
 	Process OMPI jobid: [40333,1] App: 0 Process rank: 0 Bound: socket 0[core 0[hwt 0-1]]:[BB/../../../../../../../../../../../../../../../../../../../../../../../../../../../../../../..][../../../../../../../../../../../../../../../../../../../../../../../../../../../../../../../..]
 	Process OMPI jobid: [40333,1] App: 0 Process rank: 1 Bound: socket 0[core 1[hwt 0-1]]:[../BB/../../../../../../../../../../../../../../../../../../../../../../../../../../../../../..][../../../../../../../../../../../../../../../../../../../../../../../../../../../../../../../..]

 =============================================================
[1579598416.052563] [n004:105625:0]         mxm.c:196  MXM  WARN  The 'ulimit -s' on the system is set to 'unlimited'. This may have negative performance implications. Please set the stack size to the default value (10240) 
[1579598416.055643] [n004:105624:0]         mxm.c:196  MXM  WARN  The 'ulimit -s' on the system is set to 'unlimited'. This may have negative performance implications. Please set the stack size to the default value (10240) 
0: 1 

Rank 0 ghostCells: 798
Rank 1 ghostCells: 880

Rank 0 numCells: 25076
Rank 1 numCells: 21033

Rank 0 interiorCells: 24278
Rank 1 interiorCells: 20153

MeasComm+1 2: 5.918e-05 5.952e-05 
MeasComm+1 2: 6.098e-05 6.236e-05 
MeasComm+1 2: 6.034e-05 6.089e-05 
MeasComm+1 2: 5.952e-05 6.096e-05 
MeasComm+1 2: 5.854e-05 6.031e-05 
MeasComm+1 2: 5.9061e-05 5.9731e-05 
MeasComm+1 2: 5.951e-05 6.06e-05 
MeasComm+1 2: 6.102e-05 6.135e-05 
MeasComm+1 2: 6.141e-05 6.139e-05 
MeasComm+1 2: 5.9141e-05 6.0451e-05 

MeasCopy 2: 3.74e-05 4.124e-05 
MeasCopy 2: 3.737e-05 4.127e-05 
MeasCopy 2: 3.74e-05 4.119e-05 
MeasCopy 2: 3.739e-05 4.119e-05 
MeasCopy 2: 3.7421e-05 4.124e-05 
MeasCopy 2: 3.744e-05 4.124e-05 
MeasCopy 2: 3.7431e-05 4.126e-05 
MeasCopy 2: 3.738e-05 4.126e-05 
MeasCopy 2: 3.74e-05 4.126e-05 
MeasCopy 2: 3.743e-05 4.123e-05 

ComTab rank 0: 0 798 
ComTab rank 1: 880 0 

Edge-cut: 2074

Wgt-cut: 6.65007e-10

[1579598433.088207] [n004:105625:0]          mpool.c:38   UCX  WARN  object 0x155539500f60 was not returned to mpool mm_recv_desc
