 Data for JOB [55509,1] offset 0 Total slots allocated 64

 ========================   JOB MAP   ========================

 Data for node: n004	Num slots: 64	Max slots: 0	Num procs: 64
 	Process OMPI jobid: [55509,1] App: 0 Process rank: 0 Bound: socket 0[core 0[hwt 0-1]]:[BB/../../../../../../../../../../../../../../../../../../../../../../../../../../../../../../..][../../../../../../../../../../../../../../../../../../../../../../../../../../../../../../../..]
 	Process OMPI jobid: [55509,1] App: 0 Process rank: 1 Bound: socket 0[core 1[hwt 0-1]]:[../BB/../../../../../../../../../../../../../../../../../../../../../../../../../../../../../..][../../../../../../../../../../../../../../../../../../../../../../../../../../../../../../../..]
 	Process OMPI jobid: [55509,1] App: 0 Process rank: 2 Bound: socket 0[core 2[hwt 0-1]]:[../../BB/../../../../../../../../../../../../../../../../../../../../../../../../../../../../..][../../../../../../../../../../../../../../../../../../../../../../../../../../../../../../../..]
 	Process OMPI jobid: [55509,1] App: 0 Process rank: 3 Bound: socket 0[core 3[hwt 0-1]]:[../../../BB/../../../../../../../../../../../../../../../../../../../../../../../../../../../..][../../../../../../../../../../../../../../../../../../../../../../../../../../../../../../../..]
 	Process OMPI jobid: [55509,1] App: 0 Process rank: 4 Bound: socket 0[core 4[hwt 0-1]]:[../../../../BB/../../../../../../../../../../../../../../../../../../../../../../../../../../..][../../../../../../../../../../../../../../../../../../../../../../../../../../../../../../../..]
 	Process OMPI jobid: [55509,1] App: 0 Process rank: 5 Bound: socket 0[core 5[hwt 0-1]]:[../../../../../BB/../../../../../../../../../../../../../../../../../../../../../../../../../..][../../../../../../../../../../../../../../../../../../../../../../../../../../../../../../../..]
 	Process OMPI jobid: [55509,1] App: 0 Process rank: 6 Bound: socket 0[core 6[hwt 0-1]]:[../../../../../../BB/../../../../../../../../../../../../../../../../../../../../../../../../..][../../../../../../../../../../../../../../../../../../../../../../../../../../../../../../../..]
 	Process OMPI jobid: [55509,1] App: 0 Process rank: 7 Bound: socket 0[core 7[hwt 0-1]]:[../../../../../../../BB/../../../../../../../../../../../../../../../../../../../../../../../..][../../../../../../../../../../../../../../../../../../../../../../../../../../../../../../../..]
 	Process OMPI jobid: [55509,1] App: 0 Process rank: 8 Bound: socket 0[core 8[hwt 0-1]]:[../../../../../../../../BB/../../../../../../../../../../../../../../../../../../../../../../..][../../../../../../../../../../../../../../../../../../../../../../../../../../../../../../../..]
 	Process OMPI jobid: [55509,1] App: 0 Process rank: 9 Bound: socket 0[core 9[hwt 0-1]]:[../../../../../../../../../BB/../../../../../../../../../../../../../../../../../../../../../..][../../../../../../../../../../../../../../../../../../../../../../../../../../../../../../../..]
 	Process OMPI jobid: [55509,1] App: 0 Process rank: 10 Bound: socket 0[core 10[hwt 0-1]]:[../../../../../../../../../../BB/../../../../../../../../../../../../../../../../../../../../..][../../../../../../../../../../../../../../../../../../../../../../../../../../../../../../../..]
 	Process OMPI jobid: [55509,1] App: 0 Process rank: 11 Bound: socket 0[core 11[hwt 0-1]]:[../../../../../../../../../../../BB/../../../../../../../../../../../../../../../../../../../..][../../../../../../../../../../../../../../../../../../../../../../../../../../../../../../../..]
 	Process OMPI jobid: [55509,1] App: 0 Process rank: 12 Bound: socket 0[core 12[hwt 0-1]]:[../../../../../../../../../../../../BB/../../../../../../../../../../../../../../../../../../..][../../../../../../../../../../../../../../../../../../../../../../../../../../../../../../../..]
 	Process OMPI jobid: [55509,1] App: 0 Process rank: 13 Bound: socket 0[core 13[hwt 0-1]]:[../../../../../../../../../../../../../BB/../../../../../../../../../../../../../../../../../..][../../../../../../../../../../../../../../../../../../../../../../../../../../../../../../../..]
 	Process OMPI jobid: [55509,1] App: 0 Process rank: 14 Bound: socket 0[core 14[hwt 0-1]]:[../../../../../../../../../../../../../../BB/../../../../../../../../../../../../../../../../..][../../../../../../../../../../../../../../../../../../../../../../../../../../../../../../../..]
 	Process OMPI jobid: [55509,1] App: 0 Process rank: 15 Bound: socket 0[core 15[hwt 0-1]]:[../../../../../../../../../../../../../../../BB/../../../../../../../../../../../../../../../..][../../../../../../../../../../../../../../../../../../../../../../../../../../../../../../../..]
 	Process OMPI jobid: [55509,1] App: 0 Process rank: 16 Bound: socket 0[core 16[hwt 0-1]]:[../../../../../../../../../../../../../../../../BB/../../../../../../../../../../../../../../..][../../../../../../../../../../../../../../../../../../../../../../../../../../../../../../../..]
 	Process OMPI jobid: [55509,1] App: 0 Process rank: 17 Bound: socket 0[core 17[hwt 0-1]]:[../../../../../../../../../../../../../../../../../BB/../../../../../../../../../../../../../..][../../../../../../../../../../../../../../../../../../../../../../../../../../../../../../../..]
 	Process OMPI jobid: [55509,1] App: 0 Process rank: 18 Bound: socket 0[core 18[hwt 0-1]]:[../../../../../../../../../../../../../../../../../../BB/../../../../../../../../../../../../..][../../../../../../../../../../../../../../../../../../../../../../../../../../../../../../../..]
 	Process OMPI jobid: [55509,1] App: 0 Process rank: 19 Bound: socket 0[core 19[hwt 0-1]]:[../../../../../../../../../../../../../../../../../../../BB/../../../../../../../../../../../..][../../../../../../../../../../../../../../../../../../../../../../../../../../../../../../../..]
 	Process OMPI jobid: [55509,1] App: 0 Process rank: 20 Bound: socket 0[core 20[hwt 0-1]]:[../../../../../../../../../../../../../../../../../../../../BB/../../../../../../../../../../..][../../../../../../../../../../../../../../../../../../../../../../../../../../../../../../../..]
 	Process OMPI jobid: [55509,1] App: 0 Process rank: 21 Bound: socket 0[core 21[hwt 0-1]]:[../../../../../../../../../../../../../../../../../../../../../BB/../../../../../../../../../..][../../../../../../../../../../../../../../../../../../../../../../../../../../../../../../../..]
 	Process OMPI jobid: [55509,1] App: 0 Process rank: 22 Bound: socket 0[core 22[hwt 0-1]]:[../../../../../../../../../../../../../../../../../../../../../../BB/../../../../../../../../..][../../../../../../../../../../../../../../../../../../../../../../../../../../../../../../../..]
 	Process OMPI jobid: [55509,1] App: 0 Process rank: 23 Bound: socket 0[core 23[hwt 0-1]]:[../../../../../../../../../../../../../../../../../../../../../../../BB/../../../../../../../..][../../../../../../../../../../../../../../../../../../../../../../../../../../../../../../../..]
 	Process OMPI jobid: [55509,1] App: 0 Process rank: 24 Bound: socket 0[core 24[hwt 0-1]]:[../../../../../../../../../../../../../../../../../../../../../../../../BB/../../../../../../..][../../../../../../../../../../../../../../../../../../../../../../../../../../../../../../../..]
 	Process OMPI jobid: [55509,1] App: 0 Process rank: 25 Bound: socket 0[core 25[hwt 0-1]]:[../../../../../../../../../../../../../../../../../../../../../../../../../BB/../../../../../..][../../../../../../../../../../../../../../../../../../../../../../../../../../../../../../../..]
 	Process OMPI jobid: [55509,1] App: 0 Process rank: 26 Bound: socket 0[core 26[hwt 0-1]]:[../../../../../../../../../../../../../../../../../../../../../../../../../../BB/../../../../..][../../../../../../../../../../../../../../../../../../../../../../../../../../../../../../../..]
 	Process OMPI jobid: [55509,1] App: 0 Process rank: 27 Bound: socket 0[core 27[hwt 0-1]]:[../../../../../../../../../../../../../../../../../../../../../../../../../../../BB/../../../..][../../../../../../../../../../../../../../../../../../../../../../../../../../../../../../../..]
 	Process OMPI jobid: [55509,1] App: 0 Process rank: 28 Bound: socket 0[core 28[hwt 0-1]]:[../../../../../../../../../../../../../../../../../../../../../../../../../../../../BB/../../..][../../../../../../../../../../../../../../../../../../../../../../../../../../../../../../../..]
 	Process OMPI jobid: [55509,1] App: 0 Process rank: 29 Bound: socket 0[core 29[hwt 0-1]]:[../../../../../../../../../../../../../../../../../../../../../../../../../../../../../BB/../..][../../../../../../../../../../../../../../../../../../../../../../../../../../../../../../../..]
 	Process OMPI jobid: [55509,1] App: 0 Process rank: 30 Bound: socket 0[core 30[hwt 0-1]]:[../../../../../../../../../../../../../../../../../../../../../../../../../../../../../../BB/..][../../../../../../../../../../../../../../../../../../../../../../../../../../../../../../../..]
 	Process OMPI jobid: [55509,1] App: 0 Process rank: 31 Bound: socket 0[core 31[hwt 0-1]]:[../../../../../../../../../../../../../../../../../../../../../../../../../../../../../../../BB][../../../../../../../../../../../../../../../../../../../../../../../../../../../../../../../..]
 	Process OMPI jobid: [55509,1] App: 0 Process rank: 32 Bound: socket 1[core 32[hwt 0-1]]:[../../../../../../../../../../../../../../../../../../../../../../../../../../../../../../../..][BB/../../../../../../../../../../../../../../../../../../../../../../../../../../../../../../..]
 	Process OMPI jobid: [55509,1] App: 0 Process rank: 33 Bound: socket 1[core 33[hwt 0-1]]:[../../../../../../../../../../../../../../../../../../../../../../../../../../../../../../../..][../BB/../../../../../../../../../../../../../../../../../../../../../../../../../../../../../..]
 	Process OMPI jobid: [55509,1] App: 0 Process rank: 34 Bound: socket 1[core 34[hwt 0-1]]:[../../../../../../../../../../../../../../../../../../../../../../../../../../../../../../../..][../../BB/../../../../../../../../../../../../../../../../../../../../../../../../../../../../..]
 	Process OMPI jobid: [55509,1] App: 0 Process rank: 35 Bound: socket 1[core 35[hwt 0-1]]:[../../../../../../../../../../../../../../../../../../../../../../../../../../../../../../../..][../../../BB/../../../../../../../../../../../../../../../../../../../../../../../../../../../..]
 	Process OMPI jobid: [55509,1] App: 0 Process rank: 36 Bound: socket 1[core 36[hwt 0-1]]:[../../../../../../../../../../../../../../../../../../../../../../../../../../../../../../../..][../../../../BB/../../../../../../../../../../../../../../../../../../../../../../../../../../..]
 	Process OMPI jobid: [55509,1] App: 0 Process rank: 37 Bound: socket 1[core 37[hwt 0-1]]:[../../../../../../../../../../../../../../../../../../../../../../../../../../../../../../../..][../../../../../BB/../../../../../../../../../../../../../../../../../../../../../../../../../..]
 	Process OMPI jobid: [55509,1] App: 0 Process rank: 38 Bound: socket 1[core 38[hwt 0-1]]:[../../../../../../../../../../../../../../../../../../../../../../../../../../../../../../../..][../../../../../../BB/../../../../../../../../../../../../../../../../../../../../../../../../..]
 	Process OMPI jobid: [55509,1] App: 0 Process rank: 39 Bound: socket 1[core 39[hwt 0-1]]:[../../../../../../../../../../../../../../../../../../../../../../../../../../../../../../../..][../../../../../../../BB/../../../../../../../../../../../../../../../../../../../../../../../..]
 	Process OMPI jobid: [55509,1] App: 0 Process rank: 40 Bound: socket 1[core 40[hwt 0-1]]:[../../../../../../../../../../../../../../../../../../../../../../../../../../../../../../../..][../../../../../../../../BB/../../../../../../../../../../../../../../../../../../../../../../..]
 	Process OMPI jobid: [55509,1] App: 0 Process rank: 41 Bound: socket 1[core 41[hwt 0-1]]:[../../../../../../../../../../../../../../../../../../../../../../../../../../../../../../../..][../../../../../../../../../BB/../../../../../../../../../../../../../../../../../../../../../..]
 	Process OMPI jobid: [55509,1] App: 0 Process rank: 42 Bound: socket 1[core 42[hwt 0-1]]:[../../../../../../../../../../../../../../../../../../../../../../../../../../../../../../../..][../../../../../../../../../../BB/../../../../../../../../../../../../../../../../../../../../..]
 	Process OMPI jobid: [55509,1] App: 0 Process rank: 43 Bound: socket 1[core 43[hwt 0-1]]:[../../../../../../../../../../../../../../../../../../../../../../../../../../../../../../../..][../../../../../../../../../../../BB/../../../../../../../../../../../../../../../../../../../..]
 	Process OMPI jobid: [55509,1] App: 0 Process rank: 44 Bound: socket 1[core 44[hwt 0-1]]:[../../../../../../../../../../../../../../../../../../../../../../../../../../../../../../../..][../../../../../../../../../../../../BB/../../../../../../../../../../../../../../../../../../..]
 	Process OMPI jobid: [55509,1] App: 0 Process rank: 45 Bound: socket 1[core 45[hwt 0-1]]:[../../../../../../../../../../../../../../../../../../../../../../../../../../../../../../../..][../../../../../../../../../../../../../BB/../../../../../../../../../../../../../../../../../..]
 	Process OMPI jobid: [55509,1] App: 0 Process rank: 46 Bound: socket 1[core 46[hwt 0-1]]:[../../../../../../../../../../../../../../../../../../../../../../../../../../../../../../../..][../../../../../../../../../../../../../../BB/../../../../../../../../../../../../../../../../..]
 	Process OMPI jobid: [55509,1] App: 0 Process rank: 47 Bound: socket 1[core 47[hwt 0-1]]:[../../../../../../../../../../../../../../../../../../../../../../../../../../../../../../../..][../../../../../../../../../../../../../../../BB/../../../../../../../../../../../../../../../..]
 	Process OMPI jobid: [55509,1] App: 0 Process rank: 48 Bound: socket 1[core 48[hwt 0-1]]:[../../../../../../../../../../../../../../../../../../../../../../../../../../../../../../../..][../../../../../../../../../../../../../../../../BB/../../../../../../../../../../../../../../..]
 	Process OMPI jobid: [55509,1] App: 0 Process rank: 49 Bound: socket 1[core 49[hwt 0-1]]:[../../../../../../../../../../../../../../../../../../../../../../../../../../../../../../../..][../../../../../../../../../../../../../../../../../BB/../../../../../../../../../../../../../..]
 	Process OMPI jobid: [55509,1] App: 0 Process rank: 50 Bound: socket 1[core 50[hwt 0-1]]:[../../../../../../../../../../../../../../../../../../../../../../../../../../../../../../../..][../../../../../../../../../../../../../../../../../../BB/../../../../../../../../../../../../..]
 	Process OMPI jobid: [55509,1] App: 0 Process rank: 51 Bound: socket 1[core 51[hwt 0-1]]:[../../../../../../../../../../../../../../../../../../../../../../../../../../../../../../../..][../../../../../../../../../../../../../../../../../../../BB/../../../../../../../../../../../..]
 	Process OMPI jobid: [55509,1] App: 0 Process rank: 52 Bound: socket 1[core 52[hwt 0-1]]:[../../../../../../../../../../../../../../../../../../../../../../../../../../../../../../../..][../../../../../../../../../../../../../../../../../../../../BB/../../../../../../../../../../..]
 	Process OMPI jobid: [55509,1] App: 0 Process rank: 53 Bound: socket 1[core 53[hwt 0-1]]:[../../../../../../../../../../../../../../../../../../../../../../../../../../../../../../../..][../../../../../../../../../../../../../../../../../../../../../BB/../../../../../../../../../..]
 	Process OMPI jobid: [55509,1] App: 0 Process rank: 54 Bound: socket 1[core 54[hwt 0-1]]:[../../../../../../../../../../../../../../../../../../../../../../../../../../../../../../../..][../../../../../../../../../../../../../../../../../../../../../../BB/../../../../../../../../..]
 	Process OMPI jobid: [55509,1] App: 0 Process rank: 55 Bound: socket 1[core 55[hwt 0-1]]:[../../../../../../../../../../../../../../../../../../../../../../../../../../../../../../../..][../../../../../../../../../../../../../../../../../../../../../../../BB/../../../../../../../..]
 	Process OMPI jobid: [55509,1] App: 0 Process rank: 56 Bound: socket 1[core 56[hwt 0-1]]:[../../../../../../../../../../../../../../../../../../../../../../../../../../../../../../../..][../../../../../../../../../../../../../../../../../../../../../../../../BB/../../../../../../..]
 	Process OMPI jobid: [55509,1] App: 0 Process rank: 57 Bound: socket 1[core 57[hwt 0-1]]:[../../../../../../../../../../../../../../../../../../../../../../../../../../../../../../../..][../../../../../../../../../../../../../../../../../../../../../../../../../BB/../../../../../..]
 	Process OMPI jobid: [55509,1] App: 0 Process rank: 58 Bound: socket 1[core 58[hwt 0-1]]:[../../../../../../../../../../../../../../../../../../../../../../../../../../../../../../../..][../../../../../../../../../../../../../../../../../../../../../../../../../../BB/../../../../..]
 	Process OMPI jobid: [55509,1] App: 0 Process rank: 59 Bound: socket 1[core 59[hwt 0-1]]:[../../../../../../../../../../../../../../../../../../../../../../../../../../../../../../../..][../../../../../../../../../../../../../../../../../../../../../../../../../../../BB/../../../..]
 	Process OMPI jobid: [55509,1] App: 0 Process rank: 60 Bound: socket 1[core 60[hwt 0-1]]:[../../../../../../../../../../../../../../../../../../../../../../../../../../../../../../../..][../../../../../../../../../../../../../../../../../../../../../../../../../../../../BB/../../..]
 	Process OMPI jobid: [55509,1] App: 0 Process rank: 61 Bound: socket 1[core 61[hwt 0-1]]:[../../../../../../../../../../../../../../../../../../../../../../../../../../../../../../../..][../../../../../../../../../../../../../../../../../../../../../../../../../../../../../BB/../..]
 	Process OMPI jobid: [55509,1] App: 0 Process rank: 62 Bound: socket 1[core 62[hwt 0-1]]:[../../../../../../../../../../../../../../../../../../../../../../../../../../../../../../../..][../../../../../../../../../../../../../../../../../../../../../../../../../../../../../../BB/..]
 	Process OMPI jobid: [55509,1] App: 0 Process rank: 63 Bound: socket 1[core 63[hwt 0-1]]:[../../../../../../../../../../../../../../../../../../../../../../../../../../../../../../../..][../../../../../../../../../../../../../../../../../../../../../../../../../../../../../../../BB]

 =============================================================
[1579248591.625563] [n004:55794:0]         mxm.c:196  MXM  WARN  The 'ulimit -s' on the system is set to 'unlimited'. This may have negative performance implications. Please set the stack size to the default value (10240) 
[1579248591.625960] [n004:55791:0]         mxm.c:196  MXM  WARN  The 'ulimit -s' on the system is set to 'unlimited'. This may have negative performance implications. Please set the stack size to the default value (10240) 
[1579248591.626614] [n004:55804:0]         mxm.c:196  MXM  WARN  The 'ulimit -s' on the system is set to 'unlimited'. This may have negative performance implications. Please set the stack size to the default value (10240) 
[1579248591.626613] [n004:55803:0]         mxm.c:196  MXM  WARN  The 'ulimit -s' on the system is set to 'unlimited'. This may have negative performance implications. Please set the stack size to the default value (10240) 
[1579248591.627225] [n004:55805:0]         mxm.c:196  MXM  WARN  The 'ulimit -s' on the system is set to 'unlimited'. This may have negative performance implications. Please set the stack size to the default value (10240) 
[1579248591.628285] [n004:55792:0]         mxm.c:196  MXM  WARN  The 'ulimit -s' on the system is set to 'unlimited'. This may have negative performance implications. Please set the stack size to the default value (10240) 
[1579248591.629250] [n004:55798:0]         mxm.c:196  MXM  WARN  The 'ulimit -s' on the system is set to 'unlimited'. This may have negative performance implications. Please set the stack size to the default value (10240) 
[1579248591.630170] [n004:55823:0]         mxm.c:196  MXM  WARN  The 'ulimit -s' on the system is set to 'unlimited'. This may have negative performance implications. Please set the stack size to the default value (10240) 
[1579248591.630484] [n004:55820:0]         mxm.c:196  MXM  WARN  The 'ulimit -s' on the system is set to 'unlimited'. This may have negative performance implications. Please set the stack size to the default value (10240) 
[1579248591.638027] [n004:55843:0]         mxm.c:196  MXM  WARN  The 'ulimit -s' on the system is set to 'unlimited'. This may have negative performance implications. Please set the stack size to the default value (10240) 
[1579248591.640207] [n004:55796:0]         mxm.c:196  MXM  WARN  The 'ulimit -s' on the system is set to 'unlimited'. This may have negative performance implications. Please set the stack size to the default value (10240) 
[1579248591.640478] [n004:55813:0]         mxm.c:196  MXM  WARN  The 'ulimit -s' on the system is set to 'unlimited'. This may have negative performance implications. Please set the stack size to the default value (10240) 
[1579248591.647680] [n004:55842:0]         mxm.c:196  MXM  WARN  The 'ulimit -s' on the system is set to 'unlimited'. This may have negative performance implications. Please set the stack size to the default value (10240) 
[1579248591.648073] [n004:55797:0]         mxm.c:196  MXM  WARN  The 'ulimit -s' on the system is set to 'unlimited'. This may have negative performance implications. Please set the stack size to the default value (10240) 
[1579248591.648470] [n004:55832:0]         mxm.c:196  MXM  WARN  The 'ulimit -s' on the system is set to 'unlimited'. This may have negative performance implications. Please set the stack size to the default value (10240) 
[1579248591.650356] [n004:55834:0]         mxm.c:196  MXM  WARN  The 'ulimit -s' on the system is set to 'unlimited'. This may have negative performance implications. Please set the stack size to the default value (10240) 
[1579248591.652141] [n004:55851:0]         mxm.c:196  MXM  WARN  The 'ulimit -s' on the system is set to 'unlimited'. This may have negative performance implications. Please set the stack size to the default value (10240) 
[1579248591.652452] [n004:55850:0]         mxm.c:196  MXM  WARN  The 'ulimit -s' on the system is set to 'unlimited'. This may have negative performance implications. Please set the stack size to the default value (10240) 
[1579248591.659307] [n004:55835:0]         mxm.c:196  MXM  WARN  The 'ulimit -s' on the system is set to 'unlimited'. This may have negative performance implications. Please set the stack size to the default value (10240) 
[1579248591.659301] [n004:55845:0]         mxm.c:196  MXM  WARN  The 'ulimit -s' on the system is set to 'unlimited'. This may have negative performance implications. Please set the stack size to the default value (10240) 
[1579248591.659347] [n004:55815:0]         mxm.c:196  MXM  WARN  The 'ulimit -s' on the system is set to 'unlimited'. This may have negative performance implications. Please set the stack size to the default value (10240) 
[1579248591.659332] [n004:55818:0]         mxm.c:196  MXM  WARN  The 'ulimit -s' on the system is set to 'unlimited'. This may have negative performance implications. Please set the stack size to the default value (10240) 
[1579248591.659390] [n004:55801:0]         mxm.c:196  MXM  WARN  The 'ulimit -s' on the system is set to 'unlimited'. This may have negative performance implications. Please set the stack size to the default value (10240) 
[1579248591.660082] [n004:55799:0]         mxm.c:196  MXM  WARN  The 'ulimit -s' on the system is set to 'unlimited'. This may have negative performance implications. Please set the stack size to the default value (10240) 
[1579248591.660098] [n004:55844:0]         mxm.c:196  MXM  WARN  The 'ulimit -s' on the system is set to 'unlimited'. This may have negative performance implications. Please set the stack size to the default value (10240) 
[1579248591.662154] [n004:55825:0]         mxm.c:196  MXM  WARN  The 'ulimit -s' on the system is set to 'unlimited'. This may have negative performance implications. Please set the stack size to the default value (10240) 
[1579248591.664903] [n004:55787:0]         mxm.c:196  MXM  WARN  The 'ulimit -s' on the system is set to 'unlimited'. This may have negative performance implications. Please set the stack size to the default value (10240) 
[1579248591.666736] [n004:55795:0]         mxm.c:196  MXM  WARN  The 'ulimit -s' on the system is set to 'unlimited'. This may have negative performance implications. Please set the stack size to the default value (10240) 
[1579248591.669662] [n004:55788:0]         mxm.c:196  MXM  WARN  The 'ulimit -s' on the system is set to 'unlimited'. This may have negative performance implications. Please set the stack size to the default value (10240) 
[1579248591.677922] [n004:55812:0]         mxm.c:196  MXM  WARN  The 'ulimit -s' on the system is set to 'unlimited'. This may have negative performance implications. Please set the stack size to the default value (10240) 
[1579248591.678352] [n004:55819:0]         mxm.c:196  MXM  WARN  The 'ulimit -s' on the system is set to 'unlimited'. This may have negative performance implications. Please set the stack size to the default value (10240) 
[1579248591.679807] [n004:55809:0]         mxm.c:196  MXM  WARN  The 'ulimit -s' on the system is set to 'unlimited'. This may have negative performance implications. Please set the stack size to the default value (10240) 
[1579248591.683787] [n004:55808:0]         mxm.c:196  MXM  WARN  The 'ulimit -s' on the system is set to 'unlimited'. This may have negative performance implications. Please set the stack size to the default value (10240) 
[1579248591.683843] [n004:55789:0]         mxm.c:196  MXM  WARN  The 'ulimit -s' on the system is set to 'unlimited'. This may have negative performance implications. Please set the stack size to the default value (10240) 
[1579248591.684329] [n004:55836:0]         mxm.c:196  MXM  WARN  The 'ulimit -s' on the system is set to 'unlimited'. This may have negative performance implications. Please set the stack size to the default value (10240) 
[1579248591.686400] [n004:55816:0]         mxm.c:196  MXM  WARN  The 'ulimit -s' on the system is set to 'unlimited'. This may have negative performance implications. Please set the stack size to the default value (10240) 
[1579248591.686959] [n004:55811:0]         mxm.c:196  MXM  WARN  The 'ulimit -s' on the system is set to 'unlimited'. This may have negative performance implications. Please set the stack size to the default value (10240) 
[1579248591.692759] [n004:55810:0]         mxm.c:196  MXM  WARN  The 'ulimit -s' on the system is set to 'unlimited'. This may have negative performance implications. Please set the stack size to the default value (10240) 
[1579248591.694920] [n004:55802:0]         mxm.c:196  MXM  WARN  The 'ulimit -s' on the system is set to 'unlimited'. This may have negative performance implications. Please set the stack size to the default value (10240) 
[1579248591.695439] [n004:55817:0]         mxm.c:196  MXM  WARN  The 'ulimit -s' on the system is set to 'unlimited'. This may have negative performance implications. Please set the stack size to the default value (10240) 
[1579248591.697401] [n004:55828:0]         mxm.c:196  MXM  WARN  The 'ulimit -s' on the system is set to 'unlimited'. This may have negative performance implications. Please set the stack size to the default value (10240) 
[1579248591.699632] [n004:55800:0]         mxm.c:196  MXM  WARN  The 'ulimit -s' on the system is set to 'unlimited'. This may have negative performance implications. Please set the stack size to the default value (10240) 
[1579248591.699653] [n004:55826:0]         mxm.c:196  MXM  WARN  The 'ulimit -s' on the system is set to 'unlimited'. This may have negative performance implications. Please set the stack size to the default value (10240) 
[1579248591.699722] [n004:55847:0]         mxm.c:196  MXM  WARN  The 'ulimit -s' on the system is set to 'unlimited'. This may have negative performance implications. Please set the stack size to the default value (10240) 
[1579248591.700210] [n004:55827:0]         mxm.c:196  MXM  WARN  The 'ulimit -s' on the system is set to 'unlimited'. This may have negative performance implications. Please set the stack size to the default value (10240) 
[1579248591.700171] [n004:55829:0]         mxm.c:196  MXM  WARN  The 'ulimit -s' on the system is set to 'unlimited'. This may have negative performance implications. Please set the stack size to the default value (10240) 
[1579248591.700283] [n004:55833:0]         mxm.c:196  MXM  WARN  The 'ulimit -s' on the system is set to 'unlimited'. This may have negative performance implications. Please set the stack size to the default value (10240) 
[1579248591.700143] [n004:55846:0]         mxm.c:196  MXM  WARN  The 'ulimit -s' on the system is set to 'unlimited'. This may have negative performance implications. Please set the stack size to the default value (10240) 
[1579248591.700763] [n004:55793:0]         mxm.c:196  MXM  WARN  The 'ulimit -s' on the system is set to 'unlimited'. This may have negative performance implications. Please set the stack size to the default value (10240) 
[1579248591.701073] [n004:55837:0]         mxm.c:196  MXM  WARN  The 'ulimit -s' on the system is set to 'unlimited'. This may have negative performance implications. Please set the stack size to the default value (10240) 
[1579248591.701483] [n004:55839:0]         mxm.c:196  MXM  WARN  The 'ulimit -s' on the system is set to 'unlimited'. This may have negative performance implications. Please set the stack size to the default value (10240) 
[1579248591.701560] [n004:55786:0]         mxm.c:196  MXM  WARN  The 'ulimit -s' on the system is set to 'unlimited'. This may have negative performance implications. Please set the stack size to the default value (10240) 
[1579248591.702530] [n004:55849:0]         mxm.c:196  MXM  WARN  The 'ulimit -s' on the system is set to 'unlimited'. This may have negative performance implications. Please set the stack size to the default value (10240) 
[1579248591.702652] [n004:55821:0]         mxm.c:196  MXM  WARN  The 'ulimit -s' on the system is set to 'unlimited'. This may have negative performance implications. Please set the stack size to the default value (10240) 
[1579248591.702780] [n004:55840:0]         mxm.c:196  MXM  WARN  The 'ulimit -s' on the system is set to 'unlimited'. This may have negative performance implications. Please set the stack size to the default value (10240) 
[1579248591.702840] [n004:55841:0]         mxm.c:196  MXM  WARN  The 'ulimit -s' on the system is set to 'unlimited'. This may have negative performance implications. Please set the stack size to the default value (10240) 
[1579248591.703175] [n004:55806:0]         mxm.c:196  MXM  WARN  The 'ulimit -s' on the system is set to 'unlimited'. This may have negative performance implications. Please set the stack size to the default value (10240) 
[1579248591.703259] [n004:55848:0]         mxm.c:196  MXM  WARN  The 'ulimit -s' on the system is set to 'unlimited'. This may have negative performance implications. Please set the stack size to the default value (10240) 
[1579248591.703312] [n004:55822:0]         mxm.c:196  MXM  WARN  The 'ulimit -s' on the system is set to 'unlimited'. This may have negative performance implications. Please set the stack size to the default value (10240) 
[1579248591.703931] [n004:55824:0]         mxm.c:196  MXM  WARN  The 'ulimit -s' on the system is set to 'unlimited'. This may have negative performance implications. Please set the stack size to the default value (10240) 
[1579248591.704519] [n004:55838:0]         mxm.c:196  MXM  WARN  The 'ulimit -s' on the system is set to 'unlimited'. This may have negative performance implications. Please set the stack size to the default value (10240) 
[1579248591.705132] [n004:55814:0]         mxm.c:196  MXM  WARN  The 'ulimit -s' on the system is set to 'unlimited'. This may have negative performance implications. Please set the stack size to the default value (10240) 
[1579248591.705684] [n004:55830:0]         mxm.c:196  MXM  WARN  The 'ulimit -s' on the system is set to 'unlimited'. This may have negative performance implications. Please set the stack size to the default value (10240) 
[1579248591.705843] [n004:55831:0]         mxm.c:196  MXM  WARN  The 'ulimit -s' on the system is set to 'unlimited'. This may have negative performance implications. Please set the stack size to the default value (10240) 
0: 12 
Edge Weight Method: 12
Cell on rank 0: 647
Cell on rank 1: 763
Cell on rank 2: 649
Cell on rank 3: 635
Cell on rank 4: 763
Cell on rank 5: 658
Cell on rank 6: 700
Cell on rank 7: 631
Cell on rank 8: 644
Cell on rank 9: 718
Cell on rank 10: 631
Cell on rank 11: 763
Cell on rank 12: 744
Cell on rank 13: 685
Cell on rank 14: 682
Cell on rank 15: 677
Cell on rank 16: 705
Cell on rank 17: 756
Cell on rank 18: 730
Cell on rank 19: 709
Cell on rank 20: 747
Cell on rank 21: 632
Cell on rank 22: 642
Cell on rank 23: 752
Cell on rank 24: 783
Cell on rank 25: 760
Cell on rank 26: 637
Cell on rank 27: 758
Cell on rank 28: 632
Cell on rank 29: 631
Cell on rank 30: 653
Cell on rank 31: 658
Cell on rank 32: 763
Cell on rank 33: 762
Cell on rank 34: 655
Cell on rank 35: 677
Cell on rank 36: 726
Cell on rank 37: 631
Cell on rank 38: 746
Cell on rank 39: 667
Cell on rank 40: 709
Cell on rank 41: 631
Cell on rank 42: 695
Cell on rank 43: 755
Cell on rank 44: 631
Cell on rank 45: 744
Cell on rank 46: 762
Cell on rank 47: 732
Cell on rank 48: 763
Cell on rank 49: 631
Cell on rank 50: 631
Cell on rank 51: 758
Cell on rank 52: 651
Cell on rank 53: 763
Cell on rank 54: 748
Cell on rank 55: 642
Cell on rank 56: 631
Cell on rank 57: 657
Cell on rank 58: 717
Cell on rank 59: 701
Cell on rank 60: 634
Cell on rank 61: 650
Cell on rank 62: 630
Cell on rank 63: 763
Edge-cut: 17397715

Rank 0 ghostCells: 164
Rank 1 ghostCells: 425
Rank 2 ghostCells: 288
Rank 3 ghostCells: 285
Rank 4 ghostCells: 479
Rank 5 ghostCells: 406
Rank 6 ghostCells: 367
Rank 7 ghostCells: 396
Rank 8 ghostCells: 119
Rank 9 ghostCells: 168
Rank 10 ghostCells: 254
Rank 11 ghostCells: 236
Rank 12 ghostCells: 269
Rank 13 ghostCells: 325
Rank 14 ghostCells: 256
Rank 15 ghostCells: 327
Rank 16 ghostCells: 395
Rank 17 ghostCells: 385
Rank 18 ghostCells: 294
Rank 19 ghostCells: 230
Rank 20 ghostCells: 294
Rank 21 ghostCells: 209
Rank 22 ghostCells: 127
Rank 23 ghostCells: 207
Rank 24 ghostCells: 420
Rank 25 ghostCells: 287
Rank 26 ghostCells: 457
Rank 27 ghostCells: 487
Rank 28 ghostCells: 336
Rank 29 ghostCells: 489
Rank 30 ghostCells: 339
Rank 31 ghostCells: 446
Rank 32 ghostCells: 508
Rank 33 ghostCells: 356
Rank 34 ghostCells: 329
Rank 35 ghostCells: 409
Rank 36 ghostCells: 490
Rank 37 ghostCells: 344
Rank 38 ghostCells: 372
Rank 39 ghostCells: 437
Rank 40 ghostCells: 332
Rank 41 ghostCells: 314
Rank 42 ghostCells: 455
Rank 43 ghostCells: 413
Rank 44 ghostCells: 206
Rank 45 ghostCells: 264
Rank 46 ghostCells: 312
Rank 47 ghostCells: 283
Rank 48 ghostCells: 510
Rank 49 ghostCells: 551
Rank 50 ghostCells: 394
Rank 51 ghostCells: 367
Rank 52 ghostCells: 547
Rank 53 ghostCells: 692
Rank 54 ghostCells: 459
Rank 55 ghostCells: 358
Rank 56 ghostCells: 513
Rank 57 ghostCells: 444
Rank 58 ghostCells: 416
Rank 59 ghostCells: 501
Rank 60 ghostCells: 301
Rank 61 ghostCells: 191
Rank 62 ghostCells: 382
Rank 63 ghostCells: 311

Rank 0 numCells: 811
Rank 1 numCells: 1188
Rank 2 numCells: 937
Rank 3 numCells: 920
Rank 4 numCells: 1242
Rank 5 numCells: 1064
Rank 6 numCells: 1067
Rank 7 numCells: 1027
Rank 8 numCells: 763
Rank 9 numCells: 886
Rank 10 numCells: 885
Rank 11 numCells: 999
Rank 12 numCells: 1013
Rank 13 numCells: 1010
Rank 14 numCells: 938
Rank 15 numCells: 1004
Rank 16 numCells: 1100
Rank 17 numCells: 1141
Rank 18 numCells: 1024
Rank 19 numCells: 939
Rank 20 numCells: 1041
Rank 21 numCells: 841
Rank 22 numCells: 769
Rank 23 numCells: 959
Rank 24 numCells: 1203
Rank 25 numCells: 1047
Rank 26 numCells: 1094
Rank 27 numCells: 1245
Rank 28 numCells: 968
Rank 29 numCells: 1120
Rank 30 numCells: 992
Rank 31 numCells: 1104
Rank 32 numCells: 1271
Rank 33 numCells: 1118
Rank 34 numCells: 984
Rank 35 numCells: 1086
Rank 36 numCells: 1216
Rank 37 numCells: 975
Rank 38 numCells: 1118
Rank 39 numCells: 1104
Rank 40 numCells: 1041
Rank 41 numCells: 945
Rank 42 numCells: 1150
Rank 43 numCells: 1168
Rank 44 numCells: 837
Rank 45 numCells: 1008
Rank 46 numCells: 1074
Rank 47 numCells: 1015
Rank 48 numCells: 1273
Rank 49 numCells: 1182
Rank 50 numCells: 1025
Rank 51 numCells: 1125
Rank 52 numCells: 1198
Rank 53 numCells: 1455
Rank 54 numCells: 1207
Rank 55 numCells: 1000
Rank 56 numCells: 1144
Rank 57 numCells: 1101
Rank 58 numCells: 1133
Rank 59 numCells: 1202
Rank 60 numCells: 935
Rank 61 numCells: 841
Rank 62 numCells: 1012
Rank 63 numCells: 1074

Rank 0 interiorCells: 647
Rank 1 interiorCells: 763
Rank 2 interiorCells: 649
Rank 3 interiorCells: 635
Rank 4 interiorCells: 763
Rank 5 interiorCells: 658
Rank 6 interiorCells: 700
Rank 7 interiorCells: 631
Rank 8 interiorCells: 644
Rank 9 interiorCells: 718
Rank 10 interiorCells: 631
Rank 11 interiorCells: 763
Rank 12 interiorCells: 744
Rank 13 interiorCells: 685
Rank 14 interiorCells: 682
Rank 15 interiorCells: 677
Rank 16 interiorCells: 705
Rank 17 interiorCells: 756
Rank 18 interiorCells: 730
Rank 19 interiorCells: 709
Rank 20 interiorCells: 747
Rank 21 interiorCells: 632
Rank 22 interiorCells: 642
Rank 23 interiorCells: 752
Rank 24 interiorCells: 783
Rank 25 interiorCells: 760
Rank 26 interiorCells: 637
Rank 27 interiorCells: 758
Rank 28 interiorCells: 632
Rank 29 interiorCells: 631
Rank 30 interiorCells: 653
Rank 31 interiorCells: 658
Rank 32 interiorCells: 763
Rank 33 interiorCells: 762
Rank 34 interiorCells: 655
Rank 35 interiorCells: 677
Rank 36 interiorCells: 726
Rank 37 interiorCells: 631
Rank 38 interiorCells: 746
Rank 39 interiorCells: 667
Rank 40 interiorCells: 709
Rank 41 interiorCells: 631
Rank 42 interiorCells: 695
Rank 43 interiorCells: 755
Rank 44 interiorCells: 631
Rank 45 interiorCells: 744
Rank 46 interiorCells: 762
Rank 47 interiorCells: 732
Rank 48 interiorCells: 763
Rank 49 interiorCells: 631
Rank 50 interiorCells: 631
Rank 51 interiorCells: 758
Rank 52 interiorCells: 651
Rank 53 interiorCells: 763
Rank 54 interiorCells: 748
Rank 55 interiorCells: 642
Rank 56 interiorCells: 631
Rank 57 interiorCells: 657
Rank 58 interiorCells: 717
Rank 59 interiorCells: 701
Rank 60 interiorCells: 634
Rank 61 interiorCells: 650
Rank 62 interiorCells: 630
Rank 63 interiorCells: 763

MeasComm+1 64: 3.411e-05 6.467e-05 6.6211e-05 3.972e-05 5.083e-05 4.895e-05 7.042e-05 6.273e-05 2.934e-05 1.659e-05 2.389e-05 2.502e-05 3.389e-05 3.695e-05 2.5471e-05 3.449e-05 4.348e-05 4.106e-05 3.696e-05 3.521e-05 3.222e-05 2.685e-05 1.588e-05 2.659e-05 5.5981e-05 5.021e-05 5.119e-05 5.778e-05 5.359e-05 7.535e-05 8.26e-05 0.00010031 6.453e-05 4.435e-05 4.412e-05 5.725e-05 6.797e-05 6.541e-05 7.77e-05 6.761e-05 4.856e-05 4.043e-05 6.1e-05 7.1231e-05 3.776e-05 3.534e-05 3.665e-05 3.969e-05 9.121e-05 8.851e-05 6.287e-05 6.493e-05 7.691e-05 0.00011266 7.998e-05 4.7891e-05 0.00010403 8.944e-05 5.832e-05 7.463e-05 7.03e-05 5.954e-05 8.6981e-05 5.532e-05 
MeasComm+1 64: 3.425e-05 6.351e-05 6.762e-05 3.851e-05 4.89e-05 4.694e-05 6.975e-05 6.066e-05 2.805e-05 1.624e-05 2.382e-05 2.42e-05 3.333e-05 3.666e-05 2.571e-05 3.41e-05 4.236e-05 4.109e-05 3.684e-05 3.493e-05 3.219e-05 2.6051e-05 1.888e-05 2.601e-05 5.542e-05 4.929e-05 5.048e-05 5.706e-05 5.107e-05 7.4961e-05 8.1471e-05 9.672e-05 6.221e-05 4.195e-05 4.523e-05 5.568e-05 6.405e-05 6.613e-05 7.723e-05 6.762e-05 4.773e-05 4.056e-05 5.973e-05 7.025e-05 3.73e-05 3.513e-05 3.687e-05 3.967e-05 9.222e-05 8.882e-05 6.31e-05 6.347e-05 7.3901e-05 0.00011089 7.626e-05 4.786e-05 0.00010355 8.8e-05 5.754e-05 7.477e-05 6.821e-05 5.855e-05 8.443e-05 5.345e-05 
MeasComm+1 64: 3.377e-05 6.322e-05 6.673e-05 3.9e-05 4.996e-05 4.705e-05 6.999e-05 5.887e-05 2.795e-05 1.635e-05 2.376e-05 2.425e-05 3.332e-05 3.613e-05 2.53e-05 3.42e-05 4.246e-05 4.099e-05 3.719e-05 3.501e-05 3.2151e-05 2.626e-05 1.857e-05 2.618e-05 5.572e-05 4.767e-05 5.058e-05 5.721e-05 5.079e-05 7.245e-05 8.1161e-05 9.618e-05 6.319e-05 4.209e-05 4.446e-05 5.534e-05 6.7511e-05 6.703e-05 7.651e-05 6.688e-05 4.804e-05 3.98e-05 5.976e-05 7.082e-05 3.786e-05 3.487e-05 3.652e-05 3.986e-05 9.379e-05 8.944e-05 6.1591e-05 5.999e-05 7.304e-05 0.00010989 7.75e-05 4.755e-05 0.00010363 8.664e-05 5.745e-05 7.452e-05 6.742e-05 5.7931e-05 8.577e-05 5.345e-05 
MeasComm+1 64: 3.446e-05 6.326e-05 6.623e-05 3.853e-05 5.004e-05 4.609e-05 6.765e-05 5.9681e-05 2.8521e-05 1.644e-05 2.365e-05 2.431e-05 3.3281e-05 3.647e-05 2.528e-05 3.42e-05 4.195e-05 4.096e-05 3.62e-05 3.49e-05 3.168e-05 2.589e-05 1.883e-05 2.59e-05 5.515e-05 4.874e-05 5.063e-05 5.692e-05 5.0351e-05 7.459e-05 8.146e-05 9.525e-05 6.299e-05 4.271e-05 4.475e-05 5.474e-05 6.632e-05 6.384e-05 7.523e-05 6.75e-05 4.814e-05 4.026e-05 6.003e-05 7.085e-05 3.691e-05 3.483e-05 3.625e-05 3.93e-05 9.2171e-05 8.452e-05 6.271e-05 6.031e-05 7.38e-05 0.00011 7.797e-05 4.79e-05 0.0001011 8.817e-05 5.641e-05 7.556e-05 6.75e-05 5.752e-05 8.445e-05 5.377e-05 
MeasComm+1 64: 3.412e-05 6.228e-05 6.734e-05 3.855e-05 4.7971e-05 4.676e-05 6.7671e-05 5.981e-05 2.633e-05 1.661e-05 2.378e-05 2.419e-05 3.336e-05 3.65e-05 2.457e-05 3.384e-05 4.1711e-05 4.088e-05 3.687e-05 3.451e-05 3.186e-05 2.607e-05 1.912e-05 2.639e-05 5.598e-05 4.895e-05 5.0361e-05 5.682e-05 5.077e-05 7.494e-05 7.66e-05 9.238e-05 6.329e-05 4.165e-05 4.288e-05 5.495e-05 6.608e-05 6.632e-05 7.5451e-05 6.762e-05 4.817e-05 4.018e-05 5.9641e-05 7.052e-05 3.711e-05 3.438e-05 3.639e-05 3.934e-05 8.698e-05 8.03e-05 6.165e-05 6.178e-05 7.235e-05 0.00010956 7.496e-05 4.733e-05 0.00010364 8.667e-05 5.726e-05 7.653e-05 6.9151e-05 5.781e-05 8.488e-05 5.336e-05 
MeasComm+1 64: 3.138e-05 6.255e-05 6.668e-05 3.904e-05 4.856e-05 4.695e-05 6.903e-05 5.97e-05 2.884e-05 1.6221e-05 2.366e-05 2.409e-05 3.339e-05 3.651e-05 2.569e-05 3.406e-05 4.227e-05 4.087e-05 3.753e-05 3.543e-05 3.202e-05 2.637e-05 1.842e-05 2.603e-05 5.569e-05 4.891e-05 5.035e-05 5.653e-05 5.019e-05 7.142e-05 8.062e-05 9.358e-05 6.376e-05 3.9951e-05 4.396e-05 5.505e-05 6.651e-05 6.603e-05 7.428e-05 6.727e-05 4.801e-05 3.951e-05 5.991e-05 7.0641e-05 3.731e-05 3.524e-05 3.732e-05 3.991e-05 9.125e-05 8.399e-05 6.106e-05 6.28e-05 7.455e-05 0.00010946 7.835e-05 4.749e-05 0.000101 8.85e-05 5.668e-05 7.62e-05 6.81e-05 5.701e-05 8.454e-05 5.33e-05 
MeasComm+1 64: 3.386e-05 6.316e-05 6.828e-05 3.86e-05 4.928e-05 4.646e-05 6.8991e-05 5.945e-05 2.877e-05 1.597e-05 2.354e-05 2.433e-05 3.344e-05 3.676e-05 2.536e-05 3.407e-05 4.171e-05 4.115e-05 3.67e-05 3.4661e-05 3.181e-05 2.602e-05 1.875e-05 2.593e-05 5.261e-05 4.857e-05 5.045e-05 5.772e-05 5.0971e-05 7.293e-05 8.18e-05 9.342e-05 6.3541e-05 4.243e-05 4.351e-05 5.573e-05 6.5321e-05 6.71e-05 7.4081e-05 6.7341e-05 4.826e-05 4.062e-05 5.943e-05 6.965e-05 3.784e-05 3.508e-05 3.624e-05 3.985e-05 9.217e-05 8.714e-05 6.2351e-05 6.246e-05 7.3481e-05 0.00010943 7.576e-05 4.715e-05 0.00010097 8.7571e-05 5.791e-05 7.597e-05 6.4721e-05 5.78e-05 8.536e-05 5.25e-05 
MeasComm+1 64: 3.387e-05 6.255e-05 6.601e-05 3.8061e-05 4.861e-05 4.739e-05 6.953e-05 5.8711e-05 2.74e-05 1.6321e-05 2.342e-05 2.429e-05 3.297e-05 3.632e-05 2.547e-05 3.409e-05 4.23e-05 4.09e-05 3.6891e-05 3.481e-05 3.198e-05 2.605e-05 1.816e-05 2.604e-05 5.478e-05 4.849e-05 5.025e-05 5.7281e-05 5.066e-05 7.5381e-05 8.1251e-05 9.294e-05 6.373e-05 4.295e-05 4.388e-05 5.516e-05 6.674e-05 6.425e-05 7.5531e-05 6.741e-05 4.799e-05 4.005e-05 5.9671e-05 7.066e-05 3.776e-05 3.488e-05 3.585e-05 3.947e-05 9.251e-05 8.337e-05 6.129e-05 6.178e-05 7.334e-05 0.000109331 7.791e-05 4.77e-05 0.00010199 8.828e-05 5.675e-05 7.529e-05 6.924e-05 5.749e-05 8.519e-05 5.3171e-05 
MeasComm+1 64: 3.394e-05 6.296e-05 6.508e-05 3.877e-05 4.841e-05 4.699e-05 6.821e-05 5.97e-05 2.761e-05 1.636e-05 2.365e-05 2.408e-05 3.34e-05 3.61e-05 2.547e-05 3.416e-05 4.235e-05 4.078e-05 3.686e-05 3.441e-05 3.196e-05 2.603e-05 1.9121e-05 2.613e-05 5.546e-05 4.803e-05 5.043e-05 5.701e-05 5.08e-05 7.548e-05 8.104e-05 9.418e-05 6.325e-05 4.137e-05 4.503e-05 5.509e-05 6.238e-05 6.424e-05 7.249e-05 6.764e-05 4.819e-05 4.01e-05 5.988e-05 7.033e-05 3.747e-05 3.522e-05 3.676e-05 3.942e-05 9.387e-05 8.454e-05 6.135e-05 6.098e-05 7.255e-05 0.000108861 7.813e-05 4.714e-05 0.00010091 8.629e-05 5.777e-05 7.686e-05 6.472e-05 5.7821e-05 8.4131e-05 5.303e-05 
MeasComm+1 64: 3.397e-05 6.332e-05 6.567e-05 3.888e-05 5.039e-05 4.664e-05 6.844e-05 6.038e-05 2.858e-05 1.628e-05 2.373e-05 2.416e-05 3.352e-05 3.64e-05 2.53e-05 3.386e-05 4.243e-05 4.036e-05 3.695e-05 3.48e-05 3.207e-05 2.569e-05 1.879e-05 2.579e-05 5.31e-05 4.883e-05 5.031e-05 5.743e-05 5.116e-05 7.373e-05 8.253e-05 9.5831e-05 6.354e-05 4.129e-05 4.433e-05 5.527e-05 6.7131e-05 6.784e-05 7.668e-05 6.7521e-05 4.812e-05 3.984e-05 5.975e-05 7.025e-05 3.751e-05 3.487e-05 3.657e-05 3.881e-05 9.089e-05 8.723e-05 6.082e-05 6.065e-05 7.522e-05 0.00010994 7.8761e-05 4.699e-05 0.0001021 8.706e-05 5.671e-05 7.167e-05 6.925e-05 5.779e-05 8.514e-05 5.251e-05 

MeasCopy 64: 7.75e-06 1.991e-05 1.351e-05 1.34e-05 2.246e-05 1.904e-05 1.721e-05 1.855e-05 5.6e-06 7.9e-06 1.193e-05 1.105e-05 1.261e-05 1.523e-05 1.201e-05 1.531e-05 1.851e-05 1.812e-05 1.378e-05 1.08e-05 1.381e-05 9.8e-06 5.98e-06 9.71e-06 1.969e-05 1.347e-05 2.129e-05 2.282e-05 1.577e-05 2.292e-05 1.587e-05 2.091e-05 2.3791e-05 1.67e-05 1.539e-05 1.918e-05 2.3e-05 1.611e-05 1.745e-05 2.049e-05 1.554e-05 1.473e-05 2.133e-05 1.935e-05 9.65e-06 1.238e-05 1.462e-05 1.329e-05 2.389e-05 2.582e-05 1.8471e-05 1.721e-05 2.565e-05 3.243e-05 2.15e-05 1.677e-05 2.406e-05 2.082e-05 1.95e-05 2.348e-05 1.412e-05 8.95e-06 1.789e-05 1.458e-05 
MeasCopy 64: 7.78e-06 1.993e-05 1.351e-05 1.338e-05 2.244e-05 1.906e-05 1.719e-05 1.853e-05 5.61e-06 7.88e-06 1.189e-05 1.108e-05 1.26e-05 1.523e-05 1.2e-05 1.535e-05 1.85e-05 1.81e-05 1.378e-05 1.08e-05 1.379e-05 9.82e-06 5.98e-06 9.73e-06 1.969e-05 1.345e-05 2.143e-05 2.282e-05 1.573e-05 2.294e-05 1.588e-05 2.091e-05 2.377e-05 1.668e-05 1.542e-05 1.916e-05 2.296e-05 1.61e-05 1.742e-05 2.05e-05 1.555e-05 1.473e-05 2.131e-05 1.937e-05 9.69e-06 1.233e-05 1.464e-05 1.324e-05 2.388e-05 2.583e-05 1.847e-05 1.722e-05 2.566e-05 3.244e-05 2.152e-05 1.678e-05 2.402e-05 2.081e-05 1.952e-05 2.349e-05 1.412e-05 8.96e-06 1.786e-05 1.457e-05 
MeasCopy 64: 7.74e-06 1.992e-05 1.35e-05 1.338e-05 2.246e-05 1.907e-05 1.719e-05 1.857e-05 5.59e-06 7.88e-06 1.191e-05 1.108e-05 1.261e-05 1.523e-05 1.2e-05 1.533e-05 1.85e-05 1.813e-05 1.379e-05 1.08e-05 1.378e-05 9.81e-06 5.96e-06 9.71e-06 1.971e-05 1.348e-05 2.143e-05 2.281e-05 1.577e-05 2.288e-05 1.591e-05 2.089e-05 2.378e-05 1.671e-05 1.543e-05 1.916e-05 2.297e-05 1.612e-05 1.745e-05 2.049e-05 1.557e-05 1.471e-05 2.133e-05 1.937e-05 9.68e-06 1.238e-05 1.464e-05 1.328e-05 2.39e-05 2.584e-05 1.848e-05 1.719e-05 2.565e-05 3.242e-05 2.153e-05 1.679e-05 2.403e-05 2.08e-05 1.952e-05 2.348e-05 1.412e-05 8.98e-06 1.793e-05 1.459e-05 
MeasCopy 64: 7.8e-06 1.994e-05 1.351e-05 1.338e-05 2.246e-05 1.904e-05 1.719e-05 1.856e-05 5.6e-06 7.89e-06 1.192e-05 1.108e-05 1.262e-05 1.5211e-05 1.202e-05 1.532e-05 1.85e-05 1.812e-05 1.379e-05 1.08e-05 1.378e-05 9.81e-06 5.99e-06 9.72e-06 1.967e-05 1.345e-05 2.143e-05 2.282e-05 1.577e-05 2.291e-05 1.589e-05 2.09e-05 2.381e-05 1.669e-05 1.543e-05 1.915e-05 2.299e-05 1.612e-05 1.745e-05 2.048e-05 1.556e-05 1.473e-05 2.134e-05 1.937e-05 9.68e-06 1.238e-05 1.461e-05 1.324e-05 2.385e-05 2.58e-05 1.847e-05 1.72e-05 2.564e-05 3.242e-05 2.151e-05 1.679e-05 2.405e-05 2.08e-05 1.952e-05 2.348e-05 1.414e-05 8.95e-06 1.789e-05 1.458e-05 
MeasCopy 64: 7.74e-06 1.992e-05 1.349e-05 1.338e-05 2.247e-05 1.907e-05 1.723e-05 1.855e-05 5.61e-06 7.91e-06 1.192e-05 1.108e-05 1.264e-05 1.523e-05 1.199e-05 1.531e-05 1.851e-05 1.815e-05 1.379e-05 1.078e-05 1.38e-05 9.82e-06 5.96e-06 9.69e-06 1.969e-05 1.347e-05 2.14e-05 2.28e-05 1.577e-05 2.292e-05 1.5861e-05 2.089e-05 2.382e-05 1.672e-05 1.542e-05 1.918e-05 2.296e-05 1.613e-05 1.743e-05 2.047e-05 1.556e-05 1.473e-05 2.132e-05 1.936e-05 9.67e-06 1.238e-05 1.462e-05 1.326e-05 2.39e-05 2.5831e-05 1.848e-05 1.722e-05 2.564e-05 3.246e-05 2.148e-05 1.678e-05 2.404e-05 2.077e-05 1.953e-05 2.3481e-05 1.41e-05 8.96e-06 1.792e-05 1.459e-05 
MeasCopy 64: 7.77e-06 1.989e-05 1.35e-05 1.339e-05 2.244e-05 1.907e-05 1.72e-05 1.858e-05 5.61e-06 7.89e-06 1.194e-05 1.107e-05 1.259e-05 1.523e-05 1.202e-05 1.534e-05 1.852e-05 1.817e-05 1.378e-05 1.08e-05 1.378e-05 9.79e-06 5.96e-06 9.71e-06 1.967e-05 1.345e-05 2.141e-05 2.2831e-05 1.577e-05 2.2891e-05 1.588e-05 2.089e-05 2.381e-05 1.671e-05 1.542e-05 1.916e-05 2.293e-05 1.613e-05 1.7421e-05 2.048e-05 1.555e-05 1.473e-05 2.133e-05 1.934e-05 9.66e-06 1.238e-05 1.463e-05 1.327e-05 2.393e-05 2.583e-05 1.846e-05 1.722e-05 2.56e-05 3.242e-05 2.147e-05 1.679e-05 2.406e-05 2.0801e-05 1.949e-05 2.3501e-05 1.413e-05 8.94e-06 1.789e-05 1.457e-05 
MeasCopy 64: 7.81e-06 1.993e-05 1.353e-05 1.335e-05 2.243e-05 1.905e-05 1.72e-05 1.858e-05 5.6e-06 7.91e-06 1.191e-05 1.106e-05 1.261e-05 1.523e-05 1.202e-05 1.534e-05 1.851e-05 1.815e-05 1.377e-05 1.08e-05 1.378e-05 9.8e-06 5.97e-06 9.71e-06 1.968e-05 1.347e-05 2.141e-05 2.282e-05 1.574e-05 2.295e-05 1.589e-05 2.092e-05 2.382e-05 1.67e-05 1.541e-05 1.916e-05 2.294e-05 1.611e-05 1.743e-05 2.048e-05 1.554e-05 1.472e-05 2.131e-05 1.936e-05 9.68e-06 1.239e-05 1.463e-05 1.326e-05 2.39e-05 2.581e-05 1.848e-05 1.718e-05 2.564e-05 3.242e-05 2.151e-05 1.679e-05 2.402e-05 2.081e-05 1.9511e-05 2.349e-05 1.414e-05 8.98e-06 1.792e-05 1.46e-05 
MeasCopy 64: 7.76e-06 1.988e-05 1.349e-05 1.34e-05 2.243e-05 1.904e-05 1.72e-05 1.856e-05 5.59e-06 7.86e-06 1.192e-05 1.106e-05 1.262e-05 1.526e-05 1.2001e-05 1.535e-05 1.852e-05 1.813e-05 1.379e-05 1.078e-05 1.378e-05 9.8e-06 5.96e-06 9.72e-06 1.9681e-05 1.347e-05 2.143e-05 2.281e-05 1.576e-05 2.292e-05 1.591e-05 2.09e-05 2.379e-05 1.669e-05 1.541e-05 1.916e-05 2.293e-05 1.611e-05 1.743e-05 2.046e-05 1.556e-05 1.469e-05 2.132e-05 1.937e-05 9.671e-06 1.236e-05 1.464e-05 1.326e-05 2.39e-05 2.581e-05 1.847e-05 1.717e-05 2.564e-05 3.244e-05 2.15e-05 1.678e-05 2.403e-05 2.083e-05 1.95e-05 2.349e-05 1.413e-05 8.981e-06 1.7901e-05 1.459e-05 
MeasCopy 64: 7.79e-06 1.99e-05 1.349e-05 1.337e-05 2.244e-05 1.907e-05 1.72e-05 1.857e-05 5.61e-06 7.9e-06 1.193e-05 1.107e-05 1.263e-05 1.523e-05 1.201e-05 1.535e-05 1.854e-05 1.814e-05 1.381e-05 1.081e-05 1.379e-05 9.78e-06 5.98e-06 9.71e-06 1.97e-05 1.3451e-05 2.143e-05 2.282e-05 1.576e-05 2.293e-05 1.586e-05 2.092e-05 2.382e-05 1.669e-05 1.54e-05 1.918e-05 2.296e-05 1.614e-05 1.745e-05 2.046e-05 1.558e-05 1.472e-05 2.131e-05 1.935e-05 9.68e-06 1.239e-05 1.462e-05 1.327e-05 2.392e-05 2.585e-05 1.846e-05 1.719e-05 2.564e-05 3.247e-05 2.149e-05 1.678e-05 2.407e-05 2.082e-05 1.948e-05 2.348e-05 1.412e-05 8.96e-06 1.79e-05 1.46e-05 
MeasCopy 64: 7.76e-06 1.992e-05 1.351e-05 1.337e-05 2.244e-05 1.905e-05 1.722e-05 1.854e-05 5.59e-06 7.85e-06 1.191e-05 1.108e-05 1.263e-05 1.524e-05 1.201e-05 1.529e-05 1.853e-05 1.814e-05 1.38e-05 1.08e-05 1.378e-05 9.78e-06 5.96e-06 9.72e-06 1.968e-05 1.345e-05 2.1421e-05 2.281e-05 1.577e-05 2.293e-05 1.591e-05 2.09e-05 2.38e-05 1.668e-05 1.541e-05 1.918e-05 2.295e-05 1.616e-05 1.745e-05 2.047e-05 1.5541e-05 1.474e-05 2.134e-05 1.934e-05 9.65e-06 1.238e-05 1.465e-05 1.327e-05 2.389e-05 2.584e-05 1.845e-05 1.722e-05 2.563e-05 3.244e-05 2.152e-05 1.677e-05 2.406e-05 2.08e-05 1.948e-05 2.349e-05 1.412e-05 8.97e-06 1.79e-05 1.46e-05 

ComTab rank 0: 0 66 0 73 0 0 0 0 0 0 0 0 0 0 0 0 0 0 0 0 0 0 0 0 0 0 0 0 0 0 0 0 0 0 0 0 0 0 0 0 0 0 0 0 0 0 0 0 0 0 0 0 0 0 0 0 0 0 0 0 0 0 0 48 
ComTab rank 1: 70 0 14 98 87 35 30 62 0 0 0 0 0 0 0 0 0 0 0 0 0 0 0 0 0 0 0 0 0 0 0 0 0 0 0 0 0 0 0 0 0 0 0 0 0 0 0 0 0 0 0 0 0 0 0 0 5 0 0 0 0 0 92 101 
ComTab rank 2: 0 21 0 42 6 16 44 0 0 0 0 0 0 8 0 0 21 35 0 0 0 0 0 0 94 0 0 43 0 57 1 1 0 0 0 0 0 0 0 0 0 0 0 0 0 0 0 0 0 0 0 0 0 0 0 0 10 0 0 0 0 0 10 0 
ComTab rank 3: 76 98 47 0 71 47 6 0 0 0 0 0 0 20 0 0 0 0 0 0 0 0 0 0 0 0 0 0 0 0 0 0 0 0 0 0 0 0 0 0 0 0 0 0 0 0 0 0 0 0 0 0 0 0 0 0 0 0 0 0 0 0 0 0 
ComTab rank 4: 0 80 6 74 0 171 98 104 30 0 0 0 31 1 0 0 0 0 0 0 0 0 0 0 0 0 0 0 0 0 0 0 0 0 0 0 0 0 0 0 0 0 0 0 0 0 0 0 0 0 0 0 0 0 0 0 0 0 0 0 0 0 0 0 
ComTab rank 5: 0 34 18 50 170 0 0 0 22 0 0 0 93 108 0 0 0 0 0 0 0 0 0 0 0 0 0 0 0 0 0 0 0 0 0 0 0 0 0 0 0 0 0 0 0 0 0 0 0 0 0 0 0 0 0 0 0 0 0 0 0 0 0 0 
ComTab rank 6: 0 33 49 6 95 0 0 129 0 0 0 0 0 0 0 0 0 0 0 0 0 0 0 0 42 0 0 0 0 36 21 16 0 0 0 0 0 0 0 0 0 0 0 0 0 0 0 0 0 0 0 0 0 0 0 0 24 52 0 0 0 0 26 0 
ComTab rank 7: 0 64 0 0 112 0 115 0 0 0 0 0 0 0 0 0 0 0 0 0 0 0 0 0 0 0 0 0 0 0 0 26 0 0 0 0 0 0 0 0 0 0 0 0 0 0 0 0 0 5 0 0 0 11 0 0 24 127 0 0 0 0 57 3 
ComTab rank 8: 0 0 0 0 30 20 0 0 0 18 37 0 16 0 0 23 0 0 0 0 0 0 0 0 0 0 0 0 0 0 0 0 0 0 0 0 0 0 0 0 0 0 0 0 0 0 0 0 0 0 0 0 0 0 0 0 0 0 0 0 0 0 0 0 
ComTab rank 9: 0 0 0 0 0 0 0 0 18 0 90 83 0 0 0 0 0 0 0 0 0 0 0 0 0 0 0 0 0 0 0 0 0 0 0 0 0 0 0 0 0 0 0 0 0 0 0 0 0 0 0 0 0 0 0 0 0 0 0 0 0 0 0 0 
ComTab rank 10: 0 0 0 0 0 0 0 0 33 96 0 82 0 0 0 86 0 0 0 0 0 0 0 0 0 0 0 0 0 0 0 0 0 0 0 0 0 0 0 0 0 0 0 0 0 0 0 0 0 0 0 0 0 0 0 0 0 0 0 0 0 0 0 0 
ComTab rank 11: 0 0 0 0 0 0 0 0 0 72 82 0 0 0 54 70 0 0 0 0 0 0 0 0 0 0 0 0 0 0 0 0 0 0 0 0 0 0 0 0 0 0 0 0 0 0 0 0 0 0 0 0 0 0 0 0 0 0 0 0 0 0 0 0 
ComTab rank 12: 0 0 0 0 31 95 0 0 9 0 0 0 0 118 17 63 0 0 0 0 0 0 0 0 0 0 0 0 0 0 0 0 0 0 0 0 0 0 0 0 0 0 0 0 0 0 0 0 0 0 0 0 0 0 0 0 0 0 0 0 0 0 0 0 
ComTab rank 13: 0 0 6 19 1 112 0 0 0 0 0 0 128 0 95 38 0 0 0 0 0 0 0 0 0 0 0 0 0 0 0 0 0 0 0 0 0 0 0 0 0 0 0 0 0 0 0 0 0 0 0 0 0 0 0 0 0 0 0 0 0 0 0 0 
ComTab rank 14: 0 0 0 0 0 0 0 0 0 0 0 53 17 101 0 122 0 0 0 0 0 0 0 0 0 0 0 0 0 0 0 0 0 0 0 0 0 0 0 0 0 0 0 0 0 0 0 0 0 0 0 0 0 0 0 0 0 0 0 0 0 0 0 0 
ComTab rank 15: 0 0 0 0 0 0 0 0 11 0 84 80 63 38 127 0 0 0 0 0 0 0 0 0 0 0 0 0 0 0 0 0 0 0 0 0 0 0 0 0 0 0 0 0 0 0 0 0 0 0 0 0 0 0 0 0 0 0 0 0 0 0 0 0 
ComTab rank 16: 0 0 21 0 0 0 0 0 0 0 0 0 0 0 0 0 0 148 57 78 85 95 0 29 0 0 0 0 0 0 0 0 0 0 0 0 0 0 0 0 0 0 0 0 0 0 0 0 0 0 0 0 0 0 0 0 0 0 0 0 0 0 0 0 
ComTab rank 17: 0 0 49 0 0 0 0 0 0 0 0 0 0 0 0 0 150 0 75 0 6 9 0 0 0 0 74 111 0 0 0 0 0 0 0 0 0 0 0 0 0 0 0 0 0 0 0 0 0 0 0 0 0 0 0 0 0 0 0 0 0 0 0 0 
ComTab rank 18: 0 0 0 0 0 0 0 0 0 0 0 0 0 0 0 0 56 65 0 41 84 0 0 0 0 0 75 74 0 0 0 0 0 0 0 0 0 0 0 0 0 0 0 0 0 0 0 0 0 0 0 0 0 0 0 0 0 0 0 0 0 0 0 0 
ComTab rank 19: 0 0 0 0 0 0 0 0 0 0 0 0 0 0 0 0 82 0 55 0 61 33 0 18 0 0 39 13 0 0 0 0 0 0 0 0 0 0 0 0 0 0 0 0 0 0 0 0 0 0 0 0 0 0 0 0 0 0 0 0 0 0 0 0 
ComTab rank 20: 0 0 0 0 0 0 0 0 0 0 0 0 0 0 0 0 86 6 88 57 0 47 49 70 0 0 0 0 0 0 0 0 0 0 0 0 0 0 0 0 0 0 0 0 0 0 0 0 0 0 0 0 0 0 0 0 0 0 0 0 0 0 0 0 
ComTab rank 21: 0 0 0 0 0 0 0 0 0 0 0 0 0 0 0 0 102 10 0 32 36 0 0 91 0 0 0 0 0 0 0 0 0 0 0 0 0 0 0 0 0 0 0 0 0 0 0 0 0 0 0 0 0 0 0 0 0 0 0 0 0 0 0 0 
ComTab rank 22: 0 0 0 0 0 0 0 0 0 0 0 0 0 0 0 0 0 0 0 0 49 0 0 85 0 0 0 0 0 0 0 0 0 0 0 0 0 0 0 0 0 0 0 0 0 0 0 0 0 0 0 0 0 0 0 0 0 0 0 0 0 0 0 0 
ComTab rank 23: 0 0 0 0 0 0 0 0 0 0 0 0 0 0 0 0 26 0 0 21 65 76 85 0 0 0 0 0 0 0 0 0 0 0 0 0 0 0 0 0 0 0 0 0 0 0 0 0 0 0 0 0 0 0 0 0 0 0 0 0 0 0 0 0 
ComTab rank 24: 0 0 96 0 0 0 41 0 0 0 0 0 0 0 0 0 0 0 0 0 0 0 0 0 0 2 34 110 20 166 85 18 0 0 0 0 0 0 0 0 0 0 0 0 0 0 0 0 0 0 0 0 0 0 0 0 4 0 0 0 0 0 0 0 
ComTab rank 25: 0 0 0 0 0 0 0 0 0 0 0 0 0 0 0 0 0 0 0 0 0 0 0 0 2 0 86 66 91 61 37 12 0 0 0 0 0 0 0 0 0 0 0 0 0 0 0 0 0 0 0 0 0 0 0 0 0 0 0 0 0 0 19 0 
ComTab rank 26: 0 0 0 0 0 0 0 0 0 0 0 0 0 0 0 0 0 81 82 37 0 0 0 0 34 99 0 204 0 58 4 0 0 0 0 0 0 0 0 0 0 0 0 0 0 0 0 0 0 0 0 0 0 0 0 0 0 0 0 0 0 0 0 0 
ComTab rank 27: 0 0 39 0 0 0 0 0 0 0 0 0 0 0 0 0 0 113 76 15 0 0 0 0 111 55 209 0 0 5 23 0 0 0 0 0 0 0 0 0 0 0 0 0 0 0 0 0 0 0 0 0 0 0 0 0 0 0 0 0 0 0 0 0 
ComTab rank 28: 0 0 0 0 0 0 0 0 0 0 0 0 0 0 0 0 0 0 0 0 0 0 0 0 17 103 0 0 0 101 44 53 0 0 0 0 0 0 0 0 0 0 0 0 0 0 0 0 49 63 0 0 0 0 0 0 0 0 0 0 0 0 8 0 
ComTab rank 29: 0 0 50 0 0 0 40 0 0 0 0 0 0 0 0 0 0 0 0 0 0 0 0 0 167 63 59 5 106 0 85 97 0 0 0 0 0 0 0 0 0 0 0 0 0 0 0 0 0 0 0 0 0 0 0 0 25 0 0 0 0 0 3 0 
ComTab rank 30: 0 0 1 0 0 0 16 0 0 0 0 0 0 0 0 0 0 0 0 0 0 0 0 0 77 37 4 23 53 83 0 110 0 0 0 0 0 0 0 0 0 0 0 0 0 0 0 0 27 40 0 0 0 24 0 0 1 0 0 0 0 0 0 0 
ComTab rank 31: 0 0 1 0 0 0 16 18 0 0 0 0 0 0 0 0 0 0 0 0 0 0 0 0 15 11 0 0 55 91 119 0 0 0 0 0 0 0 0 0 0 0 0 0 0 0 0 0 72 134 0 0 0 74 0 0 62 8 0 0 0 0 27 7 
ComTab rank 32: 0 0 0 0 0 0 0 0 0 0 0 0 0 0 0 0 0 0 0 0 0 0 0 0 0 0 0 0 0 0 0 0 0 131 72 28 153 70 28 52 0 0 57 86 0 0 0 0 0 0 0 0 0 0 0 0 0 0 0 0 0 0 0 0 
ComTab rank 33: 0 0 0 0 0 0 0 0 0 0 0 0 0 0 0 0 0 0 0 0 0 0 0 0 0 0 0 0 0 0 0 0 140 0 64 70 0 0 0 15 0 0 68 0 0 0 102 0 0 0 0 0 0 0 0 0 0 0 0 0 0 0 0 0 
ComTab rank 34: 0 0 0 0 0 0 0 0 0 0 0 0 0 0 0 0 0 0 0 0 0 0 0 0 0 0 0 0 0 0 0 0 74 64 0 104 7 0 75 94 0 0 0 9 0 0 0 0 0 0 0 0 0 0 0 0 0 0 0 0 0 0 0 0 
ComTab rank 35: 0 0 0 0 0 0 0 0 0 0 0 0 0 0 0 0 0 0 0 0 0 0 0 0 0 0 0 0 0 0 0 0 32 71 103 0 0 0 0 39 67 0 63 41 0 96 33 0 0 0 0 0 0 0 0 0 0 0 0 0 0 0 0 0 
ComTab rank 36: 0 0 0 0 0 0 0 0 0 0 0 0 0 0 0 0 0 0 0 0 0 0 0 0 0 0 0 0 0 0 0 0 153 0 7 0 0 103 54 70 0 0 0 27 0 0 0 0 0 0 0 0 4 19 82 126 0 0 0 0 0 0 0 0 
ComTab rank 37: 0 0 0 0 0 0 0 0 0 0 0 0 0 0 0 0 0 0 0 0 0 0 0 0 0 0 0 0 0 0 0 0 69 0 0 0 104 0 12 0 0 8 19 110 0 0 0 0 0 0 0 0 0 7 92 22 0 0 0 0 0 9 0 0 
ComTab rank 38: 0 0 0 0 0 0 0 0 0 0 0 0 0 0 0 0 0 0 0 0 0 0 0 0 0 0 0 0 0 0 0 0 24 0 75 0 50 12 0 124 0 0 0 29 0 0 0 0 21 0 0 26 5 81 34 0 0 0 0 0 13 23 0 0 
ComTab rank 39: 0 0 0 0 0 0 0 0 0 0 0 0 0 0 0 0 0 0 0 0 0 0 0 0 0 0 0 0 0 0 0 0 55 15 93 33 73 0 123 0 47 0 0 56 0 0 0 0 0 0 0 4 18 0 9 40 0 0 0 0 55 0 0 0 
ComTab rank 40: 0 0 0 0 0 0 0 0 0 0 0 0 0 0 0 0 0 0 0 0 0 0 0 0 0 0 0 0 0 0 0 0 0 0 0 75 0 0 0 46 0 56 34 36 75 60 0 27 0 0 0 0 0 0 0 0 0 0 0 0 0 45 0 0 
ComTab rank 41: 0 0 0 0 0 0 0 0 0 0 0 0 0 0 0 0 0 0 0 0 0 0 0 0 0 0 0 0 0 0 0 0 0 0 0 0 0 8 0 0 53 0 79 83 68 0 0 55 0 0 0 0 0 0 0 0 0 0 0 0 0 35 0 0 
ComTab rank 42: 0 0 0 0 0 0 0 0 0 0 0 0 0 0 0 0 0 0 0 0 0 0 0 0 0 0 0 0 0 0 0 0 54 71 0 65 0 19 0 0 34 81 0 85 0 38 101 115 0 0 0 0 0 0 0 0 0 0 0 0 0 0 0 0 
ComTab rank 43: 0 0 0 0 0 0 0 0 0 0 0 0 0 0 0 0 0 0 0 0 0 0 0 0 0 0 0 0 0 0 0 0 86 0 10 42 23 109 35 57 47 77 87 0 7 2 0 11 0 0 0 0 0 0 0 0 0 0 0 0 0 4 0 0 
ComTab rank 44: 0 0 0 0 0 0 0 0 0 0 0 0 0 0 0 0 0 0 0 0 0 0 0 0 0 0 0 0 0 0 0 0 0 0 0 0 0 0 0 0 76 65 0 6 0 41 0 54 0 0 0 0 0 0 0 0 0 0 0 0 0 0 0 0 
ComTab rank 45: 0 0 0 0 0 0 0 0 0 0 0 0 0 0 0 0 0 0 0 0 0 0 0 0 0 0 0 0 0 0 0 0 0 0 0 96 0 0 0 0 60 0 34 2 41 0 67 35 0 0 0 0 0 0 0 0 0 0 0 0 0 0 0 0 
ComTab rank 46: 0 0 0 0 0 0 0 0 0 0 0 0 0 0 0 0 0 0 0 0 0 0 0 0 0 0 0 0 0 0 0 0 0 102 0 39 0 0 0 0 0 0 95 0 0 65 0 84 0 0 0 0 0 0 0 0 0 0 0 0 0 0 0 0 
ComTab rank 47: 0 0 0 0 0 0 0 0 0 0 0 0 0 0 0 0 0 0 0 0 0 0 0 0 0 0 0 0 0 0 0 0 0 0 0 0 0 0 0 0 25 58 117 8 44 36 88 0 0 0 0 0 0 0 0 0 0 0 0 0 0 0 0 0 
ComTab rank 48: 0 0 0 0 0 0 0 0 0 0 0 0 0 0 0 0 0 0 0 0 0 0 0 0 0 0 0 0 51 0 31 73 0 0 0 0 0 0 21 0 0 0 0 0 0 0 0 0 0 145 47 159 26 140 22 0 23 0 0 13 0 0 0 3 
ComTab rank 49: 0 0 0 0 0 0 0 5 0 0 0 0 0 0 0 0 0 0 0 0 0 0 0 0 0 0 0 0 61 0 42 134 0 0 0 0 0 0 0 0 0 0 0 0 0 0 0 0 153 0 119 0 0 141 0 0 23 32 0 8 0 0 47 1 
ComTab rank 50: 0 0 0 0 0 0 0 0 0 0 0 0 0 0 0 0 0 0 0 0 0 0 0 0 0 0 0 0 0 0 0 0 0 0 0 0 0 0 0 0 0 0 0 0 0 0 0 0 50 104 0 0 67 167 0 0 15 32 41 54 7 0 33 0 
ComTab rank 51: 0 0 0 0 0 0 0 0 0 0 0 0 0 0 0 0 0 0 0 0 0 0 0 0 0 0 0 0 0 0 0 0 0 0 0 0 0 0 26 4 0 0 0 0 0 0 0 0 160 0 0 0 100 49 10 2 22 0 25 60 34 0 0 0 
ComTab rank 52: 0 0 0 0 0 0 0 0 0 0 0 0 0 0 0 0 0 0 0 0 0 0 0 0 0 0 0 0 0 0 0 0 0 0 0 0 4 0 5 18 0 0 0 0 0 0 0 0 25 0 72 102 0 61 137 105 0 0 98 74 66 0 0 0 
ComTab rank 53: 0 0 0 0 0 0 0 12 0 0 0 0 0 0 0 0 0 0 0 0 0 0 0 0 0 0 0 0 0 0 24 77 0 0 0 0 22 7 83 0 0 0 0 0 0 0 0 0 146 147 172 45 68 0 77 0 41 14 0 62 12 18 0 0 
ComTab rank 54: 0 0 0 0 0 0 0 0 0 0 0 0 0 0 0 0 0 0 0 0 0 0 0 0 0 0 0 0 0 0 0 0 0 0 0 0 79 92 32 9 0 0 0 0 0 0 0 0 24 0 0 10 139 72 0 84 0 0 62 0 9 4 0 0 
ComTab rank 55: 0 0 0 0 0 0 0 0 0 0 0 0 0 0 0 0 0 0 0 0 0 0 0 0 0 0 0 0 0 0 0 0 0 0 0 0 123 27 0 35 0 0 0 0 0 0 0 0 0 0 0 2 105 0 89 0 0 0 70 0 19 0 0 0 
ComTab rank 56: 0 6 14 0 0 0 28 23 0 0 0 0 0 0 0 0 0 0 0 0 0 0 0 0 4 0 0 0 0 28 1 60 0 0 0 0 0 0 0 0 0 0 0 0 0 0 0 0 23 22 15 25 0 42 0 0 0 93 44 153 0 0 65 120 
ComTab rank 57: 0 0 0 0 0 0 50 111 0 0 0 0 0 0 0 0 0 0 0 0 0 0 0 0 0 0 0 0 0 0 0 8 0 0 0 0 0 0 0 0 0 0 0 0 0 0 0 0 0 31 34 0 0 14 0 0 91 0 40 89 24 0 76 62 
ComTab rank 58: 0 0 0 0 0 0 0 0 0 0 0 0 0 0 0 0 0 0 0 0 0 0 0 0 0 0 0 0 0 0 0 0 0 0 0 0 0 0 0 0 0 0 0 0 0 0 0 0 0 0 39 24 94 0 62 70 47 44 0 153 15 0 2 0 
ComTab rank 59: 0 0 0 0 0 0 0 0 0 0 0 0 0 0 0 0 0 0 0 0 0 0 0 0 0 0 0 0 0 0 0 0 0 0 0 0 0 0 0 0 0 0 0 0 0 0 0 0 13 8 58 60 76 58 0 0 162 90 143 0 0 0 0 0 
ComTab rank 60: 0 0 0 0 0 0 0 0 0 0 0 0 0 0 0 0 0 0 0 0 0 0 0 0 0 0 0 0 0 0 0 0 0 0 0 0 0 0 14 57 0 0 0 0 0 0 0 0 0 0 7 37 55 12 8 20 0 24 16 0 0 80 51 0 
ComTab rank 61: 0 0 0 0 0 0 0 0 0 0 0 0 0 0 0 0 0 0 0 0 0 0 0 0 0 0 0 0 0 0 0 0 0 0 0 0 0 11 20 0 42 35 0 4 0 0 0 0 0 0 0 0 0 18 5 0 0 0 0 0 78 0 0 0 
ComTab rank 62: 0 97 8 0 0 0 28 54 0 0 0 0 0 0 0 0 0 0 0 0 0 0 0 0 0 19 0 0 8 3 0 24 0 0 0 0 0 0 0 0 0 0 0 0 0 0 0 0 0 53 33 0 0 0 0 0 40 73 2 0 51 0 0 74 
ComTab rank 63: 48 94 0 0 0 0 0 3 0 0 0 0 0 0 0 0 0 0 0 0 0 0 0 0 0 0 0 0 0 0 0 8 0 0 0 0 0 0 0 0 0 0 0 0 0 0 0 0 3 1 0 0 0 0 0 0 117 64 0 0 0 0 69 0 

Edge-cut: 16337

Wgt-cut: 2.34271e-07

[1579248599.283273] [n004:55805:0]          mpool.c:38   UCX  WARN  object 0x155544122f60 was not returned to mpool mm_recv_desc
[1579248599.360194] [n004:55792:0]          mpool.c:38   UCX  WARN  object 0x155544122f60 was not returned to mpool mm_recv_desc
[1579248599.362037] [n004:55821:0]          mpool.c:38   UCX  WARN  object 0x155544122f60 was not returned to mpool mm_recv_desc
[1579248599.382152] [n004:55788:0]          mpool.c:38   UCX  WARN  object 0x155544122f60 was not returned to mpool mm_recv_desc
[1579248599.407223] [n004:55796:0]          mpool.c:38   UCX  WARN  object 0x155544122f60 was not returned to mpool mm_recv_desc
[1579248599.414660] [n004:55787:0]          mpool.c:38   UCX  WARN  object 0x155539500f60 was not returned to mpool mm_recv_desc
