 Data for JOB [27199,1] offset 0 Total slots allocated 8

 ========================   JOB MAP   ========================

 Data for node: n004	Num slots: 8	Max slots: 0	Num procs: 8
 	Process OMPI jobid: [27199,1] App: 0 Process rank: 0 Bound: socket 1[core 48[hwt 0-1]]:[../../../../../../../../../../../../../../../../../../../../../../../../../../../../../../../..][../../../../../../../../../../../../../../../../BB/../../../../../../../../../../../../../../..]
 	Process OMPI jobid: [27199,1] App: 0 Process rank: 1 Bound: socket 1[core 37[hwt 0-1]]:[../../../../../../../../../../../../../../../../../../../../../../../../../../../../../../../..][../../../../../BB/../../../../../../../../../../../../../../../../../../../../../../../../../..]
 	Process OMPI jobid: [27199,1] App: 0 Process rank: 2 Bound: socket 1[core 50[hwt 0-1]]:[../../../../../../../../../../../../../../../../../../../../../../../../../../../../../../../..][../../../../../../../../../../../../../../../../../../BB/../../../../../../../../../../../../..]
 	Process OMPI jobid: [27199,1] App: 0 Process rank: 3 Bound: socket 1[core 39[hwt 0-1]]:[../../../../../../../../../../../../../../../../../../../../../../../../../../../../../../../..][../../../../../../../BB/../../../../../../../../../../../../../../../../../../../../../../../..]
 	Process OMPI jobid: [27199,1] App: 0 Process rank: 4 Bound: socket 1[core 36[hwt 0-1]]:[../../../../../../../../../../../../../../../../../../../../../../../../../../../../../../../..][../../../../BB/../../../../../../../../../../../../../../../../../../../../../../../../../../..]
 	Process OMPI jobid: [27199,1] App: 0 Process rank: 5 Bound: socket 1[core 49[hwt 0-1]]:[../../../../../../../../../../../../../../../../../../../../../../../../../../../../../../../..][../../../../../../../../../../../../../../../../../BB/../../../../../../../../../../../../../..]
 	Process OMPI jobid: [27199,1] App: 0 Process rank: 6 Bound: socket 1[core 38[hwt 0-1]]:[../../../../../../../../../../../../../../../../../../../../../../../../../../../../../../../..][../../../../../../BB/../../../../../../../../../../../../../../../../../../../../../../../../..]
 	Process OMPI jobid: [27199,1] App: 0 Process rank: 7 Bound: socket 1[core 51[hwt 0-1]]:[../../../../../../../../../../../../../../../../../../../../../../../../../../../../../../../..][../../../../../../../../../../../../../../../../../../../BB/../../../../../../../../../../../..]

 =============================================================
Two group cota
0 1 3
0 2 2
0 3 1
5 6 4
5 7 7
5 4 6
7 4 6
7 5 5
7 6 4
2 3 1
2 0 0
2 1 3
3 0 2
3 1 1
3 2 0
4 5 7
4 6 6
4 7 5
6 7 5
6 4 4
6 5 7
1 2 0
1 3 3
1 0 2
dune-size 1 2.09534e-05 2.10132e-05 2.09797e-05 2.08734e-05 1.58605e-05 1.58823e-05 1.58606e-05 1.57416e-05 
dune-size 2 1.92142e-05 1.91607e-05 1.92203e-05 1.91955e-05 1.70096e-05 1.69659e-05 1.70031e-05 1.69978e-05 
dune-size 4 1.53455e-05 1.53616e-05 1.53779e-05 1.53684e-05 1.53206e-05 1.53027e-05 1.53189e-05 1.53099e-05 
dune-size 8 1.65065e-05 1.65591e-05 1.65269e-05 1.65571e-05 1.7005e-05 1.70294e-05 1.70628e-05 1.7064e-05 
dune-size 16 1.8362e-05 1.84152e-05 1.8382e-05 1.84138e-05 1.62871e-05 1.6297e-05 1.63212e-05 1.63108e-05 
dune-size 32 1.77484e-05 1.77696e-05 1.77749e-05 1.77709e-05 1.49689e-05 1.499e-05 1.49697e-05 1.49925e-05 
dune-size 64 1.99768e-05 2.00175e-05 1.99936e-05 2.00134e-05 2.00877e-05 2.01343e-05 2.01104e-05 2.01288e-05 
dune-size 128 3.03286e-05 3.02947e-05 3.03264e-05 3.0296e-05 2.99226e-05 2.99782e-05 2.99476e-05 2.99751e-05 
dune-size 256 4.94715e-05 4.94999e-05 4.9469e-05 4.95009e-05 4.9247e-05 4.93417e-05 4.92801e-05 4.93346e-05 
dune-size 512 8.92153e-05 8.9394e-05 8.92661e-05 8.93723e-05 8.92866e-05 8.914e-05 8.93743e-05 8.91782e-05 
dune-size 1024 0.000229216 0.000228752 0.000228997 0.000228788 0.000231437 0.000231711 0.000231436 0.000231695 
dune-size 2048 0.000423262 0.000422406 0.00042234 0.000422851 0.000419138 0.00041996 0.000419154 0.000419598 
dune-size 4096 0.000733194 0.000733114 0.000734051 0.000734867 0.000685758 0.000685725 0.000686197 0.000687014 
dune-size 8192 0.00122797 0.0012296 0.00122789 0.0012312 0.00124393 0.00124392 0.00124568 0.0012471 
dune-size 16384 0.0024259 0.00242534 0.00242188 0.00242189 0.00241359 0.00241024 0.00241013 0.00241489 
dune-size 32768 0.0048051 0.00480439 0.00480416 0.00480409 0.00480482 0.00480358 0.00480375 0.00480494 
dune-size 65536 0.00977388 0.00970991 0.00973865 0.00971013 0.00971983 0.00973864 0.00976362 0.00973867 
dune-size 131072 0.019715 0.019803 0.0197146 0.020013 0.0196739 0.0197139 0.0196621 0.0197137 
