 Data for JOB [4759,1] offset 0 Total slots allocated 2

 ========================   JOB MAP   ========================

 Data for node: n001	Num slots: 2	Max slots: 0	Num procs: 2
 	Process OMPI jobid: [4759,1] App: 0 Process rank: 0 Bound: socket 1[core 57[hwt 0-1]]:[../../../../../../../../../../../../../../../../../../../../../../../../../../../../../../../..][../../../../../../../../../../../../../../../../../../../../../../../../../BB/../../../../../..]
 	Process OMPI jobid: [4759,1] App: 0 Process rank: 1 Bound: socket 1[core 50[hwt 0-1]]:[../../../../../../../../../../../../../../../../../../../../../../../../../../../../../../../..][../../../../../../../../../../../../../../../../../../BB/../../../../../../../../../../../../..]

 =============================================================
dune-size 1 4.13679e-06 4.13939e-06 
dune-size 2 3.91629e-06 3.91649e-06 
dune-size 4 4.04879e-06 4.04919e-06 
dune-size 8 4.27869e-06 4.27919e-06 
dune-size 16 4.70318e-06 4.70108e-06 
dune-size 32 5.59938e-06 5.59288e-06 
dune-size 64 7.15978e-06 7.15938e-06 
dune-size 128 1.06808e-05 1.06795e-05 
dune-size 256 1.82679e-05 1.82639e-05 
dune-size 512 3.03844e-05 3.03907e-05 
dune-size 1024 8.84638e-05 8.84655e-05 
dune-size 2048 0.00015659 0.00015659 
dune-size 4096 0.000306852 0.000306868 
dune-size 8192 0.000571972 0.00057195 
dune-size 16384 0.000888459 0.00088848 
dune-size 32768 0.00162959 0.00162958 
dune-size 65536 0.00322892 0.00322883 
dune-size 131072 0.00638532 0.00638649 
dune-size 262144 0.0127608 0.0127721 
dune-size 524288 0.0254494 0.0254419 
dune-size 1048576 0.0505402 0.0505625 
