 Data for JOB [51326,1] offset 0 Total slots allocated 2

 ========================   JOB MAP   ========================

 Data for node: n001	Num slots: 2	Max slots: 0	Num procs: 2
 	Process OMPI jobid: [51326,1] App: 0 Process rank: 0 Bound: socket 0[core 1[hwt 0-1]]:[../BB/../../../../../../../../../../../../../../../../../../../../../../../../../../../../../..][../../../../../../../../../../../../../../../../../../../../../../../../../../../../../../../..]
 	Process OMPI jobid: [51326,1] App: 0 Process rank: 1 Bound: socket 0[core 2[hwt 0-1]]:[../../BB/../../../../../../../../../../../../../../../../../../../../../../../../../../../../..][../../../../../../../../../../../../../../../../../../../../../../../../../../../../../../../..]

 =============================================================
dune-size 1 2.66379e-06 2.66339e-06 
dune-size 2 2.47619e-06 2.47639e-06 
dune-size 4 2.61599e-06 2.61589e-06 
dune-size 8 2.82529e-06 2.82569e-06 
dune-size 16 3.1951e-06 3.1953e-06 
dune-size 32 3.96069e-06 3.96129e-06 
dune-size 64 5.55109e-06 5.54909e-06 
dune-size 128 9.21318e-06 9.21338e-06 
dune-size 256 1.52195e-05 1.52191e-05 
dune-size 512 2.74524e-05 2.7454e-05 
dune-size 1024 5.9123e-05 5.91244e-05 
dune-size 2048 0.00010724 0.00010724 
dune-size 4096 0.000214393 0.000214393 
dune-size 8192 0.000412032 0.000412032 
dune-size 16384 0.00087802 0.000898037 
dune-size 32768 0.00157863 0.00157855 
dune-size 65536 0.003199 0.003199 
dune-size 131072 0.00636207 0.00636207 
dune-size 262144 0.0127917 0.0127917 
dune-size 524288 0.0255044 0.0255089 
dune-size 1048576 0.0512353 0.0512514 
