 Data for JOB [25478,1] offset 0 Total slots allocated 8

 ========================   JOB MAP   ========================

 Data for node: n004	Num slots: 8	Max slots: 0	Num procs: 8
 	Process OMPI jobid: [25478,1] App: 0 Process rank: 0 Bound: socket 1[core 32[hwt 0-1]]:[../../../../../../../../../../../../../../../../../../../../../../../../../../../../../../../..][BB/../../../../../../../../../../../../../../../../../../../../../../../../../../../../../../..]
 	Process OMPI jobid: [25478,1] App: 0 Process rank: 1 Bound: socket 1[core 45[hwt 0-1]]:[../../../../../../../../../../../../../../../../../../../../../../../../../../../../../../../..][../../../../../../../../../../../../../BB/../../../../../../../../../../../../../../../../../..]
 	Process OMPI jobid: [25478,1] App: 0 Process rank: 2 Bound: socket 1[core 34[hwt 0-1]]:[../../../../../../../../../../../../../../../../../../../../../../../../../../../../../../../..][../../BB/../../../../../../../../../../../../../../../../../../../../../../../../../../../../..]
 	Process OMPI jobid: [25478,1] App: 0 Process rank: 3 Bound: socket 1[core 47[hwt 0-1]]:[../../../../../../../../../../../../../../../../../../../../../../../../../../../../../../../..][../../../../../../../../../../../../../../../BB/../../../../../../../../../../../../../../../..]
 	Process OMPI jobid: [25478,1] App: 0 Process rank: 4 Bound: socket 1[core 44[hwt 0-1]]:[../../../../../../../../../../../../../../../../../../../../../../../../../../../../../../../..][../../../../../../../../../../../../BB/../../../../../../../../../../../../../../../../../../..]
 	Process OMPI jobid: [25478,1] App: 0 Process rank: 5 Bound: socket 1[core 33[hwt 0-1]]:[../../../../../../../../../../../../../../../../../../../../../../../../../../../../../../../..][../BB/../../../../../../../../../../../../../../../../../../../../../../../../../../../../../..]
 	Process OMPI jobid: [25478,1] App: 0 Process rank: 6 Bound: socket 1[core 46[hwt 0-1]]:[../../../../../../../../../../../../../../../../../../../../../../../../../../../../../../../..][../../../../../../../../../../../../../../BB/../../../../../../../../../../../../../../../../..]
 	Process OMPI jobid: [25478,1] App: 0 Process rank: 7 Bound: socket 1[core 35[hwt 0-1]]:[../../../../../../../../../../../../../../../../../../../../../../../../../../../../../../../..][../../../BB/../../../../../../../../../../../../../../../../../../../../../../../../../../../..]

 =============================================================
4 5 7
4 6 6
4 7 5
7 4 6
7 5 5
7 6 4
3 0 2
3 1 1
3 2 0
5 6 4
5 7 7
5 4 6
6 7 5
6 4 4
6 5 7
Two group cota
0 1 3
0 2 2
0 3 1
1 2 0
1 3 3
1 0 2
2 3 1
2 0 0
2 1 3
dune-size 1 1.7496e-05 1.74873e-05 1.60111e-05 1.74832e-05 2.22588e-05 2.23163e-05 2.08146e-05 2.22718e-05 
dune-size 2 1.47637e-05 1.47359e-05 1.47504e-05 1.47712e-05 1.89821e-05 1.90328e-05 1.9001e-05 1.90121e-05 
dune-size 4 1.57258e-05 1.56949e-05 1.57155e-05 1.57124e-05 1.59519e-05 1.5904e-05 1.59261e-05 1.5965e-05 
dune-size 8 1.59456e-05 1.59642e-05 1.59785e-05 1.59707e-05 1.71215e-05 1.70852e-05 1.71215e-05 1.71009e-05 
dune-size 16 1.28534e-05 1.2813e-05 1.28242e-05 1.28424e-05 1.89271e-05 1.88724e-05 1.89174e-05 1.88832e-05 
dune-size 32 1.55928e-05 1.56089e-05 1.55909e-05 1.56012e-05 1.69354e-05 1.69144e-05 1.69047e-05 1.69409e-05 
dune-size 64 2.06811e-05 2.07188e-05 2.07011e-05 2.07143e-05 2.08076e-05 2.08252e-05 2.08577e-05 2.08519e-05 
dune-size 128 2.97757e-05 2.97729e-05 2.98197e-05 2.9794e-05 2.98432e-05 2.98943e-05 2.98702e-05 2.98918e-05 
dune-size 256 5.03454e-05 5.0388e-05 5.03436e-05 5.03538e-05 5.04216e-05 5.03841e-05 5.04174e-05 5.03791e-05 
dune-size 512 8.84769e-05 8.85912e-05 8.85036e-05 8.86092e-05 8.84504e-05 8.82695e-05 8.83621e-05 8.82764e-05 
dune-size 1024 0.00022909 0.00022937 0.000229081 0.000229159 0.000234806 0.00023434 0.000234342 0.000234591 
dune-size 2048 0.00041891 0.000417993 0.000418038 0.000418492 0.000430074 0.000429656 0.000429135 0.00042919 
dune-size 4096 0.000725359 0.000726252 0.000726731 0.000725389 0.000708117 0.000708517 0.000708112 0.000709324 
dune-size 8192 0.00127086 0.00127292 0.00127085 0.00127131 0.00129894 0.00129838 0.00129665 0.00129666 
dune-size 16384 0.00240826 0.00241118 0.00240825 0.00241413 0.00240797 0.00240592 0.00241099 0.00240592 
dune-size 32768 0.0048064 0.00480427 0.00480454 0.0048057 0.00481254 0.00481412 0.00480554 0.00480521 
dune-size 65536 0.00994596 0.00980716 0.00994425 0.00980161 0.0098025 0.0099441 0.00980237 0.00994323 
dune-size 131072 0.019581 0.0196086 0.0196148 0.0196066 0.01961 0.0196195 0.019609 0.0195494 
