 Data for JOB [1115,1] offset 0 Total slots allocated 2

 ========================   JOB MAP   ========================

 Data for node: n001	Num slots: 2	Max slots: 0	Num procs: 2
 	Process OMPI jobid: [1115,1] App: 0 Process rank: 0 Bound: socket 1[core 49[hwt 0-1]]:[../../../../../../../../../../../../../../../../../../../../../../../../../../../../../../../..][../../../../../../../../../../../../../../../../../BB/../../../../../../../../../../../../../..]
 	Process OMPI jobid: [1115,1] App: 0 Process rank: 1 Bound: socket 0[core 18[hwt 0-1]]:[../../../../../../../../../../../../../../../../../../BB/../../../../../../../../../../../../..][../../../../../../../../../../../../../../../../../../../../../../../../../../../../../../../..]

 =============================================================
dune-size 1 5.30349e-06 5.30249e-06 
dune-size 2 5.01749e-06 5.01779e-06 
dune-size 4 5.20109e-06 5.20209e-06 
dune-size 8 5.47389e-06 5.47789e-06 
dune-size 16 6.53849e-06 6.53409e-06 
dune-size 32 6.60588e-06 6.60708e-06 
dune-size 64 8.57458e-06 8.57348e-06 
dune-size 128 1.19107e-05 1.19158e-05 
dune-size 256 1.92687e-05 1.92672e-05 
dune-size 512 3.36251e-05 3.36058e-05 
dune-size 1024 0.000106479 0.000106469 
dune-size 2048 0.000194719 0.00019472 
dune-size 4096 0.000366638 0.000366598 
dune-size 8192 0.000629962 0.000629897 
dune-size 16384 0.000955954 0.000955804 
dune-size 32768 0.00169777 0.00169749 
dune-size 65536 0.00336646 0.0033624 
dune-size 131072 0.0064388 0.00643919 
dune-size 262144 0.0129558 0.0129525 
dune-size 524288 0.0258609 0.0258547 
dune-size 1048576 0.0514101 0.0514155 
