 Data for JOB [40474,1] offset 0 Total slots allocated 64

 ========================   JOB MAP   ========================

 Data for node: n004	Num slots: 64	Max slots: 0	Num procs: 64
 	Process OMPI jobid: [40474,1] App: 0 Process rank: 0 Bound: socket 0[core 0[hwt 0-1]]:[BB/../../../../../../../../../../../../../../../../../../../../../../../../../../../../../../..][../../../../../../../../../../../../../../../../../../../../../../../../../../../../../../../..]
 	Process OMPI jobid: [40474,1] App: 0 Process rank: 1 Bound: socket 0[core 1[hwt 0-1]]:[../BB/../../../../../../../../../../../../../../../../../../../../../../../../../../../../../..][../../../../../../../../../../../../../../../../../../../../../../../../../../../../../../../..]
 	Process OMPI jobid: [40474,1] App: 0 Process rank: 2 Bound: socket 0[core 2[hwt 0-1]]:[../../BB/../../../../../../../../../../../../../../../../../../../../../../../../../../../../..][../../../../../../../../../../../../../../../../../../../../../../../../../../../../../../../..]
 	Process OMPI jobid: [40474,1] App: 0 Process rank: 3 Bound: socket 0[core 3[hwt 0-1]]:[../../../BB/../../../../../../../../../../../../../../../../../../../../../../../../../../../..][../../../../../../../../../../../../../../../../../../../../../../../../../../../../../../../..]
 	Process OMPI jobid: [40474,1] App: 0 Process rank: 4 Bound: socket 0[core 8[hwt 0-1]]:[../../../../../../../../BB/../../../../../../../../../../../../../../../../../../../../../../..][../../../../../../../../../../../../../../../../../../../../../../../../../../../../../../../..]
 	Process OMPI jobid: [40474,1] App: 0 Process rank: 5 Bound: socket 0[core 9[hwt 0-1]]:[../../../../../../../../../BB/../../../../../../../../../../../../../../../../../../../../../..][../../../../../../../../../../../../../../../../../../../../../../../../../../../../../../../..]
 	Process OMPI jobid: [40474,1] App: 0 Process rank: 6 Bound: socket 0[core 10[hwt 0-1]]:[../../../../../../../../../../BB/../../../../../../../../../../../../../../../../../../../../..][../../../../../../../../../../../../../../../../../../../../../../../../../../../../../../../..]
 	Process OMPI jobid: [40474,1] App: 0 Process rank: 7 Bound: socket 0[core 11[hwt 0-1]]:[../../../../../../../../../../../BB/../../../../../../../../../../../../../../../../../../../..][../../../../../../../../../../../../../../../../../../../../../../../../../../../../../../../..]
 	Process OMPI jobid: [40474,1] App: 0 Process rank: 8 Bound: socket 0[core 16[hwt 0-1]]:[../../../../../../../../../../../../../../../../BB/../../../../../../../../../../../../../../..][../../../../../../../../../../../../../../../../../../../../../../../../../../../../../../../..]
 	Process OMPI jobid: [40474,1] App: 0 Process rank: 9 Bound: socket 0[core 17[hwt 0-1]]:[../../../../../../../../../../../../../../../../../BB/../../../../../../../../../../../../../..][../../../../../../../../../../../../../../../../../../../../../../../../../../../../../../../..]
 	Process OMPI jobid: [40474,1] App: 0 Process rank: 10 Bound: socket 0[core 18[hwt 0-1]]:[../../../../../../../../../../../../../../../../../../BB/../../../../../../../../../../../../..][../../../../../../../../../../../../../../../../../../../../../../../../../../../../../../../..]
 	Process OMPI jobid: [40474,1] App: 0 Process rank: 11 Bound: socket 0[core 19[hwt 0-1]]:[../../../../../../../../../../../../../../../../../../../BB/../../../../../../../../../../../..][../../../../../../../../../../../../../../../../../../../../../../../../../../../../../../../..]
 	Process OMPI jobid: [40474,1] App: 0 Process rank: 12 Bound: socket 0[core 24[hwt 0-1]]:[../../../../../../../../../../../../../../../../../../../../../../../../BB/../../../../../../..][../../../../../../../../../../../../../../../../../../../../../../../../../../../../../../../..]
 	Process OMPI jobid: [40474,1] App: 0 Process rank: 13 Bound: socket 0[core 25[hwt 0-1]]:[../../../../../../../../../../../../../../../../../../../../../../../../../BB/../../../../../..][../../../../../../../../../../../../../../../../../../../../../../../../../../../../../../../..]
 	Process OMPI jobid: [40474,1] App: 0 Process rank: 14 Bound: socket 0[core 26[hwt 0-1]]:[../../../../../../../../../../../../../../../../../../../../../../../../../../BB/../../../../..][../../../../../../../../../../../../../../../../../../../../../../../../../../../../../../../..]
 	Process OMPI jobid: [40474,1] App: 0 Process rank: 15 Bound: socket 0[core 27[hwt 0-1]]:[../../../../../../../../../../../../../../../../../../../../../../../../../../../BB/../../../..][../../../../../../../../../../../../../../../../../../../../../../../../../../../../../../../..]
 	Process OMPI jobid: [40474,1] App: 0 Process rank: 16 Bound: socket 1[core 32[hwt 0-1]]:[../../../../../../../../../../../../../../../../../../../../../../../../../../../../../../../..][BB/../../../../../../../../../../../../../../../../../../../../../../../../../../../../../../..]
 	Process OMPI jobid: [40474,1] App: 0 Process rank: 17 Bound: socket 1[core 33[hwt 0-1]]:[../../../../../../../../../../../../../../../../../../../../../../../../../../../../../../../..][../BB/../../../../../../../../../../../../../../../../../../../../../../../../../../../../../..]
 	Process OMPI jobid: [40474,1] App: 0 Process rank: 18 Bound: socket 1[core 34[hwt 0-1]]:[../../../../../../../../../../../../../../../../../../../../../../../../../../../../../../../..][../../BB/../../../../../../../../../../../../../../../../../../../../../../../../../../../../..]
 	Process OMPI jobid: [40474,1] App: 0 Process rank: 19 Bound: socket 1[core 35[hwt 0-1]]:[../../../../../../../../../../../../../../../../../../../../../../../../../../../../../../../..][../../../BB/../../../../../../../../../../../../../../../../../../../../../../../../../../../..]
 	Process OMPI jobid: [40474,1] App: 0 Process rank: 20 Bound: socket 1[core 40[hwt 0-1]]:[../../../../../../../../../../../../../../../../../../../../../../../../../../../../../../../..][../../../../../../../../BB/../../../../../../../../../../../../../../../../../../../../../../..]
 	Process OMPI jobid: [40474,1] App: 0 Process rank: 21 Bound: socket 1[core 41[hwt 0-1]]:[../../../../../../../../../../../../../../../../../../../../../../../../../../../../../../../..][../../../../../../../../../BB/../../../../../../../../../../../../../../../../../../../../../..]
 	Process OMPI jobid: [40474,1] App: 0 Process rank: 22 Bound: socket 1[core 42[hwt 0-1]]:[../../../../../../../../../../../../../../../../../../../../../../../../../../../../../../../..][../../../../../../../../../../BB/../../../../../../../../../../../../../../../../../../../../..]
 	Process OMPI jobid: [40474,1] App: 0 Process rank: 23 Bound: socket 1[core 43[hwt 0-1]]:[../../../../../../../../../../../../../../../../../../../../../../../../../../../../../../../..][../../../../../../../../../../../BB/../../../../../../../../../../../../../../../../../../../..]
 	Process OMPI jobid: [40474,1] App: 0 Process rank: 24 Bound: socket 1[core 48[hwt 0-1]]:[../../../../../../../../../../../../../../../../../../../../../../../../../../../../../../../..][../../../../../../../../../../../../../../../../BB/../../../../../../../../../../../../../../..]
 	Process OMPI jobid: [40474,1] App: 0 Process rank: 25 Bound: socket 1[core 49[hwt 0-1]]:[../../../../../../../../../../../../../../../../../../../../../../../../../../../../../../../..][../../../../../../../../../../../../../../../../../BB/../../../../../../../../../../../../../..]
 	Process OMPI jobid: [40474,1] App: 0 Process rank: 26 Bound: socket 1[core 50[hwt 0-1]]:[../../../../../../../../../../../../../../../../../../../../../../../../../../../../../../../..][../../../../../../../../../../../../../../../../../../BB/../../../../../../../../../../../../..]
 	Process OMPI jobid: [40474,1] App: 0 Process rank: 27 Bound: socket 1[core 51[hwt 0-1]]:[../../../../../../../../../../../../../../../../../../../../../../../../../../../../../../../..][../../../../../../../../../../../../../../../../../../../BB/../../../../../../../../../../../..]
 	Process OMPI jobid: [40474,1] App: 0 Process rank: 28 Bound: socket 1[core 56[hwt 0-1]]:[../../../../../../../../../../../../../../../../../../../../../../../../../../../../../../../..][../../../../../../../../../../../../../../../../../../../../../../../../BB/../../../../../../..]
 	Process OMPI jobid: [40474,1] App: 0 Process rank: 29 Bound: socket 1[core 57[hwt 0-1]]:[../../../../../../../../../../../../../../../../../../../../../../../../../../../../../../../..][../../../../../../../../../../../../../../../../../../../../../../../../../BB/../../../../../..]
 	Process OMPI jobid: [40474,1] App: 0 Process rank: 30 Bound: socket 1[core 58[hwt 0-1]]:[../../../../../../../../../../../../../../../../../../../../../../../../../../../../../../../..][../../../../../../../../../../../../../../../../../../../../../../../../../../BB/../../../../..]
 	Process OMPI jobid: [40474,1] App: 0 Process rank: 31 Bound: socket 1[core 59[hwt 0-1]]:[../../../../../../../../../../../../../../../../../../../../../../../../../../../../../../../..][../../../../../../../../../../../../../../../../../../../../../../../../../../../BB/../../../..]
 	Process OMPI jobid: [40474,1] App: 0 Process rank: 32 Bound: socket 0[core 4[hwt 0-1]]:[../../../../BB/../../../../../../../../../../../../../../../../../../../../../../../../../../..][../../../../../../../../../../../../../../../../../../../../../../../../../../../../../../../..]
 	Process OMPI jobid: [40474,1] App: 0 Process rank: 33 Bound: socket 0[core 5[hwt 0-1]]:[../../../../../BB/../../../../../../../../../../../../../../../../../../../../../../../../../..][../../../../../../../../../../../../../../../../../../../../../../../../../../../../../../../..]
 	Process OMPI jobid: [40474,1] App: 0 Process rank: 34 Bound: socket 0[core 6[hwt 0-1]]:[../../../../../../BB/../../../../../../../../../../../../../../../../../../../../../../../../..][../../../../../../../../../../../../../../../../../../../../../../../../../../../../../../../..]
 	Process OMPI jobid: [40474,1] App: 0 Process rank: 35 Bound: socket 0[core 7[hwt 0-1]]:[../../../../../../../BB/../../../../../../../../../../../../../../../../../../../../../../../..][../../../../../../../../../../../../../../../../../../../../../../../../../../../../../../../..]
 	Process OMPI jobid: [40474,1] App: 0 Process rank: 36 Bound: socket 0[core 12[hwt 0-1]]:[../../../../../../../../../../../../BB/../../../../../../../../../../../../../../../../../../..][../../../../../../../../../../../../../../../../../../../../../../../../../../../../../../../..]
 	Process OMPI jobid: [40474,1] App: 0 Process rank: 37 Bound: socket 0[core 13[hwt 0-1]]:[../../../../../../../../../../../../../BB/../../../../../../../../../../../../../../../../../..][../../../../../../../../../../../../../../../../../../../../../../../../../../../../../../../..]
 	Process OMPI jobid: [40474,1] App: 0 Process rank: 38 Bound: socket 0[core 14[hwt 0-1]]:[../../../../../../../../../../../../../../BB/../../../../../../../../../../../../../../../../..][../../../../../../../../../../../../../../../../../../../../../../../../../../../../../../../..]
 	Process OMPI jobid: [40474,1] App: 0 Process rank: 39 Bound: socket 0[core 15[hwt 0-1]]:[../../../../../../../../../../../../../../../BB/../../../../../../../../../../../../../../../..][../../../../../../../../../../../../../../../../../../../../../../../../../../../../../../../..]
 	Process OMPI jobid: [40474,1] App: 0 Process rank: 40 Bound: socket 0[core 20[hwt 0-1]]:[../../../../../../../../../../../../../../../../../../../../BB/../../../../../../../../../../..][../../../../../../../../../../../../../../../../../../../../../../../../../../../../../../../..]
 	Process OMPI jobid: [40474,1] App: 0 Process rank: 41 Bound: socket 0[core 21[hwt 0-1]]:[../../../../../../../../../../../../../../../../../../../../../BB/../../../../../../../../../..][../../../../../../../../../../../../../../../../../../../../../../../../../../../../../../../..]
 	Process OMPI jobid: [40474,1] App: 0 Process rank: 42 Bound: socket 0[core 22[hwt 0-1]]:[../../../../../../../../../../../../../../../../../../../../../../BB/../../../../../../../../..][../../../../../../../../../../../../../../../../../../../../../../../../../../../../../../../..]
 	Process OMPI jobid: [40474,1] App: 0 Process rank: 43 Bound: socket 0[core 23[hwt 0-1]]:[../../../../../../../../../../../../../../../../../../../../../../../BB/../../../../../../../..][../../../../../../../../../../../../../../../../../../../../../../../../../../../../../../../..]
 	Process OMPI jobid: [40474,1] App: 0 Process rank: 44 Bound: socket 0[core 28[hwt 0-1]]:[../../../../../../../../../../../../../../../../../../../../../../../../../../../../BB/../../..][../../../../../../../../../../../../../../../../../../../../../../../../../../../../../../../..]
 	Process OMPI jobid: [40474,1] App: 0 Process rank: 45 Bound: socket 0[core 29[hwt 0-1]]:[../../../../../../../../../../../../../../../../../../../../../../../../../../../../../BB/../..][../../../../../../../../../../../../../../../../../../../../../../../../../../../../../../../..]
 	Process OMPI jobid: [40474,1] App: 0 Process rank: 46 Bound: socket 0[core 30[hwt 0-1]]:[../../../../../../../../../../../../../../../../../../../../../../../../../../../../../../BB/..][../../../../../../../../../../../../../../../../../../../../../../../../../../../../../../../..]
 	Process OMPI jobid: [40474,1] App: 0 Process rank: 47 Bound: socket 0[core 31[hwt 0-1]]:[../../../../../../../../../../../../../../../../../../../../../../../../../../../../../../../BB][../../../../../../../../../../../../../../../../../../../../../../../../../../../../../../../..]
 	Process OMPI jobid: [40474,1] App: 0 Process rank: 48 Bound: socket 1[core 36[hwt 0-1]]:[../../../../../../../../../../../../../../../../../../../../../../../../../../../../../../../..][../../../../BB/../../../../../../../../../../../../../../../../../../../../../../../../../../..]
 	Process OMPI jobid: [40474,1] App: 0 Process rank: 49 Bound: socket 1[core 37[hwt 0-1]]:[../../../../../../../../../../../../../../../../../../../../../../../../../../../../../../../..][../../../../../BB/../../../../../../../../../../../../../../../../../../../../../../../../../..]
 	Process OMPI jobid: [40474,1] App: 0 Process rank: 50 Bound: socket 1[core 38[hwt 0-1]]:[../../../../../../../../../../../../../../../../../../../../../../../../../../../../../../../..][../../../../../../BB/../../../../../../../../../../../../../../../../../../../../../../../../..]
 	Process OMPI jobid: [40474,1] App: 0 Process rank: 51 Bound: socket 1[core 39[hwt 0-1]]:[../../../../../../../../../../../../../../../../../../../../../../../../../../../../../../../..][../../../../../../../BB/../../../../../../../../../../../../../../../../../../../../../../../..]
 	Process OMPI jobid: [40474,1] App: 0 Process rank: 52 Bound: socket 1[core 44[hwt 0-1]]:[../../../../../../../../../../../../../../../../../../../../../../../../../../../../../../../..][../../../../../../../../../../../../BB/../../../../../../../../../../../../../../../../../../..]
 	Process OMPI jobid: [40474,1] App: 0 Process rank: 53 Bound: socket 1[core 45[hwt 0-1]]:[../../../../../../../../../../../../../../../../../../../../../../../../../../../../../../../..][../../../../../../../../../../../../../BB/../../../../../../../../../../../../../../../../../..]
 	Process OMPI jobid: [40474,1] App: 0 Process rank: 54 Bound: socket 1[core 46[hwt 0-1]]:[../../../../../../../../../../../../../../../../../../../../../../../../../../../../../../../..][../../../../../../../../../../../../../../BB/../../../../../../../../../../../../../../../../..]
 	Process OMPI jobid: [40474,1] App: 0 Process rank: 55 Bound: socket 1[core 47[hwt 0-1]]:[../../../../../../../../../../../../../../../../../../../../../../../../../../../../../../../..][../../../../../../../../../../../../../../../BB/../../../../../../../../../../../../../../../..]
 	Process OMPI jobid: [40474,1] App: 0 Process rank: 56 Bound: socket 1[core 52[hwt 0-1]]:[../../../../../../../../../../../../../../../../../../../../../../../../../../../../../../../..][../../../../../../../../../../../../../../../../../../../../BB/../../../../../../../../../../..]
 	Process OMPI jobid: [40474,1] App: 0 Process rank: 57 Bound: socket 1[core 53[hwt 0-1]]:[../../../../../../../../../../../../../../../../../../../../../../../../../../../../../../../..][../../../../../../../../../../../../../../../../../../../../../BB/../../../../../../../../../..]
 	Process OMPI jobid: [40474,1] App: 0 Process rank: 58 Bound: socket 1[core 54[hwt 0-1]]:[../../../../../../../../../../../../../../../../../../../../../../../../../../../../../../../..][../../../../../../../../../../../../../../../../../../../../../../BB/../../../../../../../../..]
 	Process OMPI jobid: [40474,1] App: 0 Process rank: 59 Bound: socket 1[core 55[hwt 0-1]]:[../../../../../../../../../../../../../../../../../../../../../../../../../../../../../../../..][../../../../../../../../../../../../../../../../../../../../../../../BB/../../../../../../../..]
 	Process OMPI jobid: [40474,1] App: 0 Process rank: 60 Bound: socket 1[core 60[hwt 0-1]]:[../../../../../../../../../../../../../../../../../../../../../../../../../../../../../../../..][../../../../../../../../../../../../../../../../../../../../../../../../../../../../BB/../../..]
 	Process OMPI jobid: [40474,1] App: 0 Process rank: 61 Bound: socket 1[core 61[hwt 0-1]]:[../../../../../../../../../../../../../../../../../../../../../../../../../../../../../../../..][../../../../../../../../../../../../../../../../../../../../../../../../../../../../../BB/../..]
 	Process OMPI jobid: [40474,1] App: 0 Process rank: 62 Bound: socket 1[core 62[hwt 0-1]]:[../../../../../../../../../../../../../../../../../../../../../../../../../../../../../../../..][../../../../../../../../../../../../../../../../../../../../../../../../../../../../../../BB/..]
 	Process OMPI jobid: [40474,1] App: 0 Process rank: 63 Bound: socket 1[core 63[hwt 0-1]]:[../../../../../../../../../../../../../../../../../../../../../../../../../../../../../../../..][../../../../../../../../../../../../../../../../../../../../../../../../../../../../../../../BB]

 =============================================================
Single Size change topo
dune-size 242048-1.1 1.15917e-06 7.18333e-07 0.0189675 0.0190557 0.0190866 0.0188001 0.0190585 0.0190576 0.0187633 0.0188137 0.0185688 0.0177229 0.0186478 0.0185272 0.0185645 0.0185923 0.0189707 0.018958 0.0195092 0.0196479 0.0199013 0.019416 0.0191338 0.0191161 0.0193254 0.019494 0.0192813 0.01949 0.019203 0.0194864 0.0191945 0.0195556 0.0186636 0.0185913 0.018681 0.0187883 0.0188058 0.0188262 0.0187584 0.018634 0.0190293 0.0189217 0.0189178 0.0187693 0.0186444 0.0184109 0.0188788 0.0187622 0.0191434 0.0190552 0.0187509 0.0185456 0.018748 0.0190953 0.0194482 0.0188498 0.0191747 0.0190985 0.0190078 0.0187493 0.0184633 0.0186149 0.0186031 0.0187847 
dune-size 242048-1.2 9.90833e-07 8.73333e-07 0.0124576 0.0124506 0.0124627 0.0124613 0.0125967 0.0125899 0.0123418 0.0123418 0.0128257 0.0128241 0.0128208 0.0128213 0.0128497 0.0128495 0.0128372 0.0128334 0.0126657 0.0126559 0.0126271 0.0126202 0.0124782 0.0124881 0.012636 0.0126345 0.0125 0.0125007 0.0126109 0.0126128 0.0125533 0.0125507 0.0124524 0.0124517 0.012407 0.0124001 0.0128333 0.0128 0.0128104 0.0128192 0.0127752 0.0127739 0.0127192 0.0127308 0.0125836 0.0125835 0.0126318 0.0126343 0.0129221 0.0129154 0.0129309 0.0129312 0.0128631 0.0128464 0.0128416 0.0128421 0.0128627 0.0128539 0.0128333 0.012834 0.0129071 0.0129038 0.0129012 0.0129004 
dune-size 242048-1.3 9.03333e-07 8.80833e-07 0.0127835 0.0127452 0.0127657 0.0131528 0.0131601 0.0131613 0.0131027 0.0128842 0.0129449 0.0127771 0.0129097 0.012865 0.0128805 0.012696 0.0131598 0.01316 0.013169 0.0128211 0.0129344 0.0126537 0.0127389 0.0127936 0.0129562 0.0131374 0.0131506 0.0128846 0.0131346 0.0129762 0.0128791 0.0126952 0.012943 0.012801 0.0127647 0.0127843 0.0131605 0.0131661 0.0131656 0.013163 0.0129022 0.0129589 0.0127789 0.0129029 0.0128581 0.0128739 0.0126906 0.0131292 0.0131449 0.0131618 0.0128207 0.0129361 0.0126538 0.0127371 0.012816 0.0129464 0.0131409 0.0131568 0.0128873 0.0131606 0.0129836 0.0128765 0.0126989 0.0129547 
dune-size 7808-31 0.0151397 0.0149579 0.0149597 0.0149563 0.0149492 0.0149355 0.0149408 0.0149545 0.0149527 0.0149349 0.0149864 0.014939 0.014965 0.0149373 0.0149465 0.0149509 0.0149616 0.0149633 0.01498 0.0149669 0.0149747 0.0149882 0.0149953 0.0149765 0.0149687 0.0149706 0.0149782 0.014982 0.0149935 0.0149917 0.0149729 0.01499 0.0134007 0.0133911 0.0134026 0.0133911 0.0134082 0.0133989 0.0134044 0.0134064 0.0133925 0.0133924 0.0133923 0.0133924 0.013397 0.0133953 0.0133935 0.0133932 0.013424 0.0134239 0.0134237 0.0134236 0.0134181 0.0134177 0.0134184 0.0134185 0.0134349 0.0134347 0.0134339 0.0134339 0.0134366 0.0134371 0.0134366 0.0134369 
dune-size 7808-31.5 0.0165181 0.0165064 0.0165029 0.0165046 0.0164832 0.0164837 0.0164875 0.0164855 0.0164894 0.016495 0.0165079 0.0164931 0.0164913 0.0165043 0.0164969 0.0164987 0.0165061 0.0165059 0.0164933 0.0165041 0.0165162 0.016513 0.0165125 0.0165145 0.0164924 0.0164907 0.0164853 0.0164942 0.0164833 0.0164831 0.0164758 0.0165307 0.0164777 0.0164778 0.0164781 0.0166591 0.0164772 0.016479 0.0164809 0.0164828 0.0164865 0.0164847 0.0164884 0.0164903 0.016496 0.0164922 0.016494 0.0164978 0.0165286 0.0165195 0.0164997 0.0165015 0.0165267 0.016658 0.016519 0.0165234 0.0165034 0.0165051 0.0165106 0.0165216 0.0165087 0.0165198 0.016507 0.0165123 
dune-size 3968-61 5.068e-07 5.021e-07 0.0193004 0.0193005 0.0193009 0.0193008 1.39459 0.0193008 0.0193008 0.0193008 0.0193008 0.0193008 0.0193011 0.0193011 0.019301 0.0193012 0.0193012 0.0193012 0.0193012 0.0193012 1.39459 0.0193012 0.0193013 1.38995 0.0193013 0.0193456 0.0193012 0.0193013 0.0193014 0.0193447 0.0193129 0.0193014 0.0193013 0.0193013 0.0193013 0.0193013 0.0193015 0.0193015 0.0193015 0.0193015 0.0193016 0.0193017 0.0193016 0.0193016 0.0193427 0.0193018 0.0193017 0.0193017 0.0193418 0.0193018 0.0193409 0.0193437 0.0193395 0.0193108 0.019302 0.019302 1.39459 0.0193119 0.0193019 0.0193139 1.39459 1.39459 1.40296 1.39548 
dune-size 968192-1.1 1.39083e-06 7.19167e-07 0.0695279 0.0702683 0.0709059 0.0709662 0.0708392 0.0708594 0.071154 0.0700863 0.0701694 0.0702389 0.0705529 0.0698624 0.0693864 0.0693082 0.0708815 0.0708959 0.07087 0.0709084 0.0711991 0.071224 0.071226 0.0708921 0.0695012 0.0688723 0.0688407 0.0688704 0.0693329 0.0700951 0.0703915 0.0708847 0.0708281 0.0708904 0.0706319 0.0710263 0.069815 0.0704452 0.0695047 0.0699943 0.0683123 0.0685935 0.0692164 0.0692806 0.0687965 0.0690814 0.0691797 0.0675296 0.0694789 0.069171 0.0691693 0.0688425 0.070757 0.0710599 0.0714082 0.0713323 0.071073 0.0714614 0.0710709 0.0712594 0.0707231 0.0710514 0.0707571 0.0714707 
dune-size 968192-1.2 9.31667e-07 8.8e-07 0.0492303 0.0492297 0.0514598 0.0514779 0.0504081 0.0504462 0.0505948 0.0506259 0.0514716 0.0514044 0.0513865 0.0513866 0.053789 0.0537434 0.051058 0.0510979 0.051621 0.0516488 0.0513957 0.0514082 0.0510579 0.0511119 0.0523112 0.0523562 0.0524215 0.0524661 0.0512324 0.051285 0.0506014 0.0505631 0.0507357 0.0507096 0.0521209 0.052076 0.0515716 0.0515649 0.0518264 0.0518242 0.0519671 0.0519306 0.0516427 0.0516526 0.0525243 0.0525518 0.0532862 0.0532722 0.0524679 0.0524404 0.0521233 0.0521442 0.0522782 0.0522419 0.0516958 0.0516611 0.0511518 0.0512095 0.050542 0.0505708 0.0523045 0.05226 0.0520928 0.0520977 
dune-size 968192-1.3 1.06333e-06 7.70833e-07 0.051265 0.0509464 0.051726 0.0526448 0.0528927 0.0511769 0.0513741 0.0524009 0.052773 0.0508602 0.0526475 0.0533862 0.0514706 0.0532882 0.0528525 0.0520287 0.0516979 0.050932 0.0534309 0.053448 0.0525932 0.0518673 0.0528106 0.0513609 0.0520138 0.0508481 0.0522277 0.053462 0.0531625 0.0517601 0.0534792 0.0513475 0.0509899 0.0516552 0.0526354 0.0529307 0.0511366 0.0513997 0.0523946 0.052806 0.050813 0.0526751 0.0533514 0.0515098 0.0533386 0.0528352 0.0519717 0.0517162 0.050956 0.0533273 0.0533753 0.0526067 0.0518374 0.0528413 0.0513763 0.0520909 0.0508421 0.0522374 0.0535007 0.0531838 0.0517866 0.0535813 
dune-size 31232-31 0.0601998 0.0599801 0.0599799 0.0599797 0.0600765 0.0599799 0.0599799 0.0601394 0.0601863 0.0599802 0.0601933 0.0599806 0.0599807 0.0599807 0.0601532 0.0599807 0.0601602 0.0601721 0.0600934 0.060063 0.0601143 0.0601792 0.0601463 0.0601211 0.060056 0.0601326 0.0600698 0.0599813 0.0599809 0.0600833 0.0601002 0.060107 0.0508456 0.0508384 0.0508589 0.050817 0.0508889 0.0508959 0.050903 0.0509173 0.0508808 0.0508163 0.0508662 0.0508517 0.0508735 0.0508219 0.0508292 0.0508157 0.0509475 0.0509751 0.0509609 0.0509471 0.0509821 0.0509891 0.0509275 0.0509134 0.0510269 0.050956 0.0509376 0.0510126 0.0510024 0.0510223 0.0510054 0.0509925 
dune-size 31232-31.5 0.0635442 0.0635673 0.0643217 0.063568 0.0635686 0.0635692 0.0635699 0.0635706 0.0635713 0.0635719 0.0636532 0.0635726 0.0635733 0.0636089 0.0635744 0.0636603 0.0637339 0.063768 0.0636672 0.0636739 0.0636806 0.0637008 0.0636872 0.0637475 0.063714 0.0637544 0.0637612 0.0637206 0.0637407 0.0637074 0.063694 0.0637272 0.0635848 0.063602 0.0637392 0.0635863 0.0635845 0.0635843 0.0635843 0.0635843 0.0635859 0.0635858 0.0635859 0.0635858 0.0635859 0.0635859 0.0635859 0.0635859 0.0636013 0.0635872 0.063586 0.0636083 0.0636151 0.0635942 0.0635861 0.0635861 0.0635858 0.0635857 0.0636397 0.0635858 0.0636329 0.0636258 0.0635462 0.0643272 
dune-size 15872-61 5.229e-07 5.177e-07 0.0748463 0.0748134 0.0748161 0.0748161 0.0748165 0.0749969 0.0748142 0.0748153 0.074815 0.074815 0.0748164 0.0748166 0.0748166 0.0748162 0.0748143 0.0748143 0.0748143 0.0748144 0.0748136 0.0748136 0.0748136 0.110927 0.0748171 0.0748171 0.0748171 0.0748171 0.0748172 0.0748172 0.0748172 0.0748172 0.0748175 0.0748175 0.0748175 0.0749934 0.0748176 0.0748176 0.0748176 0.0748425 0.0748157 0.0748157 0.0748157 0.0748158 0.0748167 0.0748167 0.0748167 0.0748167 0.0748156 0.11214 0.0748155 0.0748155 0.074815 0.0748149 0.074815 0.0748149 0.0748173 0.0748173 0.0748173 0.0748173 0.0748173 0.0748173 0.0748173 0.0748173 
