 Data for JOB [8095,1] offset 0 Total slots allocated 4

 ========================   JOB MAP   ========================

 Data for node: srl-login1	Num slots: 4	Max slots: 0	Num procs: 4
 	Process OMPI jobid: [8095,1] App: 0 Process rank: 0 Bound: socket 0[core 0[hwt 0-1]]:[BB/../../../../../../../../../../../../../../..][../../../../../../../../../../../../../../../..]
 	Process OMPI jobid: [8095,1] App: 0 Process rank: 1 Bound: socket 0[core 8[hwt 0-1]]:[../../../../../../../../BB/../../../../../../..][../../../../../../../../../../../../../../../..]
 	Process OMPI jobid: [8095,1] App: 0 Process rank: 2 Bound: socket 1[core 16[hwt 0-1]]:[../../../../../../../../../../../../../../../..][BB/../../../../../../../../../../../../../../..]
 	Process OMPI jobid: [8095,1] App: 0 Process rank: 3 Bound: socket 1[core 24[hwt 0-1]]:[../../../../../../../../../../../../../../../..][../../../../../../../../BB/../../../../../../..]

 =============================================================
[1578562078.624526] [srl-login1:18390:0]         mxm.c:196  MXM  WARN  The 'ulimit -s' on the system is set to 'unlimited'. This may have negative performance implications. Please set the stack size to the default value (10240) 
[1578562078.624450] [srl-login1:18391:0]         mxm.c:196  MXM  WARN  The 'ulimit -s' on the system is set to 'unlimited'. This may have negative performance implications. Please set the stack size to the default value (10240) 
[1578562078.624445] [srl-login1:18392:0]         mxm.c:196  MXM  WARN  The 'ulimit -s' on the system is set to 'unlimited'. This may have negative performance implications. Please set the stack size to the default value (10240) 
[1578562078.624642] [srl-login1:18389:0]         mxm.c:196  MXM  WARN  The 'ulimit -s' on the system is set to 'unlimited'. This may have negative performance implications. Please set the stack size to the default value (10240) 
0: 12 
Edge Weight Method: 12
Cell on rank 0: 90071
Cell on rank 1: 86867
Cell on rank 2: 89257
Cell on rank 3: 89212
Edge-cut: 377552

Rank 0 ghostCells: 4949
Rank 1 ghostCells: 4027
Rank 2 ghostCells: 2378
Rank 3 ghostCells: 2845

Rank 0 numCells: 95020
Rank 1 numCells: 90894
Rank 2 numCells: 91635
Rank 3 numCells: 92057

Rank 0 interiorCells: 90071
Rank 1 interiorCells: 86867
Rank 2 interiorCells: 89257
Rank 3 interiorCells: 89212

MeasComm+1 4: 0.000203019 0.000176794 0.000155652 0.000152069 
MeasComm+1 4: 0.000200903 0.000175676 0.000153849 0.000147419 
MeasComm+1 4: 0.000202158 0.000173016 0.000153659 0.000146607 
MeasComm+1 4: 0.000202305 0.000175861 0.000152005 0.000146301 
MeasComm+1 4: 0.000202008 0.000175886 0.000153928 0.000148526 
MeasComm+1 4: 0.00020178 0.000175845 0.000151936 0.000147454 
MeasComm+1 4: 0.00020063 0.000176077 0.000152927 0.00014763 
MeasComm+1 4: 0.000201292 0.000175384 0.000152287 0.000148661 
MeasComm+1 4: 0.000202441 0.00017647 0.000154344 0.000148108 
MeasComm+1 4: 0.000202378 0.000173728 0.000152238 0.000148052 

ComTab rank 0: 0 2330 1868 803 
ComTab rank 1: 2442 0 0 1614 
ComTab rank 2: 1891 0 0 513 
ComTab rank 3: 795 1616 491 0 

Edge-cut: 11275

Wgt-cut: 1.39446e-07

[1578562116.190625] [srl-login1:18392:0]          mpool.c:38   UCX  WARN  object 0x155544120ee0 was not returned to mpool mm_recv_desc
[1578562116.190986] [srl-login1:18391:0]          mpool.c:38   UCX  WARN  object 0x155544122f60 was not returned to mpool mm_recv_desc
[1578562116.191074] [srl-login1:18390:0]          mpool.c:38   UCX  WARN  object 0x15554411ee60 was not returned to mpool mm_recv_desc
