 Data for JOB [4357,1] offset 0 Total slots allocated 32

 ========================   JOB MAP   ========================

 Data for node: srl-login1	Num slots: 32	Max slots: 0	Num procs: 32
 	Process OMPI jobid: [4357,1] App: 0 Process rank: 0 Bound: socket 0[core 0[hwt 0-1]]:[BB/../../../../../../../../../../../../../../..][../../../../../../../../../../../../../../../..]
 	Process OMPI jobid: [4357,1] App: 0 Process rank: 1 Bound: socket 0[core 1[hwt 0-1]]:[../BB/../../../../../../../../../../../../../..][../../../../../../../../../../../../../../../..]
 	Process OMPI jobid: [4357,1] App: 0 Process rank: 2 Bound: socket 0[core 2[hwt 0-1]]:[../../BB/../../../../../../../../../../../../..][../../../../../../../../../../../../../../../..]
 	Process OMPI jobid: [4357,1] App: 0 Process rank: 3 Bound: socket 0[core 3[hwt 0-1]]:[../../../BB/../../../../../../../../../../../..][../../../../../../../../../../../../../../../..]
 	Process OMPI jobid: [4357,1] App: 0 Process rank: 4 Bound: socket 0[core 4[hwt 0-1]]:[../../../../BB/../../../../../../../../../../..][../../../../../../../../../../../../../../../..]
 	Process OMPI jobid: [4357,1] App: 0 Process rank: 5 Bound: socket 0[core 5[hwt 0-1]]:[../../../../../BB/../../../../../../../../../..][../../../../../../../../../../../../../../../..]
 	Process OMPI jobid: [4357,1] App: 0 Process rank: 6 Bound: socket 0[core 6[hwt 0-1]]:[../../../../../../BB/../../../../../../../../..][../../../../../../../../../../../../../../../..]
 	Process OMPI jobid: [4357,1] App: 0 Process rank: 7 Bound: socket 0[core 7[hwt 0-1]]:[../../../../../../../BB/../../../../../../../..][../../../../../../../../../../../../../../../..]
 	Process OMPI jobid: [4357,1] App: 0 Process rank: 8 Bound: socket 0[core 8[hwt 0-1]]:[../../../../../../../../BB/../../../../../../..][../../../../../../../../../../../../../../../..]
 	Process OMPI jobid: [4357,1] App: 0 Process rank: 9 Bound: socket 0[core 9[hwt 0-1]]:[../../../../../../../../../BB/../../../../../..][../../../../../../../../../../../../../../../..]
 	Process OMPI jobid: [4357,1] App: 0 Process rank: 10 Bound: socket 0[core 10[hwt 0-1]]:[../../../../../../../../../../BB/../../../../..][../../../../../../../../../../../../../../../..]
 	Process OMPI jobid: [4357,1] App: 0 Process rank: 11 Bound: socket 0[core 11[hwt 0-1]]:[../../../../../../../../../../../BB/../../../..][../../../../../../../../../../../../../../../..]
 	Process OMPI jobid: [4357,1] App: 0 Process rank: 12 Bound: socket 0[core 12[hwt 0-1]]:[../../../../../../../../../../../../BB/../../..][../../../../../../../../../../../../../../../..]
 	Process OMPI jobid: [4357,1] App: 0 Process rank: 13 Bound: socket 0[core 13[hwt 0-1]]:[../../../../../../../../../../../../../BB/../..][../../../../../../../../../../../../../../../..]
 	Process OMPI jobid: [4357,1] App: 0 Process rank: 14 Bound: socket 0[core 14[hwt 0-1]]:[../../../../../../../../../../../../../../BB/..][../../../../../../../../../../../../../../../..]
 	Process OMPI jobid: [4357,1] App: 0 Process rank: 15 Bound: socket 0[core 15[hwt 0-1]]:[../../../../../../../../../../../../../../../BB][../../../../../../../../../../../../../../../..]
 	Process OMPI jobid: [4357,1] App: 0 Process rank: 16 Bound: socket 1[core 16[hwt 0-1]]:[../../../../../../../../../../../../../../../..][BB/../../../../../../../../../../../../../../..]
 	Process OMPI jobid: [4357,1] App: 0 Process rank: 17 Bound: socket 1[core 17[hwt 0-1]]:[../../../../../../../../../../../../../../../..][../BB/../../../../../../../../../../../../../..]
 	Process OMPI jobid: [4357,1] App: 0 Process rank: 18 Bound: socket 1[core 18[hwt 0-1]]:[../../../../../../../../../../../../../../../..][../../BB/../../../../../../../../../../../../..]
 	Process OMPI jobid: [4357,1] App: 0 Process rank: 19 Bound: socket 1[core 19[hwt 0-1]]:[../../../../../../../../../../../../../../../..][../../../BB/../../../../../../../../../../../..]
 	Process OMPI jobid: [4357,1] App: 0 Process rank: 20 Bound: socket 1[core 20[hwt 0-1]]:[../../../../../../../../../../../../../../../..][../../../../BB/../../../../../../../../../../..]
 	Process OMPI jobid: [4357,1] App: 0 Process rank: 21 Bound: socket 1[core 21[hwt 0-1]]:[../../../../../../../../../../../../../../../..][../../../../../BB/../../../../../../../../../..]
 	Process OMPI jobid: [4357,1] App: 0 Process rank: 22 Bound: socket 1[core 22[hwt 0-1]]:[../../../../../../../../../../../../../../../..][../../../../../../BB/../../../../../../../../..]
 	Process OMPI jobid: [4357,1] App: 0 Process rank: 23 Bound: socket 1[core 23[hwt 0-1]]:[../../../../../../../../../../../../../../../..][../../../../../../../BB/../../../../../../../..]
 	Process OMPI jobid: [4357,1] App: 0 Process rank: 24 Bound: socket 1[core 24[hwt 0-1]]:[../../../../../../../../../../../../../../../..][../../../../../../../../BB/../../../../../../..]
 	Process OMPI jobid: [4357,1] App: 0 Process rank: 25 Bound: socket 1[core 25[hwt 0-1]]:[../../../../../../../../../../../../../../../..][../../../../../../../../../BB/../../../../../..]
 	Process OMPI jobid: [4357,1] App: 0 Process rank: 26 Bound: socket 1[core 26[hwt 0-1]]:[../../../../../../../../../../../../../../../..][../../../../../../../../../../BB/../../../../..]
 	Process OMPI jobid: [4357,1] App: 0 Process rank: 27 Bound: socket 1[core 27[hwt 0-1]]:[../../../../../../../../../../../../../../../..][../../../../../../../../../../../BB/../../../..]
 	Process OMPI jobid: [4357,1] App: 0 Process rank: 28 Bound: socket 1[core 28[hwt 0-1]]:[../../../../../../../../../../../../../../../..][../../../../../../../../../../../../BB/../../..]
 	Process OMPI jobid: [4357,1] App: 0 Process rank: 29 Bound: socket 1[core 29[hwt 0-1]]:[../../../../../../../../../../../../../../../..][../../../../../../../../../../../../../BB/../..]
 	Process OMPI jobid: [4357,1] App: 0 Process rank: 30 Bound: socket 1[core 30[hwt 0-1]]:[../../../../../../../../../../../../../../../..][../../../../../../../../../../../../../../BB/..]
 	Process OMPI jobid: [4357,1] App: 0 Process rank: 31 Bound: socket 1[core 31[hwt 0-1]]:[../../../../../../../../../../../../../../../..][../../../../../../../../../../../../../../../BB]

 =============================================================
[1578562118.146678] [srl-login1:18802:0]         mxm.c:196  MXM  WARN  The 'ulimit -s' on the system is set to 'unlimited'. This may have negative performance implications. Please set the stack size to the default value (10240) 
[1578562118.146850] [srl-login1:18801:0]         mxm.c:196  MXM  WARN  The 'ulimit -s' on the system is set to 'unlimited'. This may have negative performance implications. Please set the stack size to the default value (10240) 
[1578562118.147097] [srl-login1:18813:0]         mxm.c:196  MXM  WARN  The 'ulimit -s' on the system is set to 'unlimited'. This may have negative performance implications. Please set the stack size to the default value (10240) 
[1578562118.147428] [srl-login1:18800:0]         mxm.c:196  MXM  WARN  The 'ulimit -s' on the system is set to 'unlimited'. This may have negative performance implications. Please set the stack size to the default value (10240) 
[1578562118.147579] [srl-login1:18805:0]         mxm.c:196  MXM  WARN  The 'ulimit -s' on the system is set to 'unlimited'. This may have negative performance implications. Please set the stack size to the default value (10240) 
[1578562118.148603] [srl-login1:18810:0]         mxm.c:196  MXM  WARN  The 'ulimit -s' on the system is set to 'unlimited'. This may have negative performance implications. Please set the stack size to the default value (10240) 
[1578562118.151358] [srl-login1:18815:0]         mxm.c:196  MXM  WARN  The 'ulimit -s' on the system is set to 'unlimited'. This may have negative performance implications. Please set the stack size to the default value (10240) 
[1578562118.155143] [srl-login1:18852:0]         mxm.c:196  MXM  WARN  The 'ulimit -s' on the system is set to 'unlimited'. This may have negative performance implications. Please set the stack size to the default value (10240) 
[1578562118.156000] [srl-login1:18814:0]         mxm.c:196  MXM  WARN  The 'ulimit -s' on the system is set to 'unlimited'. This may have negative performance implications. Please set the stack size to the default value (10240) 
[1578562118.156341] [srl-login1:18842:0]         mxm.c:196  MXM  WARN  The 'ulimit -s' on the system is set to 'unlimited'. This may have negative performance implications. Please set the stack size to the default value (10240) 
[1578562118.157376] [srl-login1:18843:0]         mxm.c:196  MXM  WARN  The 'ulimit -s' on the system is set to 'unlimited'. This may have negative performance implications. Please set the stack size to the default value (10240) 
[1578562118.157376] [srl-login1:18850:0]         mxm.c:196  MXM  WARN  The 'ulimit -s' on the system is set to 'unlimited'. This may have negative performance implications. Please set the stack size to the default value (10240) 
[1578562118.161092] [srl-login1:18807:0]         mxm.c:196  MXM  WARN  The 'ulimit -s' on the system is set to 'unlimited'. This may have negative performance implications. Please set the stack size to the default value (10240) 
[1578562118.161159] [srl-login1:18804:0]         mxm.c:196  MXM  WARN  The 'ulimit -s' on the system is set to 'unlimited'. This may have negative performance implications. Please set the stack size to the default value (10240) 
[1578562118.161266] [srl-login1:18799:0]         mxm.c:196  MXM  WARN  The 'ulimit -s' on the system is set to 'unlimited'. This may have negative performance implications. Please set the stack size to the default value (10240) 
[1578562118.161259] [srl-login1:18803:0]         mxm.c:196  MXM  WARN  The 'ulimit -s' on the system is set to 'unlimited'. This may have negative performance implications. Please set the stack size to the default value (10240) 
[1578562118.162476] [srl-login1:18811:0]         mxm.c:196  MXM  WARN  The 'ulimit -s' on the system is set to 'unlimited'. This may have negative performance implications. Please set the stack size to the default value (10240) 
[1578562118.163688] [srl-login1:18823:0]         mxm.c:196  MXM  WARN  The 'ulimit -s' on the system is set to 'unlimited'. This may have negative performance implications. Please set the stack size to the default value (10240) 
[1578562118.164989] [srl-login1:18812:0]         mxm.c:196  MXM  WARN  The 'ulimit -s' on the system is set to 'unlimited'. This may have negative performance implications. Please set the stack size to the default value (10240) 
[1578562118.164975] [srl-login1:18846:0]         mxm.c:196  MXM  WARN  The 'ulimit -s' on the system is set to 'unlimited'. This may have negative performance implications. Please set the stack size to the default value (10240) 
[1578562118.165009] [srl-login1:18861:0]         mxm.c:196  MXM  WARN  The 'ulimit -s' on the system is set to 'unlimited'. This may have negative performance implications. Please set the stack size to the default value (10240) 
[1578562118.166735] [srl-login1:18808:0]         mxm.c:196  MXM  WARN  The 'ulimit -s' on the system is set to 'unlimited'. This may have negative performance implications. Please set the stack size to the default value (10240) 
[1578562118.166748] [srl-login1:18809:0]         mxm.c:196  MXM  WARN  The 'ulimit -s' on the system is set to 'unlimited'. This may have negative performance implications. Please set the stack size to the default value (10240) 
[1578562118.166770] [srl-login1:18816:0]         mxm.c:196  MXM  WARN  The 'ulimit -s' on the system is set to 'unlimited'. This may have negative performance implications. Please set the stack size to the default value (10240) 
[1578562118.166819] [srl-login1:18822:0]         mxm.c:196  MXM  WARN  The 'ulimit -s' on the system is set to 'unlimited'. This may have negative performance implications. Please set the stack size to the default value (10240) 
[1578562118.166830] [srl-login1:18834:0]         mxm.c:196  MXM  WARN  The 'ulimit -s' on the system is set to 'unlimited'. This may have negative performance implications. Please set the stack size to the default value (10240) 
[1578562118.166817] [srl-login1:18858:0]         mxm.c:196  MXM  WARN  The 'ulimit -s' on the system is set to 'unlimited'. This may have negative performance implications. Please set the stack size to the default value (10240) 
[1578562118.167266] [srl-login1:18806:0]         mxm.c:196  MXM  WARN  The 'ulimit -s' on the system is set to 'unlimited'. This may have negative performance implications. Please set the stack size to the default value (10240) 
[1578562118.167285] [srl-login1:18828:0]         mxm.c:196  MXM  WARN  The 'ulimit -s' on the system is set to 'unlimited'. This may have negative performance implications. Please set the stack size to the default value (10240) 
[1578562118.167336] [srl-login1:18825:0]         mxm.c:196  MXM  WARN  The 'ulimit -s' on the system is set to 'unlimited'. This may have negative performance implications. Please set the stack size to the default value (10240) 
[1578562118.167338] [srl-login1:18836:0]         mxm.c:196  MXM  WARN  The 'ulimit -s' on the system is set to 'unlimited'. This may have negative performance implications. Please set the stack size to the default value (10240) 
[1578562118.167424] [srl-login1:18855:0]         mxm.c:196  MXM  WARN  The 'ulimit -s' on the system is set to 'unlimited'. This may have negative performance implications. Please set the stack size to the default value (10240) 
0: 12 
Edge Weight Method: 12
Cell on rank 0: 10341
Cell on rank 1: 10311
Cell on rank 2: 12216
Cell on rank 3: 11231
Cell on rank 4: 10410
Cell on rank 5: 10374
Cell on rank 6: 12217
Cell on rank 7: 12216
Cell on rank 8: 11085
Cell on rank 9: 12217
Cell on rank 10: 11555
Cell on rank 11: 10096
Cell on rank 12: 10394
Cell on rank 13: 12055
Cell on rank 14: 10102
Cell on rank 15: 11528
Cell on rank 16: 11346
Cell on rank 17: 11090
Cell on rank 18: 11100
Cell on rank 19: 10849
Cell on rank 20: 11751
Cell on rank 21: 12171
Cell on rank 22: 10646
Cell on rank 23: 10096
Cell on rank 24: 10096
Cell on rank 25: 11121
Cell on rank 26: 10096
Cell on rank 27: 10974
Cell on rank 28: 10834
Cell on rank 29: 11273
Cell on rank 30: 11637
Cell on rank 31: 11979
Edge-cut: 1487428

Rank 0 ghostCells: 2893
Rank 1 ghostCells: 1972
Rank 2 ghostCells: 1770
Rank 3 ghostCells: 1391
Rank 4 ghostCells: 1976
Rank 5 ghostCells: 1461
Rank 6 ghostCells: 2893
Rank 7 ghostCells: 2696
Rank 8 ghostCells: 2047
Rank 9 ghostCells: 2814
Rank 10 ghostCells: 2243
Rank 11 ghostCells: 1823
Rank 12 ghostCells: 2404
Rank 13 ghostCells: 2906
Rank 14 ghostCells: 3278
Rank 15 ghostCells: 4462
Rank 16 ghostCells: 856
Rank 17 ghostCells: 1256
Rank 18 ghostCells: 1545
Rank 19 ghostCells: 1822
Rank 20 ghostCells: 1333
Rank 21 ghostCells: 2409
Rank 22 ghostCells: 2014
Rank 23 ghostCells: 2208
Rank 24 ghostCells: 2072
Rank 25 ghostCells: 2228
Rank 26 ghostCells: 2095
Rank 27 ghostCells: 2261
Rank 28 ghostCells: 1369
Rank 29 ghostCells: 657
Rank 30 ghostCells: 1808
Rank 31 ghostCells: 1929

Rank 0 numCells: 13234
Rank 1 numCells: 12283
Rank 2 numCells: 13986
Rank 3 numCells: 12622
Rank 4 numCells: 12386
Rank 5 numCells: 11835
Rank 6 numCells: 15110
Rank 7 numCells: 14912
Rank 8 numCells: 13132
Rank 9 numCells: 15031
Rank 10 numCells: 13798
Rank 11 numCells: 11919
Rank 12 numCells: 12798
Rank 13 numCells: 14961
Rank 14 numCells: 13380
Rank 15 numCells: 15990
Rank 16 numCells: 12202
Rank 17 numCells: 12346
Rank 18 numCells: 12645
Rank 19 numCells: 12671
Rank 20 numCells: 13084
Rank 21 numCells: 14580
Rank 22 numCells: 12660
Rank 23 numCells: 12304
Rank 24 numCells: 12168
Rank 25 numCells: 13349
Rank 26 numCells: 12191
Rank 27 numCells: 13235
Rank 28 numCells: 12203
Rank 29 numCells: 11930
Rank 30 numCells: 13445
Rank 31 numCells: 13908

Rank 0 interiorCells: 10341
Rank 1 interiorCells: 10311
Rank 2 interiorCells: 12216
Rank 3 interiorCells: 11231
Rank 4 interiorCells: 10410
Rank 5 interiorCells: 10374
Rank 6 interiorCells: 12217
Rank 7 interiorCells: 12216
Rank 8 interiorCells: 11085
Rank 9 interiorCells: 12217
Rank 10 interiorCells: 11555
Rank 11 interiorCells: 10096
Rank 12 interiorCells: 10394
Rank 13 interiorCells: 12055
Rank 14 interiorCells: 10102
Rank 15 interiorCells: 11528
Rank 16 interiorCells: 11346
Rank 17 interiorCells: 11090
Rank 18 interiorCells: 11100
Rank 19 interiorCells: 10849
Rank 20 interiorCells: 11751
Rank 21 interiorCells: 12171
Rank 22 interiorCells: 10646
Rank 23 interiorCells: 10096
Rank 24 interiorCells: 10096
Rank 25 interiorCells: 11121
Rank 26 interiorCells: 10096
Rank 27 interiorCells: 10974
Rank 28 interiorCells: 10834
Rank 29 interiorCells: 11273
Rank 30 interiorCells: 11637
Rank 31 interiorCells: 11979

MeasComm+1 32: 0.000162069 0.000130827 0.000116175 0.000106596 0.000128084 0.000106037 0.000161148 0.000167624 0.000157731 0.000173283 0.000146919 0.000135971 0.000180805 0.000201093 0.000205833 0.000232808 6.1195e-05 7.2216e-05 8.9483e-05 0.000102074 0.000106923 0.000137367 0.000119751 0.000122465 0.00014456 0.000153212 0.000110213 0.000130745 8.5405e-05 6.1994e-05 0.000101344 0.000104696 
MeasComm+1 32: 0.00016192 0.000130174 0.000118914 0.000108082 0.000128481 0.00010559 0.000160944 0.000170297 0.000156999 0.000172045 0.000146816 0.000135508 0.000180723 0.000201329 0.000212055 0.000231526 6.0916e-05 7.2043e-05 8.7118e-05 0.00010209 0.000105888 0.000136106 0.000119168 0.000121266 0.000144661 0.000149502 0.000110729 0.000127572 8.4894e-05 6.2143e-05 0.000102913 0.000105136 
MeasComm+1 32: 0.000163587 0.000128823 0.000119017 0.000108291 0.000131096 0.000105468 0.000162381 0.000169216 0.000157721 0.000172139 0.000146503 0.000135555 0.000180304 0.000201347 0.00020924 0.000232201 6.0823e-05 7.1762e-05 8.8601e-05 0.00010169 0.000103897 0.000136051 0.000119269 0.000120983 0.000144974 0.000147316 0.000111343 0.000127525 8.0815e-05 6.0988e-05 0.000102033 0.00010478 
MeasComm+1 32: 0.000162703 0.000106307 0.000119177 0.000110092 0.000124981 0.000105477 0.000162044 0.000167653 0.000158935 0.000160866 0.000144277 0.000135745 0.000170121 0.000195121 0.000203346 0.000232469 5.4675e-05 7.0695e-05 8.4497e-05 0.000101893 0.000103266 0.00013641 0.000118946 0.000121232 0.000146105 0.000144365 0.000108989 0.000127718 8.0836e-05 6.1912e-05 0.000101153 0.000105132 
MeasComm+1 32: 0.000161754 0.000128476 0.000118609 0.000108071 0.000126303 0.000105041 0.000160872 0.000167617 0.000157798 0.000172263 0.00014431 0.000135162 0.000180126 0.000201417 0.000212226 0.000232066 6.0603e-05 7.1925e-05 8.9014e-05 0.00010134 0.000105341 0.000136026 0.000118981 0.000120379 0.000143119 0.000153807 0.000111746 0.000128032 8.4567e-05 6.2127e-05 0.000101774 0.000105292 
MeasComm+1 32: 0.000162481 0.000129636 0.00011892 0.000109427 0.00012958 0.000105876 0.000162606 0.000169596 0.000154725 0.000171583 0.000144064 0.000135657 0.000180927 0.00020105 0.000202526 0.000232335 6.0717e-05 7.2072e-05 8.3699e-05 0.000101661 0.000105862 0.000136725 0.000119083 0.000121314 0.000143378 0.000152496 0.000108483 0.000128011 8.4635e-05 6.0863e-05 0.000100686 0.000105541 
MeasComm+1 32: 0.000164248 0.00012895 0.000120094 0.000109405 0.000129727 0.000105701 0.0001609 0.000169549 0.000157269 0.000172159 0.000147118 0.000135508 0.000180966 0.000201124 0.000212211 0.000232052 6.0793e-05 7.1784e-05 8.6062e-05 0.000101998 0.000105618 0.000135794 0.000118657 0.000121215 0.000146098 0.000152146 0.000109641 0.000127231 8.5309e-05 6.1791e-05 0.000104055 0.000105632 
MeasComm+1 32: 0.000163498 0.000127905 0.000119469 0.000107345 0.000127521 0.000105548 0.000162489 0.000168188 0.000158429 0.000171408 0.000146973 0.000135511 0.000177457 0.000200083 0.000210845 0.000230594 6.0631e-05 7.1701e-05 8.8456e-05 0.000102095 0.000106038 0.000134951 0.000118766 0.000120573 0.000144099 0.000153438 0.000110619 0.000127316 8.4471e-05 6.1886e-05 0.000103721 0.000105166 
MeasComm+1 32: 0.000162728 0.000130187 0.000118957 0.000107701 0.000129286 0.000105491 0.000162099 0.000167849 0.00015829 0.000165506 0.000146365 0.000135192 0.0001804 0.000188591 0.000199472 0.000232375 5.2657e-05 7.2377e-05 8.7463e-05 0.000101864 0.000107083 0.000136265 0.000118984 0.000121231 0.00014597 0.000154543 0.000108808 0.000127635 8.4716e-05 5.805e-05 0.000101199 0.000105294 
MeasComm+1 32: 0.000160238 0.000128175 0.000115706 0.000103921 0.00012659 0.000105676 0.00016226 0.000164944 0.000155919 0.000165863 0.000145815 0.000135565 0.000176072 0.000197696 0.000212502 0.000232629 6.0154e-05 7.1844e-05 8.7904e-05 0.000102095 0.000106017 0.000136897 0.000118815 0.000120843 0.000140635 0.000153623 0.000108761 0.000128027 8.4765e-05 6.2143e-05 0.000101518 0.000105419 

ComTab rank 0: 0 719 925 418 458 237 470 0 0 0 0 0 0 0 0 0 0 0 0 0 0 0 0 0 0 0 0 0 0 0 0 0 
ComTab rank 1: 702 0 504 0 0 0 795 168 0 0 0 0 0 0 0 0 0 0 0 0 0 0 0 0 0 0 0 0 0 0 0 0 
ComTab rank 2: 921 500 0 495 14 0 0 0 0 0 0 0 0 0 0 0 0 0 0 0 0 0 0 0 0 0 0 0 0 0 0 0 
ComTab rank 3: 419 0 491 0 315 301 0 0 0 0 0 0 0 0 0 0 0 0 0 0 0 0 0 0 0 0 0 0 0 0 0 0 
ComTab rank 4: 457 0 23 318 0 249 569 246 0 0 0 0 68 324 0 0 0 0 0 0 0 0 0 0 0 0 0 0 0 0 0 0 
ComTab rank 5: 261 0 0 302 247 0 171 342 0 0 0 181 35 43 0 0 0 0 0 0 0 0 0 0 0 0 0 0 0 0 0 0 
ComTab rank 6: 470 761 0 0 568 166 0 796 0 209 0 0 0 231 0 0 0 0 0 0 0 0 0 0 0 0 0 0 0 0 0 0 
ComTab rank 7: 0 168 0 0 244 343 775 0 129 393 0 128 6 777 0 0 0 0 0 0 0 0 0 0 0 0 0 0 0 0 0 0 
ComTab rank 8: 0 0 0 0 0 0 0 129 0 723 103 0 0 218 40 1003 0 0 0 0 0 0 0 0 0 66 0 0 0 0 0 0 
ComTab rank 9: 0 0 0 0 0 0 210 398 721 0 473 272 346 389 0 381 0 0 0 0 0 0 0 0 0 0 0 0 0 0 0 0 
ComTab rank 10: 0 0 0 0 0 0 0 0 99 468 0 442 3 0 199 233 0 0 0 0 377 602 118 0 0 36 0 0 0 0 0 0 
ComTab rank 11: 0 0 0 0 0 182 0 122 0 249 443 0 532 24 325 285 0 0 0 0 0 0 0 0 0 0 0 0 0 0 0 0 
ComTab rank 12: 0 0 0 0 68 29 0 6 0 329 3 543 0 742 55 951 0 0 0 0 0 0 0 0 0 0 0 0 0 0 0 0 
ComTab rank 13: 0 0 0 0 328 37 225 763 211 408 0 19 739 0 0 545 0 0 0 0 0 0 0 0 0 0 0 0 0 0 0 0 
ComTab rank 14: 0 0 0 0 0 0 0 0 40 0 214 340 76 0 0 1147 0 0 0 0 0 63 14 0 982 628 0 156 0 0 0 0 
ComTab rank 15: 0 0 0 0 0 0 0 0 989 415 254 339 1013 574 1196 0 0 0 0 0 0 0 0 0 0 270 0 0 0 0 0 0 
ComTab rank 16: 0 0 0 0 0 0 0 0 0 0 0 0 0 0 0 0 0 628 247 0 0 0 0 0 0 0 0 0 0 0 0 0 
ComTab rank 17: 0 0 0 0 0 0 0 0 0 0 0 0 0 0 0 0 630 0 447 243 0 0 0 0 0 0 0 0 0 0 0 0 
ComTab rank 18: 0 0 0 0 0 0 0 0 0 0 0 0 0 0 0 0 252 459 0 741 0 0 162 0 0 0 0 0 0 0 0 0 
ComTab rank 19: 0 0 0 0 0 0 0 0 0 0 0 0 0 0 0 0 0 245 672 0 0 0 646 364 0 0 0 0 0 0 0 0 
ComTab rank 20: 0 0 0 0 0 0 0 0 0 0 387 0 0 0 0 0 0 0 0 0 0 622 0 413 0 0 0 0 0 0 0 0 
ComTab rank 21: 0 0 0 0 0 0 0 0 0 0 601 0 0 0 57 0 0 0 0 0 608 0 543 678 0 127 0 0 0 0 0 0 
ComTab rank 22: 0 0 0 0 0 0 0 0 0 0 118 0 0 0 14 0 0 0 162 729 0 514 0 592 0 81 0 0 0 0 0 0 
ComTab rank 23: 0 0 0 0 0 0 0 0 0 0 0 0 0 0 0 0 0 0 0 392 409 687 619 0 0 189 0 122 0 0 0 0 
ComTab rank 24: 0 0 0 0 0 0 0 0 0 0 0 0 0 0 1014 0 0 0 0 0 0 0 0 0 0 534 313 339 0 0 0 0 
ComTab rank 25: 0 0 0 0 0 0 0 0 66 0 36 0 0 0 637 268 0 0 0 0 0 130 75 183 509 0 0 604 0 0 0 0 
ComTab rank 26: 0 0 0 0 0 0 0 0 0 0 0 0 0 0 0 0 0 0 0 0 0 0 0 0 329 0 0 917 0 0 544 417 
ComTab rank 27: 0 0 0 0 0 0 0 0 0 0 0 0 0 0 155 0 0 0 0 0 0 0 0 97 339 613 825 0 0 0 384 0 
ComTab rank 28: 0 0 0 0 0 0 0 0 0 0 0 0 0 0 0 0 0 0 0 0 0 0 0 0 0 0 0 0 0 532 227 652 
ComTab rank 29: 0 0 0 0 0 0 0 0 0 0 0 0 0 0 0 0 0 0 0 0 0 0 0 0 0 0 0 0 541 0 0 116 
ComTab rank 30: 0 0 0 0 0 0 0 0 0 0 0 0 0 0 0 0 0 0 0 0 0 0 0 0 0 0 528 380 227 0 0 817 
ComTab rank 31: 0 0 0 0 0 0 0 0 0 0 0 0 0 0 0 0 0 0 0 0 0 0 0 0 0 0 435 0 688 112 784 0 

Edge-cut: 49844

Wgt-cut: 5.21584e-07

[1578562175.252353] [srl-login1:18800:0]          mpool.c:38   UCX  WARN  object 0x5555643263c0 was not returned to mpool ucp_am_bufs
[1578562175.252687] [srl-login1:18816:0]          mpool.c:38   UCX  WARN  object 0x1555440ea160 was not returned to mpool mm_recv_desc
[1578562175.252717] [srl-login1:18804:0]          mpool.c:38   UCX  WARN  object 0x55555c633e00 was not returned to mpool ucp_am_bufs
[1578562175.252818] [srl-login1:18801:0]          mpool.c:38   UCX  WARN  object 0x555564326080 was not returned to mpool ucp_am_bufs
[1578562175.253471] [srl-login1:18808:0]          mpool.c:38   UCX  WARN  object 0x1555393f9de0 was not returned to mpool mm_recv_desc
