 Data for JOB [3418,1] offset 0 Total slots allocated 2

 ========================   JOB MAP   ========================

 Data for node: n001	Num slots: 2	Max slots: 0	Num procs: 2
 	Process OMPI jobid: [3418,1] App: 0 Process rank: 0 Bound: socket 1[core 57[hwt 0-1]]:[../../../../../../../../../../../../../../../../../../../../../../../../../../../../../../../..][../../../../../../../../../../../../../../../../../../../../../../../../../BB/../../../../../..]
 	Process OMPI jobid: [3418,1] App: 0 Process rank: 1 Bound: socket 0[core 2[hwt 0-1]]:[../../BB/../../../../../../../../../../../../../../../../../../../../../../../../../../../../..][../../../../../../../../../../../../../../../../../../../../../../../../../../../../../../../..]

 =============================================================
dune-size 1 5.38909e-06 5.38599e-06 
dune-size 2 5.23519e-06 5.23579e-06 
dune-size 4 5.35239e-06 5.35099e-06 
dune-size 8 5.59439e-06 5.59319e-06 
dune-size 16 6.84808e-06 6.84618e-06 
dune-size 32 6.88318e-06 6.88338e-06 
dune-size 64 8.54858e-06 8.54538e-06 
dune-size 128 1.19855e-05 1.19855e-05 
dune-size 256 1.97363e-05 1.97283e-05 
dune-size 512 3.34903e-05 3.3488e-05 
dune-size 1024 0.000107552 0.000107574 
dune-size 2048 0.00019682 0.000196805 
dune-size 4096 0.000378249 0.000378251 
dune-size 8192 0.000637869 0.000637906 
dune-size 16384 0.000948423 0.000948499 
dune-size 32768 0.00169638 0.00169622 
dune-size 65536 0.00333991 0.00333653 
dune-size 131072 0.00662699 0.00662099 
dune-size 262144 0.0129396 0.0129385 
dune-size 524288 0.0258387 0.0258382 
dune-size 1048576 0.0513132 0.0513291 
