 Data for JOB [51112,1] offset 0 Total slots allocated 2

 ========================   JOB MAP   ========================

 Data for node: n004	Num slots: 2	Max slots: 0	Num procs: 2
 	Process OMPI jobid: [51112,1] App: 0 Process rank: 0 Bound: socket 1[core 40[hwt 0-1]]:[../../../../../../../../../../../../../../../../../../../../../../../../../../../../../../../..][../../../../../../../../BB/../../../../../../../../../../../../../../../../../../../../../../..]
 	Process OMPI jobid: [51112,1] App: 0 Process rank: 1 Bound: socket 1[core 41[hwt 0-1]]:[../../../../../../../../../../../../../../../../../../../../../../../../../../../../../../../..][../../../../../../../../../BB/../../../../../../../../../../../../../../../../../../../../../..]

 =============================================================
[1579600958.939203] [n004:116407:0]         mxm.c:196  MXM  WARN  The 'ulimit -s' on the system is set to 'unlimited'. This may have negative performance implications. Please set the stack size to the default value (10240) 
[1579600958.939203] [n004:116408:0]         mxm.c:196  MXM  WARN  The 'ulimit -s' on the system is set to 'unlimited'. This may have negative performance implications. Please set the stack size to the default value (10240) 
0: 0 

Rank 0 ghostCells: 2196
Rank 1 ghostCells: 2157

Rank 0 numCells: 180974
Rank 1 numCells: 178786

Rank 0 interiorCells: 178778
Rank 1 interiorCells: 176629

MeasComm+1 2: 0.000184 0.000185991 
MeasComm+1 2: 0.00018429 0.00018611 
MeasComm+1 2: 0.00018448 0.00018459 
MeasComm+1 2: 0.00018539 0.00018565 
MeasComm+1 2: 0.00018676 0.00018681 
MeasComm+1 2: 0.0001836 0.00018856 
MeasComm+1 2: 0.00018343 0.00018546 
MeasComm+1 2: 0.00018857 0.00018778 
MeasComm+1 2: 0.00018463 0.00018617 
MeasComm+1 2: 0.00018608 0.00018656 

MeasCopy 2: 0.00010295 0.00010113 
MeasCopy 2: 0.00010284 0.00010107 
MeasCopy 2: 0.00010286 0.00010112 
MeasCopy 2: 0.0001029 0.00010109 
MeasCopy 2: 0.00010293 0.00010115 
MeasCopy 2: 0.00010296 0.0001011 
MeasCopy 2: 0.00010296 0.00010113 
MeasCopy 2: 0.00010293 0.00010113 
MeasCopy 2: 0.00010288 0.00010115 
MeasCopy 2: 0.000102961 0.00010112 

ComTab rank 0: 0 2196 
ComTab rank 1: 2157 0 

Edge-cut: 2643

Wgt-cut: 8.67629e-09

[1579601026.016964] [n004:116408:0]          mpool.c:38   UCX  WARN  object 0x155544122f60 was not returned to mpool mm_recv_desc
