[1578476926.936705] [srl-login1:30427:0]         mxm.c:196  MXM  WARN  The 'ulimit -s' on the system is set to 'unlimited'. This may have negative performance implications. Please set the stack size to the default value (10240) 
[1578476926.938922] [srl-login1:30424:0]         mxm.c:196  MXM  WARN  The 'ulimit -s' on the system is set to 'unlimited'. This may have negative performance implications. Please set the stack size to the default value (10240) 
[1578476926.940851] [srl-login1:30425:0]         mxm.c:196  MXM  WARN  The 'ulimit -s' on the system is set to 'unlimited'. This may have negative performance implications. Please set the stack size to the default value (10240) 
[1578476926.941833] [srl-login1:30426:0]         mxm.c:196  MXM  WARN  The 'ulimit -s' on the system is set to 'unlimited'. This may have negative performance implications. Please set the stack size to the default value (10240) 
[1578476926.946487] [srl-login1:30422:0]         mxm.c:196  MXM  WARN  The 'ulimit -s' on the system is set to 'unlimited'. This may have negative performance implications. Please set the stack size to the default value (10240) 
[1578476926.949584] [srl-login1:30423:0]         mxm.c:196  MXM  WARN  The 'ulimit -s' on the system is set to 'unlimited'. This may have negative performance implications. Please set the stack size to the default value (10240) 
[1578476926.951300] [srl-login1:30428:0]         mxm.c:196  MXM  WARN  The 'ulimit -s' on the system is set to 'unlimited'. This may have negative performance implications. Please set the stack size to the default value (10240) 
[1578476926.951321] [srl-login1:30429:0]         mxm.c:196  MXM  WARN  The 'ulimit -s' on the system is set to 'unlimited'. This may have negative performance implications. Please set the stack size to the default value (10240) 
0: 1 
After loadbalancing process 4 has 6469 cells.
After loadbalancing process 7 has 6666 cells.
After loadbalancing process 1 has 5045 cells.
After loadbalancing process 5 has 6920 cells.
After loadbalancing process 6 has 7999 cells.
After loadbalancing process 2 has 7731 cells.
After loadbalancing process 3 has 7627 cells.
After loadbalancing process 0 has 8149 cells.

Rank 0 ghostCells: 2161
Rank 1 ghostCells: 1001
Rank 2 ghostCells: 1997
Rank 3 ghostCells: 1763
Rank 4 ghostCells: 1053
Rank 5 ghostCells: 1161
Rank 6 ghostCells: 1893
Rank 7 ghostCells: 1146

Rank 0 numCells: 8149
Rank 1 numCells: 5045
Rank 2 numCells: 7731
Rank 3 numCells: 7627
Rank 4 numCells: 6469
Rank 5 numCells: 6920
Rank 6 numCells: 7999
Rank 7 numCells: 6666

Rank 0 interiorCells: 5988
Rank 1 interiorCells: 4044
Rank 2 interiorCells: 5734
Rank 3 interiorCells: 5864
Rank 4 interiorCells: 5416
Rank 5 interiorCells: 5759
Rank 6 interiorCells: 6106
Rank 7 interiorCells: 5520

ComTab rank 0: 0 343 1115 563 298 0 147 0 
ComTab rank 1: 367 0 73 102 498 90 92 14 
ComTab rank 2: 1108 69 0 919 0 7 138 0 
ComTab rank 3: 563 79 1035 0 0 11 285 83 
ComTab rank 4: 300 337 0 0 0 564 24 0 
ComTab rank 5: 0 91 7 28 577 0 395 182 
ComTab rank 6: 110 72 124 266 86 221 0 1215 
ComTab rank 7: 0 16 0 97 0 143 1017 0 

Edge-cut: 10835

Wgt-cut: 4.35902e-09

[1578476931.467018] [srl-login1:30426:0]          mpool.c:38   UCX  WARN  object 0x155544122f60 was not returned to mpool mm_recv_desc
[1578476931.467045] [srl-login1:30427:0]          mpool.c:38   UCX  WARN  object 0x1555393fbe60 was not returned to mpool mm_recv_desc
[1578476931.467147] [srl-login1:30428:0]          mpool.c:38   UCX  WARN  object 0x155544116c60 was not returned to mpool mm_recv_desc
[1578476931.467258] [srl-login1:30429:0]          mpool.c:38   UCX  WARN  object 0x1555393f7d60 was not returned to mpool mm_recv_desc
[1578476931.467287] [srl-login1:30424:0]          mpool.c:38   UCX  WARN  object 0x15554411cde0 was not returned to mpool mm_recv_desc
[1578476931.467358] [srl-login1:30425:0]          mpool.c:38   UCX  WARN  object 0x1555393fdee0 was not returned to mpool mm_recv_desc
[1578476931.467370] [srl-login1:30423:0]          mpool.c:38   UCX  WARN  object 0x155544118ce0 was not returned to mpool mm_recv_desc
