 Data for JOB [14785,1] offset 0 Total slots allocated 8

 ========================   JOB MAP   ========================

 Data for node: n003	Num slots: 8	Max slots: 0	Num procs: 8
 	Process OMPI jobid: [14785,1] App: 0 Process rank: 0 Bound: socket 1[core 56[hwt 0-1]]:[../../../../../../../../../../../../../../../../../../../../../../../../../../../../../../../..][../../../../../../../../../../../../../../../../../../../../../../../../BB/../../../../../../..]
 	Process OMPI jobid: [14785,1] App: 0 Process rank: 1 Bound: socket 1[core 57[hwt 0-1]]:[../../../../../../../../../../../../../../../../../../../../../../../../../../../../../../../..][../../../../../../../../../../../../../../../../../../../../../../../../../BB/../../../../../..]
 	Process OMPI jobid: [14785,1] App: 0 Process rank: 2 Bound: socket 1[core 58[hwt 0-1]]:[../../../../../../../../../../../../../../../../../../../../../../../../../../../../../../../..][../../../../../../../../../../../../../../../../../../../../../../../../../../BB/../../../../..]
 	Process OMPI jobid: [14785,1] App: 0 Process rank: 3 Bound: socket 1[core 59[hwt 0-1]]:[../../../../../../../../../../../../../../../../../../../../../../../../../../../../../../../..][../../../../../../../../../../../../../../../../../../../../../../../../../../../BB/../../../..]
 	Process OMPI jobid: [14785,1] App: 0 Process rank: 4 Bound: socket 1[core 36[hwt 0-1]]:[../../../../../../../../../../../../../../../../../../../../../../../../../../../../../../../..][../../../../BB/../../../../../../../../../../../../../../../../../../../../../../../../../../..]
 	Process OMPI jobid: [14785,1] App: 0 Process rank: 5 Bound: socket 1[core 37[hwt 0-1]]:[../../../../../../../../../../../../../../../../../../../../../../../../../../../../../../../..][../../../../../BB/../../../../../../../../../../../../../../../../../../../../../../../../../..]
 	Process OMPI jobid: [14785,1] App: 0 Process rank: 6 Bound: socket 1[core 38[hwt 0-1]]:[../../../../../../../../../../../../../../../../../../../../../../../../../../../../../../../..][../../../../../../BB/../../../../../../../../../../../../../../../../../../../../../../../../..]
 	Process OMPI jobid: [14785,1] App: 0 Process rank: 7 Bound: socket 1[core 39[hwt 0-1]]:[../../../../../../../../../../../../../../../../../../../../../../../../../../../../../../../..][../../../../../../../BB/../../../../../../../../../../../../../../../../../../../../../../../..]

 =============================================================
7 4 6
7 5 5
7 6 4
Two group cota
0 1 3
0 2 2
0 3 1
1 2 0
1 3 3
1 0 2
2 3 1
2 0 0
2 1 3
3 0 2
3 1 1
3 2 0
4 5 7
4 6 6
4 7 5
5 6 4
5 7 7
5 4 6
6 7 5
6 4 4
6 5 7
dune-size 1 7.17978e-06 7.14938e-06 7.16218e-06 7.15028e-06 7.10818e-06 7.10518e-06 7.11488e-06 7.12268e-06 
dune-size 2 6.59309e-06 6.58069e-06 6.58679e-06 6.57289e-06 6.51709e-06 6.52009e-06 6.52469e-06 6.52709e-06 
dune-size 4 6.89349e-06 6.87799e-06 6.88949e-06 6.88439e-06 6.87019e-06 6.86079e-06 6.85399e-06 6.85679e-06 
dune-size 8 7.53639e-06 7.52209e-06 7.54259e-06 7.53389e-06 7.54629e-06 7.54359e-06 7.54399e-06 7.54409e-06 
dune-size 16 8.65379e-06 8.65449e-06 8.66299e-06 8.65929e-06 9.75719e-06 9.74559e-06 9.75019e-06 9.74819e-06 
dune-size 32 1.08887e-05 1.08963e-05 1.09037e-05 1.08926e-05 1.09099e-05 1.09031e-05 1.09037e-05 1.09073e-05 
dune-size 64 1.57432e-05 1.57329e-05 1.57581e-05 1.57416e-05 1.57464e-05 1.57442e-05 1.57485e-05 1.57478e-05 
dune-size 128 2.49355e-05 2.49296e-05 2.4947e-05 2.49464e-05 2.52905e-05 2.53185e-05 2.53154e-05 2.52928e-05 
dune-size 256 4.33945e-05 4.34013e-05 4.33937e-05 4.34406e-05 4.37859e-05 4.39087e-05 4.38533e-05 4.37952e-05 
dune-size 512 8.01387e-05 8.00623e-05 8.005e-05 8.00408e-05 8.12391e-05 8.1397e-05 8.12791e-05 8.13571e-05 
dune-size 1024 0.000173241 0.000173012 0.0001734 0.000173011 0.000170753 0.00017109 0.000170884 0.000170757 
dune-size 2048 0.000323318 0.000323755 0.000323836 0.000323319 0.000325134 0.000325948 0.000325571 0.000325143 
dune-size 4096 0.000621499 0.000619916 0.000620764 0.00061997 0.000617761 0.000617764 0.000618607 0.000619003 
dune-size 8192 0.00120102 0.00119936 0.00120252 0.00119935 0.00121902 0.00122058 0.00121737 0.00121738 
dune-size 16384 0.00237519 0.00237519 0.00237796 0.00237527 0.00238972 0.00238911 0.00239137 0.00238904 
dune-size 32768 0.00480655 0.00480599 0.00480649 0.00480584 0.00488009 0.00488005 0.00487943 0.00487933 
dune-size 65536 0.00973102 0.00970929 0.00972591 0.00970841 0.00981466 0.00981455 0.00981 0.00980958 
dune-size 131072 0.0195877 0.0195537 0.0195839 0.0195604 0.0196381 0.0196368 0.0196385 0.0196364 
