 Data for JOB [16926,1] offset 0 Total slots allocated 2

 ========================   JOB MAP   ========================

 Data for node: n004	Num slots: 2	Max slots: 0	Num procs: 2
 	Process OMPI jobid: [16926,1] App: 0 Process rank: 0 Bound: socket 0[core 9[hwt 0-1]]:[../../../../../../../../../BB/../../../../../../../../../../../../../../../../../../../../../..][../../../../../../../../../../../../../../../../../../../../../../../../../../../../../../../..]
 	Process OMPI jobid: [16926,1] App: 0 Process rank: 1 Bound: socket 1[core 34[hwt 0-1]]:[../../../../../../../../../../../../../../../../../../../../../../../../../../../../../../../..][../../BB/../../../../../../../../../../../../../../../../../../../../../../../../../../../../..]

 =============================================================
dune-size 1 9.08651e-06 9.09541e-06 
dune-size 2 8.78201e-06 8.79301e-06 
dune-size 4 9.09441e-06 9.10391e-06 
dune-size 8 8.91592e-06 8.91992e-06 
dune-size 16 7.90591e-06 7.90221e-06 
dune-size 32 9.10741e-06 9.10681e-06 
dune-size 64 1.1826e-05 1.18372e-05 
dune-size 128 1.69419e-05 1.69656e-05 
dune-size 256 1.9933e-05 1.99298e-05 
dune-size 512 3.36438e-05 3.36372e-05 
dune-size 1024 0.00010653 0.000106517 
dune-size 2048 0.00020163 0.000201643 
dune-size 4096 0.000396608 0.000396654 
dune-size 8192 0.000667184 0.000667117 
dune-size 16384 0.000942377 0.000942385 
dune-size 32768 0.00169685 0.0016968 
dune-size 65536 0.00334095 0.00333911 
dune-size 131072 0.00660423 0.00660108 
dune-size 262144 0.0129931 0.0129896 
dune-size 524288 0.0257133 0.0257067 
dune-size 1048576 0.0515257 0.0514704 
