 Data for JOB [31374,1] offset 0 Total slots allocated 4

 ========================   JOB MAP   ========================

 Data for node: n004	Num slots: 4	Max slots: 0	Num procs: 4
 	Process OMPI jobid: [31374,1] App: 0 Process rank: 0 Bound: socket 0[core 17[hwt 0-1]]:[../../../../../../../../../../../../../../../../../BB/../../../../../../../../../../../../../..][../../../../../../../../../../../../../../../../../../../../../../../../../../../../../../../..]
 	Process OMPI jobid: [31374,1] App: 0 Process rank: 1 Bound: socket 1[core 43[hwt 0-1]]:[../../../../../../../../../../../../../../../../../../../../../../../../../../../../../../../..][../../../../../../../../../../../BB/../../../../../../../../../../../../../../../../../../../..]
 	Process OMPI jobid: [31374,1] App: 0 Process rank: 2 Bound: socket 0[core 18[hwt 0-1]]:[../../../../../../../../../../../../../../../../../../BB/../../../../../../../../../../../../..][../../../../../../../../../../../../../../../../../../../../../../../../../../../../../../../..]
 	Process OMPI jobid: [31374,1] App: 0 Process rank: 3 Bound: socket 1[core 44[hwt 0-1]]:[../../../../../../../../../../../../../../../../../../../../../../../../../../../../../../../..][../../../../../../../../../../../../BB/../../../../../../../../../../../../../../../../../../..]

 =============================================================
Two group cota
0 1 1
2 3 3
1 0 0
3 2 2
dune-size 1 7.20501e-06 7.20611e-06 9.15891e-06 9.16651e-06 
dune-size 2 7.0506e-06 7.047e-06 9.18861e-06 9.19911e-06 
dune-size 4 7.14671e-06 7.14331e-06 8.20591e-06 8.20371e-06 
dune-size 8 7.55191e-06 7.54561e-06 7.58481e-06 7.57941e-06 
dune-size 16 8.1311e-06 8.127e-06 8.1424e-06 8.1372e-06 
dune-size 32 9.78711e-06 9.77371e-06 9.32141e-06 9.32701e-06 
dune-size 64 1.25953e-05 1.25774e-05 1.1728e-05 1.1734e-05 
dune-size 128 1.21659e-05 1.21665e-05 1.67941e-05 1.68166e-05 
dune-size 256 1.96705e-05 1.96578e-05 2.00811e-05 2.0066e-05 
dune-size 512 3.47862e-05 3.47807e-05 3.44263e-05 3.44325e-05 
dune-size 1024 0.000107019 0.000107001 0.000108025 0.000108034 
dune-size 2048 0.000206922 0.000206941 0.000210503 0.000210549 
dune-size 4096 0.000378766 0.000378802 0.000386609 0.000386582 
dune-size 8192 0.000658515 0.000658522 0.000661148 0.000661176 
dune-size 16384 0.000956096 0.000956075 0.000982614 0.000982633 
dune-size 32768 0.00169068 0.00169071 0.00170349 0.0017036 
dune-size 65536 0.00332085 0.00332154 0.00334762 0.00334874 
dune-size 131072 0.00656234 0.00655645 0.00663338 0.00663095 
