 Data for JOB [24832,1] offset 0 Total slots allocated 8

 ========================   JOB MAP   ========================

 Data for node: n004	Num slots: 8	Max slots: 0	Num procs: 8
 	Process OMPI jobid: [24832,1] App: 0 Process rank: 0 Bound: socket 1[core 32[hwt 0-1]]:[../../../../../../../../../../../../../../../../../../../../../../../../../../../../../../../..][BB/../../../../../../../../../../../../../../../../../../../../../../../../../../../../../../..]
 	Process OMPI jobid: [24832,1] App: 0 Process rank: 1 Bound: socket 0[core 13[hwt 0-1]]:[../../../../../../../../../../../../../BB/../../../../../../../../../../../../../../../../../..][../../../../../../../../../../../../../../../../../../../../../../../../../../../../../../../..]
 	Process OMPI jobid: [24832,1] App: 0 Process rank: 2 Bound: socket 1[core 34[hwt 0-1]]:[../../../../../../../../../../../../../../../../../../../../../../../../../../../../../../../..][../../BB/../../../../../../../../../../../../../../../../../../../../../../../../../../../../..]
 	Process OMPI jobid: [24832,1] App: 0 Process rank: 3 Bound: socket 0[core 15[hwt 0-1]]:[../../../../../../../../../../../../../../../BB/../../../../../../../../../../../../../../../..][../../../../../../../../../../../../../../../../../../../../../../../../../../../../../../../..]
 	Process OMPI jobid: [24832,1] App: 0 Process rank: 4 Bound: socket 0[core 12[hwt 0-1]]:[../../../../../../../../../../../../BB/../../../../../../../../../../../../../../../../../../..][../../../../../../../../../../../../../../../../../../../../../../../../../../../../../../../..]
 	Process OMPI jobid: [24832,1] App: 0 Process rank: 5 Bound: socket 1[core 33[hwt 0-1]]:[../../../../../../../../../../../../../../../../../../../../../../../../../../../../../../../..][../BB/../../../../../../../../../../../../../../../../../../../../../../../../../../../../../..]
 	Process OMPI jobid: [24832,1] App: 0 Process rank: 6 Bound: socket 0[core 14[hwt 0-1]]:[../../../../../../../../../../../../../../BB/../../../../../../../../../../../../../../../../..][../../../../../../../../../../../../../../../../../../../../../../../../../../../../../../../..]
 	Process OMPI jobid: [24832,1] App: 0 Process rank: 7 Bound: socket 1[core 35[hwt 0-1]]:[../../../../../../../../../../../../../../../../../../../../../../../../../../../../../../../..][../../../BB/../../../../../../../../../../../../../../../../../../../../../../../../../../../..]

 =============================================================
Two group cota
0 1 3
0 2 2
0 3 1
1 2 0
1 3 3
1 0 2
2 3 1
2 0 0
2 1 3
3 0 2
3 1 1
3 2 0
4 5 7
4 6 6
4 7 5
5 6 4
5 7 7
5 4 6
6 7 5
6 4 4
6 5 7
7 4 6
7 5 5
7 6 4
dune-size 1 2.64498e-05 2.64164e-05 2.64131e-05 2.64634e-05 2.67732e-05 2.68209e-05 2.68623e-05 2.68538e-05 
dune-size 2 1.78472e-05 1.7641e-05 1.7851e-05 1.7641e-05 2.2671e-05 2.25204e-05 2.26923e-05 2.25077e-05 
dune-size 4 1.90646e-05 1.91136e-05 1.90937e-05 1.91071e-05 1.76312e-05 1.76734e-05 1.76544e-05 1.7675e-05 
dune-size 8 1.97165e-05 1.96724e-05 1.97125e-05 1.96913e-05 1.93915e-05 1.94582e-05 1.94232e-05 1.94338e-05 
dune-size 16 2.02379e-05 2.02573e-05 2.02954e-05 2.02811e-05 1.99246e-05 1.9922e-05 1.99662e-05 1.99522e-05 
dune-size 32 1.85127e-05 1.85426e-05 1.85291e-05 1.85436e-05 1.85887e-05 1.86111e-05 1.86047e-05 1.86097e-05 
dune-size 64 2.40876e-05 2.40709e-05 2.40921e-05 2.40731e-05 2.37074e-05 2.37285e-05 2.37231e-05 2.37406e-05 
dune-size 128 3.40909e-05 3.41668e-05 3.41313e-05 3.41737e-05 3.40763e-05 3.40289e-05 3.40759e-05 3.4054e-05 
dune-size 256 5.48494e-05 5.49576e-05 5.49053e-05 5.49536e-05 5.49281e-05 5.48289e-05 5.49332e-05 5.48636e-05 
dune-size 512 9.52366e-05 9.53997e-05 9.52903e-05 9.53995e-05 9.52935e-05 9.533e-05 9.54411e-05 9.53386e-05 
dune-size 1024 0.000275919 0.000275436 0.000275401 0.000275709 0.000275363 0.000275829 0.000275615 0.000275329 
dune-size 2048 0.000485899 0.000485075 0.000485099 0.000485571 0.00049665 0.000495749 0.000495671 0.000496241 
dune-size 4096 0.000802326 0.000804008 0.000803183 0.000802172 0.000822568 0.000824294 0.000823465 0.00082245 
dune-size 8192 0.00140869 0.00140909 0.00140682 0.00140674 0.00133118 0.00133416 0.00133116 0.00133255 
dune-size 16384 0.00248502 0.00248099 0.00248136 0.00248821 0.00245598 0.00245605 0.00246167 0.00245959 
dune-size 32768 0.00488755 0.0048854 0.00488631 0.0048854 0.00488557 0.00489208 0.00488571 0.00488456 
dune-size 65536 0.00988246 0.00987914 0.00988073 0.00987985 0.00984416 0.00986646 0.00988813 0.00986005 
dune-size 131072 0.0199838 0.0202219 0.0199839 0.0202224 0.0202236 0.0199848 0.0202347 0.0199827 
