 Data for JOB [9839,1] offset 0 Total slots allocated 64

 ========================   JOB MAP   ========================

 Data for node: n003	Num slots: 32	Max slots: 0	Num procs: 32
 	Process OMPI jobid: [9839,1] App: 0 Process rank: 0 Bound: socket 1[core 32[hwt 0-1]]:[../../../../../../../../../../../../../../../../../../../../../../../../../../../../../../../..][BB/../../../../../../../../../../../../../../../../../../../../../../../../../../../../../../..]
 	Process OMPI jobid: [9839,1] App: 0 Process rank: 1 Bound: socket 1[core 33[hwt 0-1]]:[../../../../../../../../../../../../../../../../../../../../../../../../../../../../../../../..][../BB/../../../../../../../../../../../../../../../../../../../../../../../../../../../../../..]
 	Process OMPI jobid: [9839,1] App: 0 Process rank: 2 Bound: socket 1[core 34[hwt 0-1]]:[../../../../../../../../../../../../../../../../../../../../../../../../../../../../../../../..][../../BB/../../../../../../../../../../../../../../../../../../../../../../../../../../../../..]
 	Process OMPI jobid: [9839,1] App: 0 Process rank: 3 Bound: socket 1[core 35[hwt 0-1]]:[../../../../../../../../../../../../../../../../../../../../../../../../../../../../../../../..][../../../BB/../../../../../../../../../../../../../../../../../../../../../../../../../../../..]
 	Process OMPI jobid: [9839,1] App: 0 Process rank: 4 Bound: socket 1[core 36[hwt 0-1]]:[../../../../../../../../../../../../../../../../../../../../../../../../../../../../../../../..][../../../../BB/../../../../../../../../../../../../../../../../../../../../../../../../../../..]
 	Process OMPI jobid: [9839,1] App: 0 Process rank: 5 Bound: socket 1[core 37[hwt 0-1]]:[../../../../../../../../../../../../../../../../../../../../../../../../../../../../../../../..][../../../../../BB/../../../../../../../../../../../../../../../../../../../../../../../../../..]
 	Process OMPI jobid: [9839,1] App: 0 Process rank: 6 Bound: socket 1[core 38[hwt 0-1]]:[../../../../../../../../../../../../../../../../../../../../../../../../../../../../../../../..][../../../../../../BB/../../../../../../../../../../../../../../../../../../../../../../../../..]
 	Process OMPI jobid: [9839,1] App: 0 Process rank: 7 Bound: socket 1[core 39[hwt 0-1]]:[../../../../../../../../../../../../../../../../../../../../../../../../../../../../../../../..][../../../../../../../BB/../../../../../../../../../../../../../../../../../../../../../../../..]
 	Process OMPI jobid: [9839,1] App: 0 Process rank: 8 Bound: socket 1[core 40[hwt 0-1]]:[../../../../../../../../../../../../../../../../../../../../../../../../../../../../../../../..][../../../../../../../../BB/../../../../../../../../../../../../../../../../../../../../../../..]
 	Process OMPI jobid: [9839,1] App: 0 Process rank: 9 Bound: socket 1[core 41[hwt 0-1]]:[../../../../../../../../../../../../../../../../../../../../../../../../../../../../../../../..][../../../../../../../../../BB/../../../../../../../../../../../../../../../../../../../../../..]
 	Process OMPI jobid: [9839,1] App: 0 Process rank: 10 Bound: socket 1[core 42[hwt 0-1]]:[../../../../../../../../../../../../../../../../../../../../../../../../../../../../../../../..][../../../../../../../../../../BB/../../../../../../../../../../../../../../../../../../../../..]
 	Process OMPI jobid: [9839,1] App: 0 Process rank: 11 Bound: socket 1[core 43[hwt 0-1]]:[../../../../../../../../../../../../../../../../../../../../../../../../../../../../../../../..][../../../../../../../../../../../BB/../../../../../../../../../../../../../../../../../../../..]
 	Process OMPI jobid: [9839,1] App: 0 Process rank: 12 Bound: socket 1[core 44[hwt 0-1]]:[../../../../../../../../../../../../../../../../../../../../../../../../../../../../../../../..][../../../../../../../../../../../../BB/../../../../../../../../../../../../../../../../../../..]
 	Process OMPI jobid: [9839,1] App: 0 Process rank: 13 Bound: socket 1[core 45[hwt 0-1]]:[../../../../../../../../../../../../../../../../../../../../../../../../../../../../../../../..][../../../../../../../../../../../../../BB/../../../../../../../../../../../../../../../../../..]
 	Process OMPI jobid: [9839,1] App: 0 Process rank: 14 Bound: socket 1[core 46[hwt 0-1]]:[../../../../../../../../../../../../../../../../../../../../../../../../../../../../../../../..][../../../../../../../../../../../../../../BB/../../../../../../../../../../../../../../../../..]
 	Process OMPI jobid: [9839,1] App: 0 Process rank: 15 Bound: socket 1[core 47[hwt 0-1]]:[../../../../../../../../../../../../../../../../../../../../../../../../../../../../../../../..][../../../../../../../../../../../../../../../BB/../../../../../../../../../../../../../../../..]
 	Process OMPI jobid: [9839,1] App: 0 Process rank: 16 Bound: socket 1[core 48[hwt 0-1]]:[../../../../../../../../../../../../../../../../../../../../../../../../../../../../../../../..][../../../../../../../../../../../../../../../../BB/../../../../../../../../../../../../../../..]
 	Process OMPI jobid: [9839,1] App: 0 Process rank: 17 Bound: socket 1[core 49[hwt 0-1]]:[../../../../../../../../../../../../../../../../../../../../../../../../../../../../../../../..][../../../../../../../../../../../../../../../../../BB/../../../../../../../../../../../../../..]
 	Process OMPI jobid: [9839,1] App: 0 Process rank: 18 Bound: socket 1[core 50[hwt 0-1]]:[../../../../../../../../../../../../../../../../../../../../../../../../../../../../../../../..][../../../../../../../../../../../../../../../../../../BB/../../../../../../../../../../../../..]
 	Process OMPI jobid: [9839,1] App: 0 Process rank: 19 Bound: socket 1[core 51[hwt 0-1]]:[../../../../../../../../../../../../../../../../../../../../../../../../../../../../../../../..][../../../../../../../../../../../../../../../../../../../BB/../../../../../../../../../../../..]
 	Process OMPI jobid: [9839,1] App: 0 Process rank: 20 Bound: socket 1[core 52[hwt 0-1]]:[../../../../../../../../../../../../../../../../../../../../../../../../../../../../../../../..][../../../../../../../../../../../../../../../../../../../../BB/../../../../../../../../../../..]
 	Process OMPI jobid: [9839,1] App: 0 Process rank: 21 Bound: socket 1[core 53[hwt 0-1]]:[../../../../../../../../../../../../../../../../../../../../../../../../../../../../../../../..][../../../../../../../../../../../../../../../../../../../../../BB/../../../../../../../../../..]
 	Process OMPI jobid: [9839,1] App: 0 Process rank: 22 Bound: socket 1[core 54[hwt 0-1]]:[../../../../../../../../../../../../../../../../../../../../../../../../../../../../../../../..][../../../../../../../../../../../../../../../../../../../../../../BB/../../../../../../../../..]
 	Process OMPI jobid: [9839,1] App: 0 Process rank: 23 Bound: socket 1[core 55[hwt 0-1]]:[../../../../../../../../../../../../../../../../../../../../../../../../../../../../../../../..][../../../../../../../../../../../../../../../../../../../../../../../BB/../../../../../../../..]
 	Process OMPI jobid: [9839,1] App: 0 Process rank: 24 Bound: socket 1[core 56[hwt 0-1]]:[../../../../../../../../../../../../../../../../../../../../../../../../../../../../../../../..][../../../../../../../../../../../../../../../../../../../../../../../../BB/../../../../../../..]
 	Process OMPI jobid: [9839,1] App: 0 Process rank: 25 Bound: socket 1[core 57[hwt 0-1]]:[../../../../../../../../../../../../../../../../../../../../../../../../../../../../../../../..][../../../../../../../../../../../../../../../../../../../../../../../../../BB/../../../../../..]
 	Process OMPI jobid: [9839,1] App: 0 Process rank: 26 Bound: socket 1[core 58[hwt 0-1]]:[../../../../../../../../../../../../../../../../../../../../../../../../../../../../../../../..][../../../../../../../../../../../../../../../../../../../../../../../../../../BB/../../../../..]
 	Process OMPI jobid: [9839,1] App: 0 Process rank: 27 Bound: socket 1[core 59[hwt 0-1]]:[../../../../../../../../../../../../../../../../../../../../../../../../../../../../../../../..][../../../../../../../../../../../../../../../../../../../../../../../../../../../BB/../../../..]
 	Process OMPI jobid: [9839,1] App: 0 Process rank: 28 Bound: socket 1[core 60[hwt 0-1]]:[../../../../../../../../../../../../../../../../../../../../../../../../../../../../../../../..][../../../../../../../../../../../../../../../../../../../../../../../../../../../../BB/../../..]
 	Process OMPI jobid: [9839,1] App: 0 Process rank: 29 Bound: socket 1[core 61[hwt 0-1]]:[../../../../../../../../../../../../../../../../../../../../../../../../../../../../../../../..][../../../../../../../../../../../../../../../../../../../../../../../../../../../../../BB/../..]
 	Process OMPI jobid: [9839,1] App: 0 Process rank: 30 Bound: socket 1[core 62[hwt 0-1]]:[../../../../../../../../../../../../../../../../../../../../../../../../../../../../../../../..][../../../../../../../../../../../../../../../../../../../../../../../../../../../../../../BB/..]
 	Process OMPI jobid: [9839,1] App: 0 Process rank: 31 Bound: socket 1[core 63[hwt 0-1]]:[../../../../../../../../../../../../../../../../../../../../../../../../../../../../../../../..][../../../../../../../../../../../../../../../../../../../../../../../../../../../../../../../BB]

 Data for node: n004	Num slots: 32	Max slots: 0	Num procs: 32
 	Process OMPI jobid: [9839,1] App: 0 Process rank: 32 Bound: socket 1[core 32[hwt 0-1]]:[../../../../../../../../../../../../../../../../../../../../../../../../../../../../../../../..][BB/../../../../../../../../../../../../../../../../../../../../../../../../../../../../../../..]
 	Process OMPI jobid: [9839,1] App: 0 Process rank: 33 Bound: socket 1[core 33[hwt 0-1]]:[../../../../../../../../../../../../../../../../../../../../../../../../../../../../../../../..][../BB/../../../../../../../../../../../../../../../../../../../../../../../../../../../../../..]
 	Process OMPI jobid: [9839,1] App: 0 Process rank: 34 Bound: socket 1[core 34[hwt 0-1]]:[../../../../../../../../../../../../../../../../../../../../../../../../../../../../../../../..][../../BB/../../../../../../../../../../../../../../../../../../../../../../../../../../../../..]
 	Process OMPI jobid: [9839,1] App: 0 Process rank: 35 Bound: socket 1[core 35[hwt 0-1]]:[../../../../../../../../../../../../../../../../../../../../../../../../../../../../../../../..][../../../BB/../../../../../../../../../../../../../../../../../../../../../../../../../../../..]
 	Process OMPI jobid: [9839,1] App: 0 Process rank: 36 Bound: socket 1[core 36[hwt 0-1]]:[../../../../../../../../../../../../../../../../../../../../../../../../../../../../../../../..][../../../../BB/../../../../../../../../../../../../../../../../../../../../../../../../../../..]
 	Process OMPI jobid: [9839,1] App: 0 Process rank: 37 Bound: socket 1[core 37[hwt 0-1]]:[../../../../../../../../../../../../../../../../../../../../../../../../../../../../../../../..][../../../../../BB/../../../../../../../../../../../../../../../../../../../../../../../../../..]
 	Process OMPI jobid: [9839,1] App: 0 Process rank: 38 Bound: socket 1[core 38[hwt 0-1]]:[../../../../../../../../../../../../../../../../../../../../../../../../../../../../../../../..][../../../../../../BB/../../../../../../../../../../../../../../../../../../../../../../../../..]
 	Process OMPI jobid: [9839,1] App: 0 Process rank: 39 Bound: socket 1[core 39[hwt 0-1]]:[../../../../../../../../../../../../../../../../../../../../../../../../../../../../../../../..][../../../../../../../BB/../../../../../../../../../../../../../../../../../../../../../../../..]
 	Process OMPI jobid: [9839,1] App: 0 Process rank: 40 Bound: socket 1[core 40[hwt 0-1]]:[../../../../../../../../../../../../../../../../../../../../../../../../../../../../../../../..][../../../../../../../../BB/../../../../../../../../../../../../../../../../../../../../../../..]
 	Process OMPI jobid: [9839,1] App: 0 Process rank: 41 Bound: socket 1[core 41[hwt 0-1]]:[../../../../../../../../../../../../../../../../../../../../../../../../../../../../../../../..][../../../../../../../../../BB/../../../../../../../../../../../../../../../../../../../../../..]
 	Process OMPI jobid: [9839,1] App: 0 Process rank: 42 Bound: socket 1[core 42[hwt 0-1]]:[../../../../../../../../../../../../../../../../../../../../../../../../../../../../../../../..][../../../../../../../../../../BB/../../../../../../../../../../../../../../../../../../../../..]
 	Process OMPI jobid: [9839,1] App: 0 Process rank: 43 Bound: socket 1[core 43[hwt 0-1]]:[../../../../../../../../../../../../../../../../../../../../../../../../../../../../../../../..][../../../../../../../../../../../BB/../../../../../../../../../../../../../../../../../../../..]
 	Process OMPI jobid: [9839,1] App: 0 Process rank: 44 Bound: socket 1[core 44[hwt 0-1]]:[../../../../../../../../../../../../../../../../../../../../../../../../../../../../../../../..][../../../../../../../../../../../../BB/../../../../../../../../../../../../../../../../../../..]
 	Process OMPI jobid: [9839,1] App: 0 Process rank: 45 Bound: socket 1[core 45[hwt 0-1]]:[../../../../../../../../../../../../../../../../../../../../../../../../../../../../../../../..][../../../../../../../../../../../../../BB/../../../../../../../../../../../../../../../../../..]
 	Process OMPI jobid: [9839,1] App: 0 Process rank: 46 Bound: socket 1[core 46[hwt 0-1]]:[../../../../../../../../../../../../../../../../../../../../../../../../../../../../../../../..][../../../../../../../../../../../../../../BB/../../../../../../../../../../../../../../../../..]
 	Process OMPI jobid: [9839,1] App: 0 Process rank: 47 Bound: socket 1[core 47[hwt 0-1]]:[../../../../../../../../../../../../../../../../../../../../../../../../../../../../../../../..][../../../../../../../../../../../../../../../BB/../../../../../../../../../../../../../../../..]
 	Process OMPI jobid: [9839,1] App: 0 Process rank: 48 Bound: socket 1[core 48[hwt 0-1]]:[../../../../../../../../../../../../../../../../../../../../../../../../../../../../../../../..][../../../../../../../../../../../../../../../../BB/../../../../../../../../../../../../../../..]
 	Process OMPI jobid: [9839,1] App: 0 Process rank: 49 Bound: socket 1[core 49[hwt 0-1]]:[../../../../../../../../../../../../../../../../../../../../../../../../../../../../../../../..][../../../../../../../../../../../../../../../../../BB/../../../../../../../../../../../../../..]
 	Process OMPI jobid: [9839,1] App: 0 Process rank: 50 Bound: socket 1[core 50[hwt 0-1]]:[../../../../../../../../../../../../../../../../../../../../../../../../../../../../../../../..][../../../../../../../../../../../../../../../../../../BB/../../../../../../../../../../../../..]
 	Process OMPI jobid: [9839,1] App: 0 Process rank: 51 Bound: socket 1[core 51[hwt 0-1]]:[../../../../../../../../../../../../../../../../../../../../../../../../../../../../../../../..][../../../../../../../../../../../../../../../../../../../BB/../../../../../../../../../../../..]
 	Process OMPI jobid: [9839,1] App: 0 Process rank: 52 Bound: socket 1[core 52[hwt 0-1]]:[../../../../../../../../../../../../../../../../../../../../../../../../../../../../../../../..][../../../../../../../../../../../../../../../../../../../../BB/../../../../../../../../../../..]
 	Process OMPI jobid: [9839,1] App: 0 Process rank: 53 Bound: socket 1[core 53[hwt 0-1]]:[../../../../../../../../../../../../../../../../../../../../../../../../../../../../../../../..][../../../../../../../../../../../../../../../../../../../../../BB/../../../../../../../../../..]
 	Process OMPI jobid: [9839,1] App: 0 Process rank: 54 Bound: socket 1[core 54[hwt 0-1]]:[../../../../../../../../../../../../../../../../../../../../../../../../../../../../../../../..][../../../../../../../../../../../../../../../../../../../../../../BB/../../../../../../../../..]
 	Process OMPI jobid: [9839,1] App: 0 Process rank: 55 Bound: socket 1[core 55[hwt 0-1]]:[../../../../../../../../../../../../../../../../../../../../../../../../../../../../../../../..][../../../../../../../../../../../../../../../../../../../../../../../BB/../../../../../../../..]
 	Process OMPI jobid: [9839,1] App: 0 Process rank: 56 Bound: socket 1[core 56[hwt 0-1]]:[../../../../../../../../../../../../../../../../../../../../../../../../../../../../../../../..][../../../../../../../../../../../../../../../../../../../../../../../../BB/../../../../../../..]
 	Process OMPI jobid: [9839,1] App: 0 Process rank: 57 Bound: socket 1[core 57[hwt 0-1]]:[../../../../../../../../../../../../../../../../../../../../../../../../../../../../../../../..][../../../../../../../../../../../../../../../../../../../../../../../../../BB/../../../../../..]
 	Process OMPI jobid: [9839,1] App: 0 Process rank: 58 Bound: socket 1[core 58[hwt 0-1]]:[../../../../../../../../../../../../../../../../../../../../../../../../../../../../../../../..][../../../../../../../../../../../../../../../../../../../../../../../../../../BB/../../../../..]
 	Process OMPI jobid: [9839,1] App: 0 Process rank: 59 Bound: socket 1[core 59[hwt 0-1]]:[../../../../../../../../../../../../../../../../../../../../../../../../../../../../../../../..][../../../../../../../../../../../../../../../../../../../../../../../../../../../BB/../../../..]
 	Process OMPI jobid: [9839,1] App: 0 Process rank: 60 Bound: socket 1[core 60[hwt 0-1]]:[../../../../../../../../../../../../../../../../../../../../../../../../../../../../../../../..][../../../../../../../../../../../../../../../../../../../../../../../../../../../../BB/../../..]
 	Process OMPI jobid: [9839,1] App: 0 Process rank: 61 Bound: socket 1[core 61[hwt 0-1]]:[../../../../../../../../../../../../../../../../../../../../../../../../../../../../../../../..][../../../../../../../../../../../../../../../../../../../../../../../../../../../../../BB/../..]
 	Process OMPI jobid: [9839,1] App: 0 Process rank: 62 Bound: socket 1[core 62[hwt 0-1]]:[../../../../../../../../../../../../../../../../../../../../../../../../../../../../../../../..][../../../../../../../../../../../../../../../../../../../../../../../../../../../../../../BB/..]
 	Process OMPI jobid: [9839,1] App: 0 Process rank: 63 Bound: socket 1[core 63[hwt 0-1]]:[../../../../../../../../../../../../../../../../../../../../../../../../../../../../../../../..][../../../../../../../../../../../../../../../../../../../../../../../../../../../../../../../BB]

 =============================================================
Single Size change topo
dune-size 249984-1.1 0.0399982 0.0379024 0.0355869 0.0335635 0.0312495 0.0298708 0.0275834 0.0249087 0.0226913 0.0206269 0.0186031 0.0180628 0.0156804 0.0155156 0.0159835 0.0159143 0.0157799 0.0157759 0.0155347 0.0160056 0.0160423 0.0168213 0.0190558 0.0213164 0.0239761 0.0270034 0.0292488 0.0317383 0.0344006 0.0369969 0.0395391 0.0399738 0.0399749 0.0378356 0.0357459 0.0335013 0.0312546 0.0293976 0.0271239 0.0249828 0.0231647 0.0205993 0.0182288 0.0176614 0.0160877 0.0161892 0.016297 0.0161762 0.016069 0.0160573 0.0164007 0.0164111 0.0163081 0.0159056 0.0161689 0.0193183 0.0217559 0.0240718 0.0266906 0.0291258 0.0317941 0.0343815 0.0369573 0.0395573 
dune-size 249984-1.2 0.0126801 0.0126754 0.0130857 0.0130818 0.0126012 0.0126001 0.0127171 0.0127178 0.0128813 0.0128796 0.0124103 0.0124079 0.0126258 0.0126243 0.0128513 0.0128568 0.0125656 0.0125662 0.0126435 0.0126403 0.0128663 0.0128531 0.0125475 0.0125523 0.0129217 0.0128672 0.0126498 0.012649 0.0127046 0.0126697 0.012537 0.0124836 0.0125677 0.0125531 0.0123742 0.0123681 0.012804 0.0128078 0.0127879 0.0127856 0.0129754 0.0129759 0.0129846 0.0129873 0.0127843 0.0127816 0.0127393 0.0127427 0.0126655 0.0126661 0.0127327 0.0127336 0.0128921 0.0128879 0.0129115 0.0129118 0.0123988 0.0124006 0.0125878 0.0125883 0.0127633 0.0127705 0.0127503 0.0127346 
dune-size 249984-1.3 0.0286068 0.0304715 0.0273673 0.0286051 0.028604 0.0285462 0.0286067 0.0303812 0.0286054 0.0304616 0.0286042 0.0283874 0.028545 0.0285983 0.0285958 0.0304601 0.0304623 0.0285547 0.0304775 0.030197 0.0304649 0.0304416 0.0285631 0.029878 0.0304171 0.0285364 0.0304581 0.0304558 0.028572 0.0304707 0.0264286 0.0285953 0.0290119 0.0300586 0.0273803 0.0290022 0.029006 0.0289469 0.0290117 0.0299701 0.029007 0.0301163 0.0290054 0.0287799 0.0289453 0.0289961 0.0289984 0.0301176 0.0301111 0.0289552 0.0304976 0.0298985 0.0304966 0.0300315 0.0289639 0.0298751 0.0300157 0.0289365 0.0301162 0.030114 0.0289724 0.0304972 0.0260254 0.0289969 
dune-size 8064-31 0.0133626 0.0133536 0.0133608 0.0133411 0.0133328 0.0133466 0.0133311 0.0133323 0.0133193 0.0133695 0.0133519 0.0133639 0.0133204 0.0133678 0.0133293 0.0133656 0.0133241 0.0133258 0.0133671 0.0133586 0.0133554 0.0133588 0.0133502 0.0133497 0.0133345 0.0133431 0.0133449 0.0133289 0.013338 0.0133224 0.0133414 0.0133203 0.0127832 0.0127444 0.0127888 0.0127796 0.0127509 0.0127851 0.0127471 0.0127372 0.0127583 0.0127754 0.0127546 0.0127375 0.0127963 0.0127963 0.0127963 0.0127889 0.0127791 0.0127813 0.0127491 0.0127603 0.012764 0.0127603 0.0127716 0.0127585 0.0127453 0.0127527 0.0127564 0.0127371 0.0127772 0.0127697 0.0127734 0.0127549 
dune-size 8064-31.5 0.0153787 0.0153771 0.0153803 0.0153789 0.015378 0.0153685 0.0153647 0.0153784 0.0153805 0.01536 0.0153553 0.0153767 0.0153512 0.0153445 0.015361 0.0153656 0.0153563 0.0153762 0.015375 0.0153749 0.0153704 0.0153719 0.0153792 0.0153829 0.015376 0.0153776 0.0153807 0.0153811 0.0153776 0.0153841 0.0153803 0.0153823 0.0153812 0.0153791 0.0153808 0.0153796 0.0153774 0.0153824 0.0153776 0.0153714 0.0153653 0.0153756 0.0153655 0.0153363 0.0153442 0.0153724 0.0153725 0.0153471 0.0153345 0.0153683 0.0153485 0.0153687 0.0153683 0.0153699 0.0153733 0.0153768 0.0153786 0.0153739 0.0153787 0.0153786 0.0153787 0.0153787 0.0153818 0.0153802 
dune-size 3968-63 0.0199064 0.0199064 0.0199064 0.0199072 0.0199065 0.0199065 0.0199065 0.0199065 0.0199067 0.0199067 0.0199067 0.0199067 0.0199079 0.019907 0.019907 0.019907 0.0199069 0.0199581 0.0199069 0.0199548 0.0199558 0.0199069 0.0199069 0.0199572 0.0199071 0.0199071 0.0199071 0.0199071 0.0199071 0.0199071 0.019952 0.0199071 0.019907 0.0199071 0.0199072 0.0199072 0.0199073 0.0199072 0.0199072 0.0199072 0.0199518 0.0199521 0.0199527 0.0199544 0.0199536 0.0199551 0.0199559 0.0199567 0.0199578 0.0199589 0.0199586 0.0199587 0.0199587 0.019959 0.0199588 0.0199588 0.0199588 0.019959 0.0199589 0.0199589 0.0199591 0.019959 0.0199591 0.0199591 
dune-size 999936-1.1 0.130461 0.124464 0.118722 0.11367 0.108267 0.101652 0.0965053 0.0914071 0.0839665 0.0802499 0.0742433 0.0682545 0.0682178 0.0682106 0.0681278 0.068541 0.0697625 0.0701948 0.0702802 0.071472 0.0716097 0.0714538 0.0700642 0.0761869 0.0842259 0.0915192 0.0982697 0.106487 0.113517 0.121076 0.128886 0.130576 0.130579 0.124344 0.118122 0.112026 0.105648 0.0995417 0.0929814 0.0864489 0.080243 0.0737567 0.0672711 0.0635844 0.064525 0.0648129 0.0648096 0.0648339 0.0650831 0.0657232 0.0656904 0.0665687 0.0665425 0.0660811 0.0663004 0.0656913 0.0727959 0.0808525 0.0888842 0.0969149 0.105018 0.112692 0.120812 0.12872 
dune-size 999936-1.2 0.0530474 0.0530909 0.0534599 0.0535056 0.052058 0.0520878 0.0525792 0.0526981 0.0527957 0.0528203 0.0531793 0.0532435 0.0519364 0.0519238 0.0525038 0.052575 0.0531899 0.0531844 0.0534185 0.0533934 0.0525801 0.0525758 0.0522072 0.0521624 0.0523244 0.052246 0.0529848 0.0530136 0.0534073 0.0534208 0.0525018 0.0524846 0.0517629 0.0517448 0.0521452 0.0521466 0.0513902 0.0514353 0.0506813 0.0506691 0.0516788 0.0517015 0.051264 0.0512518 0.0523332 0.0523753 0.0519898 0.0520202 0.0529155 0.0528944 0.052716 0.0527229 0.0518474 0.0518189 0.051656 0.051689 0.0524803 0.052496 0.0523073 0.052289 0.0510239 0.0509771 0.0506283 0.0506358 
dune-size 999936-1.3 0.116029 0.116067 0.116066 0.121697 0.121991 0.121696 0.121694 0.121665 0.116088 0.116042 0.121597 0.116004 0.121688 0.116053 0.119804 0.116081 0.116003 0.121697 0.11607 0.105756 0.116019 0.121926 0.121988 0.121704 0.119996 0.116003 0.121698 0.11611 0.121949 0.121697 0.121648 0.104263 0.114316 0.114324 0.114366 0.123362 0.123426 0.123437 0.123381 0.123402 0.114368 0.114364 0.123334 0.114327 0.123375 0.114371 0.119812 0.114351 0.114311 0.123437 0.114366 0.105961 0.114332 0.123421 0.123503 0.123501 0.119915 0.114313 0.123393 0.11528 0.123433 0.12336 0.123415 0.105961 
dune-size 32256-31 0.0515554 0.0516059 0.0515769 0.0514701 0.0514988 0.0514558 0.0515697 0.0514558 0.0514844 0.051463 0.0514933 0.0515485 0.0516204 0.0516276 0.0515203 0.051654 0.0515915 0.0515416 0.0515346 0.0516629 0.0515986 0.0515623 0.0514773 0.0516347 0.0515132 0.0514556 0.0515124 0.0515866 0.0516561 0.0516131 0.0515275 0.0516419 0.0502849 0.0502702 0.0503459 0.0503335 0.0504041 0.0504529 0.0503755 0.0504623 0.0503054 0.0503907 0.0504249 0.0504332 0.0503991 0.0502911 0.0503006 0.0503123 0.0504176 0.0503193 0.0504603 0.0502668 0.050267 0.0503286 0.0503542 0.0504393 0.0502664 0.0504645 0.0503679 0.0502772 0.0503838 0.0503473 0.0504108 0.0503611 
dune-size 32256-31.5 0.0656936 0.0656981 0.0657344 0.0657486 0.0657415 0.0657198 0.0657123 0.065727 0.0657051 0.065681 0.0656582 0.0656979 0.0656586 0.0656568 0.0656497 0.0656607 0.0656458 0.0656584 0.0656905 0.0656653 0.0656633 0.065673 0.0656921 0.0656883 0.0657079 0.0657189 0.0657013 0.0656944 0.0657193 0.0657058 0.0657202 0.065714 0.0657138 0.0656929 0.0656607 0.0656953 0.0656942 0.0656991 0.0657125 0.0657062 0.0657128 0.0657005 0.0656827 0.0656929 0.065576 0.0655263 0.0655118 0.0655098 0.0655221 0.0655476 0.0656653 0.0657565 0.0656852 0.0656884 0.0656895 0.0657044 0.0657023 0.0656976 0.0656971 0.0656947 0.0657068 0.0657014 0.0657063 0.0656988 
dune-size 15872-63 0.0683005 0.0683026 0.0681494 0.0682935 0.0683042 0.0681803 0.0683115 0.0682933 0.0681724 0.06818 0.0681948 0.0682569 0.068257 0.0682713 0.0682614 0.0682752 0.0682553 0.0682689 0.0682726 0.0682932 0.0683009 0.0683073 0.0682885 0.0682882 0.0682797 0.0683041 0.0683117 0.0683254 0.0683177 0.0683104 0.0683112 0.0683087 0.0683128 0.068316 0.0683096 0.0683114 0.0683192 0.0683034 0.068308 0.0683051 0.0681777 0.0681979 0.068198 0.0682272 0.0682244 0.0682376 0.0682339 0.0682637 0.0682611 0.0682887 0.0682882 0.0682948 0.0682918 0.0682896 0.0682875 0.0682962 0.0682977 0.0683042 0.0683052 0.0683058 0.0683027 0.0683084 0.0683023 0.0683223 
