 Data for JOB [6527,1] offset 0 Total slots allocated 8

 ========================   JOB MAP   ========================

 Data for node: srl-login1	Num slots: 8	Max slots: 0	Num procs: 8
 	Process OMPI jobid: [6527,1] App: 0 Process rank: 0 Bound: socket 0[core 0[hwt 0-1]]:[BB/../../../../../../../../../../../../../../..][../../../../../../../../../../../../../../../..]
 	Process OMPI jobid: [6527,1] App: 0 Process rank: 1 Bound: socket 0[core 1[hwt 0-1]]:[../BB/../../../../../../../../../../../../../..][../../../../../../../../../../../../../../../..]
 	Process OMPI jobid: [6527,1] App: 0 Process rank: 2 Bound: socket 0[core 8[hwt 0-1]]:[../../../../../../../../BB/../../../../../../..][../../../../../../../../../../../../../../../..]
 	Process OMPI jobid: [6527,1] App: 0 Process rank: 3 Bound: socket 0[core 9[hwt 0-1]]:[../../../../../../../../../BB/../../../../../..][../../../../../../../../../../../../../../../..]
 	Process OMPI jobid: [6527,1] App: 0 Process rank: 4 Bound: socket 1[core 16[hwt 0-1]]:[../../../../../../../../../../../../../../../..][BB/../../../../../../../../../../../../../../..]
 	Process OMPI jobid: [6527,1] App: 0 Process rank: 5 Bound: socket 1[core 17[hwt 0-1]]:[../../../../../../../../../../../../../../../..][../BB/../../../../../../../../../../../../../..]
 	Process OMPI jobid: [6527,1] App: 0 Process rank: 6 Bound: socket 1[core 24[hwt 0-1]]:[../../../../../../../../../../../../../../../..][../../../../../../../../BB/../../../../../../..]
 	Process OMPI jobid: [6527,1] App: 0 Process rank: 7 Bound: socket 1[core 25[hwt 0-1]]:[../../../../../../../../../../../../../../../..][../../../../../../../../../BB/../../../../../..]

 =============================================================
[1578561814.454261] [srl-login1:16697:0]         mxm.c:196  MXM  WARN  The 'ulimit -s' on the system is set to 'unlimited'. This may have negative performance implications. Please set the stack size to the default value (10240) 
[1578561814.454305] [srl-login1:16698:0]         mxm.c:196  MXM  WARN  The 'ulimit -s' on the system is set to 'unlimited'. This may have negative performance implications. Please set the stack size to the default value (10240) 
[1578561814.454312] [srl-login1:16696:0]         mxm.c:196  MXM  WARN  The 'ulimit -s' on the system is set to 'unlimited'. This may have negative performance implications. Please set the stack size to the default value (10240) 
[1578561814.454678] [srl-login1:16699:0]         mxm.c:196  MXM  WARN  The 'ulimit -s' on the system is set to 'unlimited'. This may have negative performance implications. Please set the stack size to the default value (10240) 
[1578561814.456538] [srl-login1:16694:0]         mxm.c:196  MXM  WARN  The 'ulimit -s' on the system is set to 'unlimited'. This may have negative performance implications. Please set the stack size to the default value (10240) 
[1578561814.461891] [srl-login1:16695:0]         mxm.c:196  MXM  WARN  The 'ulimit -s' on the system is set to 'unlimited'. This may have negative performance implications. Please set the stack size to the default value (10240) 
[1578561814.462440] [srl-login1:16693:0]         mxm.c:196  MXM  WARN  The 'ulimit -s' on the system is set to 'unlimited'. This may have negative performance implications. Please set the stack size to the default value (10240) 
[1578561814.466400] [srl-login1:16700:0]         mxm.c:196  MXM  WARN  The 'ulimit -s' on the system is set to 'unlimited'. This may have negative performance implications. Please set the stack size to the default value (10240) 
0: 4 

Rank 0 ghostCells: 6814
Rank 1 ghostCells: 9225
Rank 2 ghostCells: 10701
Rank 3 ghostCells: 7226
Rank 4 ghostCells: 11433
Rank 5 ghostCells: 4409
Rank 6 ghostCells: 6059
Rank 7 ghostCells: 4842

Rank 0 numCells: 50641
Rank 1 numCells: 57867
Rank 2 numCells: 56469
Rank 3 numCells: 54499
Rank 4 numCells: 60075
Rank 5 numCells: 45372
Rank 6 numCells: 50307
Rank 7 numCells: 40886

Rank 0 interiorCells: 43827
Rank 1 interiorCells: 48642
Rank 2 interiorCells: 45768
Rank 3 interiorCells: 47273
Rank 4 interiorCells: 48642
Rank 5 interiorCells: 40963
Rank 6 interiorCells: 44248
Rank 7 interiorCells: 36044

MeasComm+1 8: 0.000331487 0.000408436 0.000430155 0.000314674 0.00049518 0.000321019 0.000316782 0.000320393 
MeasComm+1 8: 0.000340228 0.000407761 0.000426047 0.000318151 0.000497572 0.000319124 0.000321377 0.000320111 
MeasComm+1 8: 0.000343062 0.000407748 0.000427655 0.000317187 0.00049916 0.000323062 0.000319206 0.000322062 
MeasComm+1 8: 0.000340674 0.000410295 0.000430333 0.000321215 0.000505421 0.000327475 0.00032288 0.000327005 
MeasComm+1 8: 0.000338176 0.000409099 0.000429771 0.000317629 0.000494913 0.000322316 0.000319054 0.000321894 
MeasComm+1 8: 0.000338946 0.000407462 0.00042629 0.000316511 0.000496402 0.000323159 0.000318335 0.000322969 
MeasComm+1 8: 0.000342257 0.000408792 0.000426679 0.000321912 0.000506007 0.000327115 0.000323849 0.000328315 
MeasComm+1 8: 0.000334937 0.000396688 0.000427003 0.0003138 0.000503731 0.00032714 0.000323959 0.000260047 
MeasComm+1 8: 0.000338185 0.000408677 0.000421219 0.00031521 0.000497802 0.000321175 0.00031969 0.000322009 
MeasComm+1 8: 0.000340587 0.00040784 0.000427316 0.000315892 0.000494946 0.000322023 0.0003175 0.000321664 

ComTab rank 0: 0 3897 819 1209 674 600 216 81 
ComTab rank 1: 3664 0 353 239 4736 728 266 28 
ComTab rank 2: 806 388 0 1264 6013 365 2222 770 
ComTab rank 3: 1184 282 1284 0 71 40 4641 306 
ComTab rank 4: 597 5074 5072 67 0 953 393 411 
ComTab rank 5: 581 825 339 25 947 0 0 2206 
ComTab rank 6: 201 280 2010 3776 287 0 0 304 
ComTab rank 7: 102 33 717 451 789 2529 496 0 

Edge-cut: 48140

Wgt-cut: 6.79766e-09

[1578561853.931335] [srl-login1:16698:0]          mpool.c:38   UCX  WARN  object 0x1555393f3c60 was not returned to mpool mm_recv_desc
[1578561853.931836] [srl-login1:16694:0]          mpool.c:38   UCX  WARN  object 0x15554411ad60 was not returned to mpool mm_recv_desc
[1578561853.931919] [srl-login1:16696:0]          mpool.c:38   UCX  WARN  object 0x155539315ee0 was not returned to mpool mm_recv_desc
[1578561853.932535] [srl-login1:16699:0]          mpool.c:38   UCX  WARN  object 0x1555393fff60 was not returned to mpool mm_recv_desc
[1578561853.932747] [srl-login1:16700:0]          mpool.c:38   UCX  WARN  object 0x1555393fbe60 was not returned to mpool mm_recv_desc
[1578561853.933211] [srl-login1:16695:0]          mpool.c:38   UCX  WARN  object 0x1555393f9de0 was not returned to mpool mm_recv_desc
[1578561853.933293] [srl-login1:16697:0]          mpool.c:38   UCX  WARN  object 0x1555393f5ce0 was not returned to mpool mm_recv_desc
