 Data for JOB [54669,1] offset 0 Total slots allocated 2

 ========================   JOB MAP   ========================

 Data for node: n001	Num slots: 2	Max slots: 0	Num procs: 2
 	Process OMPI jobid: [54669,1] App: 0 Process rank: 0 Bound: socket 0[core 9[hwt 0-1]]:[../../../../../../../../../BB/../../../../../../../../../../../../../../../../../../../../../..][../../../../../../../../../../../../../../../../../../../../../../../../../../../../../../../..]
 	Process OMPI jobid: [54669,1] App: 0 Process rank: 1 Bound: socket 0[core 10[hwt 0-1]]:[../../../../../../../../../../BB/../../../../../../../../../../../../../../../../../../../../..][../../../../../../../../../../../../../../../../../../../../../../../../../../../../../../../..]

 =============================================================
dune-size 1 2.66029e-06 2.66019e-06 
dune-size 2 2.47309e-06 2.47369e-06 
dune-size 4 2.62369e-06 2.62439e-06 
dune-size 8 2.79659e-06 2.79649e-06 
dune-size 16 3.21669e-06 3.21659e-06 
dune-size 32 5.51918e-06 5.51918e-06 
dune-size 64 5.53648e-06 5.53678e-06 
dune-size 128 8.62637e-06 8.62657e-06 
dune-size 256 1.49548e-05 1.49533e-05 
dune-size 512 2.71977e-05 2.71955e-05 
dune-size 1024 5.58921e-05 5.589e-05 
dune-size 2048 0.000106984 0.000106986 
dune-size 4096 0.000209724 0.000209721 
dune-size 8192 0.000413386 0.000413386 
dune-size 16384 0.000799001 0.000799004 
dune-size 32768 0.00155801 0.00155797 
dune-size 65536 0.00309697 0.00309713 
dune-size 131072 0.00632807 0.00632941 
dune-size 262144 0.0126684 0.0126701 
dune-size 524288 0.0254413 0.025437 
dune-size 1048576 0.0512285 0.0511904 
