 Data for JOB [26807,1] offset 0 Total slots allocated 8

 ========================   JOB MAP   ========================

 Data for node: n004	Num slots: 8	Max slots: 0	Num procs: 8
 	Process OMPI jobid: [26807,1] App: 0 Process rank: 0 Bound: socket 1[core 48[hwt 0-1]]:[../../../../../../../../../../../../../../../../../../../../../../../../../../../../../../../..][../../../../../../../../../../../../../../../../BB/../../../../../../../../../../../../../../..]
 	Process OMPI jobid: [26807,1] App: 0 Process rank: 1 Bound: socket 0[core 13[hwt 0-1]]:[../../../../../../../../../../../../../BB/../../../../../../../../../../../../../../../../../..][../../../../../../../../../../../../../../../../../../../../../../../../../../../../../../../..]
 	Process OMPI jobid: [26807,1] App: 0 Process rank: 2 Bound: socket 1[core 50[hwt 0-1]]:[../../../../../../../../../../../../../../../../../../../../../../../../../../../../../../../..][../../../../../../../../../../../../../../../../../../BB/../../../../../../../../../../../../..]
 	Process OMPI jobid: [26807,1] App: 0 Process rank: 3 Bound: socket 0[core 15[hwt 0-1]]:[../../../../../../../../../../../../../../../BB/../../../../../../../../../../../../../../../..][../../../../../../../../../../../../../../../../../../../../../../../../../../../../../../../..]
 	Process OMPI jobid: [26807,1] App: 0 Process rank: 4 Bound: socket 0[core 12[hwt 0-1]]:[../../../../../../../../../../../../BB/../../../../../../../../../../../../../../../../../../..][../../../../../../../../../../../../../../../../../../../../../../../../../../../../../../../..]
 	Process OMPI jobid: [26807,1] App: 0 Process rank: 5 Bound: socket 1[core 49[hwt 0-1]]:[../../../../../../../../../../../../../../../../../../../../../../../../../../../../../../../..][../../../../../../../../../../../../../../../../../BB/../../../../../../../../../../../../../..]
 	Process OMPI jobid: [26807,1] App: 0 Process rank: 6 Bound: socket 0[core 14[hwt 0-1]]:[../../../../../../../../../../../../../../BB/../../../../../../../../../../../../../../../../..][../../../../../../../../../../../../../../../../../../../../../../../../../../../../../../../..]
 	Process OMPI jobid: [26807,1] App: 0 Process rank: 7 Bound: socket 1[core 51[hwt 0-1]]:[../../../../../../../../../../../../../../../../../../../../../../../../../../../../../../../..][../../../../../../../../../../../../../../../../../../../BB/../../../../../../../../../../../..]

 =============================================================
Two group cota
0 1 3
0 2 2
0 3 1
2 3 1
2 0 0
2 1 3
5 6 4
5 7 7
5 4 6
7 4 6
7 5 5
7 6 4
1 2 0
1 3 3
1 0 2
3 0 2
3 1 1
3 2 0
4 5 7
4 6 6
4 7 5
6 7 5
6 4 4
6 5 7
dune-size 1 2.2475e-05 2.28002e-05 1.93794e-05 2.28298e-05 2.32744e-05 2.364e-05 2.01513e-05 2.36335e-05 
dune-size 2 1.7613e-05 1.76116e-05 1.76213e-05 1.76083e-05 1.76997e-05 1.77285e-05 1.77148e-05 1.77116e-05 
dune-size 4 1.81306e-05 1.80996e-05 1.8115e-05 1.81501e-05 1.80382e-05 1.80896e-05 1.80676e-05 1.80877e-05 
dune-size 8 1.67853e-05 1.6767e-05 1.67781e-05 1.67758e-05 2.04387e-05 2.04553e-05 2.04838e-05 2.05071e-05 
dune-size 16 1.64212e-05 1.6395e-05 1.64215e-05 1.64064e-05 2.01662e-05 2.02033e-05 2.01923e-05 2.01994e-05 
dune-size 32 1.86537e-05 1.86467e-05 1.8705e-05 1.86921e-05 1.85699e-05 1.86186e-05 1.86036e-05 1.86103e-05 
dune-size 64 2.39954e-05 2.40077e-05 2.39963e-05 2.40132e-05 2.39979e-05 2.4049e-05 2.40378e-05 2.40396e-05 
dune-size 128 3.39243e-05 3.38591e-05 3.3908e-05 3.38926e-05 3.38434e-05 3.38975e-05 3.38556e-05 3.39132e-05 
dune-size 256 5.45749e-05 5.46213e-05 5.47608e-05 5.46923e-05 5.47651e-05 5.48609e-05 5.47996e-05 5.48612e-05 
dune-size 512 9.53639e-05 9.52117e-05 9.53608e-05 9.52582e-05 9.53918e-05 9.55425e-05 9.54408e-05 9.55515e-05 
dune-size 1024 0.000281391 0.000281172 0.000280829 0.000280903 0.000271787 0.000271234 0.000271232 0.000271515 
dune-size 2048 0.000516501 0.000515604 0.000515506 0.000516089 0.000498032 0.000498727 0.000498309 0.000499146 
dune-size 4096 0.000811454 0.000810696 0.000812227 0.000810702 0.000809275 0.000808355 0.000808292 0.000810094 
dune-size 8192 0.00129724 0.00129536 0.00129884 0.00129558 0.00143258 0.00143285 0.00143065 0.00143062 
dune-size 16384 0.00251226 0.00251058 0.00250657 0.00250658 0.00246097 0.0024613 0.00246483 0.00246801 
dune-size 32768 0.00489845 0.00490078 0.00489857 0.00490029 0.00489429 0.00489212 0.00490054 0.00489207 
dune-size 65536 0.0099985 0.0099744 0.00997746 0.010047 0.0100472 0.0100356 0.0100467 0.0100345 
dune-size 131072 0.0195594 0.019531 0.0195594 0.019531 0.019595 0.0196012 0.0195707 0.0196036 
