[1578471137.742770] [srl-login1:12823:0]         mxm.c:196  MXM  WARN  The 'ulimit -s' on the system is set to 'unlimited'. This may have negative performance implications. Please set the stack size to the default value (10240) 
[1578471137.742743] [srl-login1:12826:0]         mxm.c:196  MXM  WARN  The 'ulimit -s' on the system is set to 'unlimited'. This may have negative performance implications. Please set the stack size to the default value (10240) 
[1578471137.742753] [srl-login1:12827:0]         mxm.c:196  MXM  WARN  The 'ulimit -s' on the system is set to 'unlimited'. This may have negative performance implications. Please set the stack size to the default value (10240) 
[1578471137.742760] [srl-login1:12828:0]         mxm.c:196  MXM  WARN  The 'ulimit -s' on the system is set to 'unlimited'. This may have negative performance implications. Please set the stack size to the default value (10240) 
[1578471137.748416] [srl-login1:12822:0]         mxm.c:196  MXM  WARN  The 'ulimit -s' on the system is set to 'unlimited'. This may have negative performance implications. Please set the stack size to the default value (10240) 
[1578471137.748514] [srl-login1:12825:0]         mxm.c:196  MXM  WARN  The 'ulimit -s' on the system is set to 'unlimited'. This may have negative performance implications. Please set the stack size to the default value (10240) 
[1578471137.748955] [srl-login1:12821:0]         mxm.c:196  MXM  WARN  The 'ulimit -s' on the system is set to 'unlimited'. This may have negative performance implications. Please set the stack size to the default value (10240) 
[1578471137.754575] [srl-login1:12824:0]         mxm.c:196  MXM  WARN  The 'ulimit -s' on the system is set to 'unlimited'. This may have negative performance implications. Please set the stack size to the default value (10240) 
0: 11 
After loadbalancing process 1 has 5045 cells.
After loadbalancing process 4 has 6469 cells.
After loadbalancing process 7 has 6666 cells.
After loadbalancing process 5 has 6920 cells.
After loadbalancing process 3 has 7627 cells.
After loadbalancing process 2 has 7731 cells.
After loadbalancing process 6 has 7999 cells.
After loadbalancing process 0 has 8149 cells.

Rank 0 ghostCells: 2161
Rank 1 ghostCells: 1001
Rank 2 ghostCells: 1997
Rank 3 ghostCells: 1763
Rank 4 ghostCells: 1053
Rank 5 ghostCells: 1161
Rank 6 ghostCells: 1893
Rank 7 ghostCells: 1146

Rank 0 numCells: 8149
Rank 1 numCells: 5045
Rank 2 numCells: 7731
Rank 3 numCells: 7627
Rank 4 numCells: 6469
Rank 5 numCells: 6920
Rank 6 numCells: 7999
Rank 7 numCells: 6666

Rank 0 interiorCells: 5988
Rank 1 interiorCells: 4044
Rank 2 interiorCells: 5734
Rank 3 interiorCells: 5864
Rank 4 interiorCells: 5416
Rank 5 interiorCells: 5759
Rank 6 interiorCells: 6106
Rank 7 interiorCells: 5520

ComTab rank 0: 0 343 1115 563 298 0 147 0 
ComTab rank 1: 367 0 73 102 498 90 92 14 
ComTab rank 2: 1108 69 0 919 0 7 138 0 
ComTab rank 3: 563 79 1035 0 0 11 285 83 
ComTab rank 4: 300 337 0 0 0 564 24 0 
ComTab rank 5: 0 91 7 28 577 0 395 182 
ComTab rank 6: 110 72 124 266 86 221 0 1215 
ComTab rank 7: 0 16 0 97 0 143 1017 0 

Edge-cut: 10835

Wgt-cut: 4.35902e-09

[1578471141.956638] [srl-login1:12826:0]          mpool.c:38   UCX  WARN  object 0x155544122f60 was not returned to mpool mm_recv_desc
[1578471141.956558] [srl-login1:12827:0]          mpool.c:38   UCX  WARN  object 0x1555393fbe60 was not returned to mpool mm_recv_desc
[1578471141.956904] [srl-login1:12822:0]          mpool.c:38   UCX  WARN  object 0x155544120ee0 was not returned to mpool mm_recv_desc
[1578471141.956837] [srl-login1:12825:0]          mpool.c:38   UCX  WARN  object 0x15554411cde0 was not returned to mpool mm_recv_desc
[1578471141.956832] [srl-login1:12824:0]          mpool.c:38   UCX  WARN  object 0x55555c23ee40 was not returned to mpool ucp_am_bufs
[1578471141.956978] [srl-login1:12828:0]          mpool.c:38   UCX  WARN  object 0x1555393f7d60 was not returned to mpool mm_recv_desc
[1578471141.956973] [srl-login1:12823:0]          mpool.c:38   UCX  WARN  object 0x555558a2c140 was not returned to mpool ucp_am_bufs
[1578476360.546745] [srl-mds1:28427:0]         mxm.c:196  MXM  WARN  The 'ulimit -s' on the system is set to 'unlimited'. This may have negative performance implications. Please set the stack size to the default value (10240) 
[1578476360.546740] [srl-mds1:28428:0]         mxm.c:196  MXM  WARN  The 'ulimit -s' on the system is set to 'unlimited'. This may have negative performance implications. Please set the stack size to the default value (10240) 
[1578476360.546906] [srl-mds1:28424:0]         mxm.c:196  MXM  WARN  The 'ulimit -s' on the system is set to 'unlimited'. This may have negative performance implications. Please set the stack size to the default value (10240) 
[1578476360.546901] [srl-mds1:28426:0]         mxm.c:196  MXM  WARN  The 'ulimit -s' on the system is set to 'unlimited'. This may have negative performance implications. Please set the stack size to the default value (10240) 
0: 11 
Edge Weight Method: 11
Cell on rank 0: 11147
Cell on rank 1: 10908
Cell on rank 2: 11492
Cell on rank 3: 10884
Edge-cut: 22294212
After loadbalancing process 3 has 11363 cells.
After loadbalancing process 0 has 11749 cells.
After loadbalancing process 2 has 12128 cells.
After loadbalancing process 1 has 12216 cells.

Rank 0 ghostCells: 602
Rank 1 ghostCells: 1308
Rank 2 ghostCells: 636
Rank 3 ghostCells: 479

Rank 0 numCells: 11749
Rank 1 numCells: 12216
Rank 2 numCells: 12128
Rank 3 numCells: 11363

Rank 0 interiorCells: 11147
Rank 1 interiorCells: 10908
Rank 2 interiorCells: 11492
Rank 3 interiorCells: 10884

ComTab rank 0: 0 602 0 0 
ComTab rank 1: 596 0 435 322 
ComTab rank 2: 0 466 0 206 
ComTab rank 3: 0 328 188 0 

Edge-cut: 2551

Wgt-cut: 2.27341e-08

[1578476363.788413] [srl-mds1:28428:0]          mpool.c:38   UCX  WARN  object 0x55555d7374c0 was not returned to mpool ucp_am_bufs
[1578476363.789256] [srl-mds1:28427:0]          mpool.c:38   UCX  WARN  object 0x55555bfe8740 was not returned to mpool ucp_am_bufs
[1578476363.789799] [srl-mds1:28426:0]          mpool.c:38   UCX  WARN  object 0x55555c065200 was not returned to mpool ucp_am_bufs
