 Data for JOB [28555,1] offset 0 Total slots allocated 4

 ========================   JOB MAP   ========================

 Data for node: n004	Num slots: 4	Max slots: 0	Num procs: 4
 	Process OMPI jobid: [28555,1] App: 0 Process rank: 0 Bound: socket 1[core 40[hwt 0-1]]:[../../../../../../../../../../../../../../../../../../../../../../../../../../../../../../../..][../../../../../../../../BB/../../../../../../../../../../../../../../../../../../../../../../..]
 	Process OMPI jobid: [28555,1] App: 0 Process rank: 1 Bound: socket 1[core 41[hwt 0-1]]:[../../../../../../../../../../../../../../../../../../../../../../../../../../../../../../../..][../../../../../../../../../BB/../../../../../../../../../../../../../../../../../../../../../..]
 	Process OMPI jobid: [28555,1] App: 0 Process rank: 2 Bound: socket 1[core 42[hwt 0-1]]:[../../../../../../../../../../../../../../../../../../../../../../../../../../../../../../../..][../../../../../../../../../../BB/../../../../../../../../../../../../../../../../../../../../..]
 	Process OMPI jobid: [28555,1] App: 0 Process rank: 3 Bound: socket 1[core 43[hwt 0-1]]:[../../../../../../../../../../../../../../../../../../../../../../../../../../../../../../../..][../../../../../../../../../../../BB/../../../../../../../../../../../../../../../../../../../..]

 =============================================================
[1579613074.130488] [n004:28313:0]         mxm.c:196  MXM  WARN  The 'ulimit -s' on the system is set to 'unlimited'. This may have negative performance implications. Please set the stack size to the default value (10240) 
[1579613074.130470] [n004:28314:0]         mxm.c:196  MXM  WARN  The 'ulimit -s' on the system is set to 'unlimited'. This may have negative performance implications. Please set the stack size to the default value (10240) 
[1579613074.130470] [n004:28315:0]         mxm.c:196  MXM  WARN  The 'ulimit -s' on the system is set to 'unlimited'. This may have negative performance implications. Please set the stack size to the default value (10240) 
[1579613074.130561] [n004:28316:0]         mxm.c:196  MXM  WARN  The 'ulimit -s' on the system is set to 'unlimited'. This may have negative performance implications. Please set the stack size to the default value (10240) 
0: 0 

Rank 0 ghostCells: 4313
Rank 1 ghostCells: 1952
Rank 2 ghostCells: 1193
Rank 3 ghostCells: 1440

Rank 0 numCells: 99739
Rank 1 numCells: 89436
Rank 2 numCells: 96893
Rank 3 numCells: 78237

Rank 0 interiorCells: 95426
Rank 1 interiorCells: 87484
Rank 2 interiorCells: 95700
Rank 3 interiorCells: 76797

MeasComm+1 4: 0.000311971 0.00025053 0.000226211 0.000241171 
MeasComm+1 4: 0.000311081 0.000247301 0.000228321 0.00024351 
MeasComm+1 4: 0.000309861 0.000250691 0.000228601 0.00024131 
MeasComm+1 4: 0.000312261 0.000251731 0.00022547 0.000241551 
MeasComm+1 4: 0.000312201 0.0002466 0.000227901 0.000241821 
MeasComm+1 4: 0.000314401 0.000253311 0.000226351 0.000182651 
MeasComm+1 4: 0.00030957 0.000252651 0.000225161 0.00023975 
MeasComm+1 4: 0.000311821 0.00024992 0.00022669 0.00024197 
MeasComm+1 4: 0.00031089 0.000249941 0.000228011 0.000240181 
MeasComm+1 4: 0.000310671 0.000249301 0.000226511 0.00024144 

MeasCopy 4: 0.000202291 9.146e-05 5.595e-05 6.748e-05 
MeasCopy 4: 0.000202241 9.146e-05 5.59e-05 6.749e-05 
MeasCopy 4: 0.0002021 9.145e-05 5.591e-05 6.748e-05 
MeasCopy 4: 0.00020215 9.142e-05 5.589e-05 6.748e-05 
MeasCopy 4: 0.000202231 9.15e-05 5.592e-05 6.747e-05 
MeasCopy 4: 0.00020221 9.1511e-05 5.592e-05 6.75e-05 
MeasCopy 4: 0.00020223 9.147e-05 5.593e-05 6.75e-05 
MeasCopy 4: 0.00020227 9.1511e-05 5.589e-05 6.749e-05 
MeasCopy 4: 0.00020228 9.153e-05 5.588e-05 6.745e-05 
MeasCopy 4: 0.000202241 9.15e-05 5.5881e-05 6.75e-05 

ComTab rank 0: 0 1908 1063 1350 
ComTab rank 1: 1952 0 0 0 
ComTab rank 2: 1094 0 0 111 
ComTab rank 3: 1349 0 103 0 

Edge-cut: 5489

Wgt-cut: 2.9352e-08

[1579613131.856894] [n004:28314:0]          mpool.c:38   UCX  WARN  object 0x55556282d280 was not returned to mpool ucp_am_bufs
[1579613131.870398] [n004:28315:0]          mpool.c:38   UCX  WARN  object 0x555563017640 was not returned to mpool ucp_am_bufs
[1579613131.870998] [n004:28316:0]          mpool.c:38   UCX  WARN  object 0x55555bbbfd40 was not returned to mpool ucp_am_bufs
