 Data for JOB [43635,1] offset 0 Total slots allocated 16

 ========================   JOB MAP   ========================

 Data for node: n004	Num slots: 16	Max slots: 0	Num procs: 16
 	Process OMPI jobid: [43635,1] App: 0 Process rank: 0 Bound: socket 1[core 32[hwt 0-1]]:[../../../../../../../../../../../../../../../../../../../../../../../../../../../../../../../..][BB/../../../../../../../../../../../../../../../../../../../../../../../../../../../../../../..]
 	Process OMPI jobid: [43635,1] App: 0 Process rank: 1 Bound: socket 1[core 33[hwt 0-1]]:[../../../../../../../../../../../../../../../../../../../../../../../../../../../../../../../..][../BB/../../../../../../../../../../../../../../../../../../../../../../../../../../../../../..]
 	Process OMPI jobid: [43635,1] App: 0 Process rank: 2 Bound: socket 1[core 34[hwt 0-1]]:[../../../../../../../../../../../../../../../../../../../../../../../../../../../../../../../..][../../BB/../../../../../../../../../../../../../../../../../../../../../../../../../../../../..]
 	Process OMPI jobid: [43635,1] App: 0 Process rank: 3 Bound: socket 1[core 35[hwt 0-1]]:[../../../../../../../../../../../../../../../../../../../../../../../../../../../../../../../..][../../../BB/../../../../../../../../../../../../../../../../../../../../../../../../../../../..]
 	Process OMPI jobid: [43635,1] App: 0 Process rank: 4 Bound: socket 1[core 40[hwt 0-1]]:[../../../../../../../../../../../../../../../../../../../../../../../../../../../../../../../..][../../../../../../../../BB/../../../../../../../../../../../../../../../../../../../../../../..]
 	Process OMPI jobid: [43635,1] App: 0 Process rank: 5 Bound: socket 1[core 41[hwt 0-1]]:[../../../../../../../../../../../../../../../../../../../../../../../../../../../../../../../..][../../../../../../../../../BB/../../../../../../../../../../../../../../../../../../../../../..]
 	Process OMPI jobid: [43635,1] App: 0 Process rank: 6 Bound: socket 1[core 42[hwt 0-1]]:[../../../../../../../../../../../../../../../../../../../../../../../../../../../../../../../..][../../../../../../../../../../BB/../../../../../../../../../../../../../../../../../../../../..]
 	Process OMPI jobid: [43635,1] App: 0 Process rank: 7 Bound: socket 1[core 43[hwt 0-1]]:[../../../../../../../../../../../../../../../../../../../../../../../../../../../../../../../..][../../../../../../../../../../../BB/../../../../../../../../../../../../../../../../../../../..]
 	Process OMPI jobid: [43635,1] App: 0 Process rank: 8 Bound: socket 1[core 48[hwt 0-1]]:[../../../../../../../../../../../../../../../../../../../../../../../../../../../../../../../..][../../../../../../../../../../../../../../../../BB/../../../../../../../../../../../../../../..]
 	Process OMPI jobid: [43635,1] App: 0 Process rank: 9 Bound: socket 1[core 49[hwt 0-1]]:[../../../../../../../../../../../../../../../../../../../../../../../../../../../../../../../..][../../../../../../../../../../../../../../../../../BB/../../../../../../../../../../../../../..]
 	Process OMPI jobid: [43635,1] App: 0 Process rank: 10 Bound: socket 1[core 50[hwt 0-1]]:[../../../../../../../../../../../../../../../../../../../../../../../../../../../../../../../..][../../../../../../../../../../../../../../../../../../BB/../../../../../../../../../../../../..]
 	Process OMPI jobid: [43635,1] App: 0 Process rank: 11 Bound: socket 1[core 51[hwt 0-1]]:[../../../../../../../../../../../../../../../../../../../../../../../../../../../../../../../..][../../../../../../../../../../../../../../../../../../../BB/../../../../../../../../../../../..]
 	Process OMPI jobid: [43635,1] App: 0 Process rank: 12 Bound: socket 1[core 56[hwt 0-1]]:[../../../../../../../../../../../../../../../../../../../../../../../../../../../../../../../..][../../../../../../../../../../../../../../../../../../../../../../../../BB/../../../../../../..]
 	Process OMPI jobid: [43635,1] App: 0 Process rank: 13 Bound: socket 1[core 57[hwt 0-1]]:[../../../../../../../../../../../../../../../../../../../../../../../../../../../../../../../..][../../../../../../../../../../../../../../../../../../../../../../../../../BB/../../../../../..]
 	Process OMPI jobid: [43635,1] App: 0 Process rank: 14 Bound: socket 1[core 58[hwt 0-1]]:[../../../../../../../../../../../../../../../../../../../../../../../../../../../../../../../..][../../../../../../../../../../../../../../../../../../../../../../../../../../BB/../../../../..]
 	Process OMPI jobid: [43635,1] App: 0 Process rank: 15 Bound: socket 1[core 59[hwt 0-1]]:[../../../../../../../../../../../../../../../../../../../../../../../../../../../../../../../..][../../../../../../../../../../../../../../../../../../../../../../../../../../../BB/../../../..]

 =============================================================
[1579598639.046045] [n004:109451:0]         mxm.c:196  MXM  WARN  The 'ulimit -s' on the system is set to 'unlimited'. This may have negative performance implications. Please set the stack size to the default value (10240) 
[1579598639.048041] [n004:109446:0]         mxm.c:196  MXM  WARN  The 'ulimit -s' on the system is set to 'unlimited'. This may have negative performance implications. Please set the stack size to the default value (10240) 
[1579598639.048041] [n004:109448:0]         mxm.c:196  MXM  WARN  The 'ulimit -s' on the system is set to 'unlimited'. This may have negative performance implications. Please set the stack size to the default value (10240) 
[1579598639.048153] [n004:109449:0]         mxm.c:196  MXM  WARN  The 'ulimit -s' on the system is set to 'unlimited'. This may have negative performance implications. Please set the stack size to the default value (10240) 
[1579598639.048760] [n004:109442:0]         mxm.c:196  MXM  WARN  The 'ulimit -s' on the system is set to 'unlimited'. This may have negative performance implications. Please set the stack size to the default value (10240) 
[1579598639.048760] [n004:109444:0]         mxm.c:196  MXM  WARN  The 'ulimit -s' on the system is set to 'unlimited'. This may have negative performance implications. Please set the stack size to the default value (10240) 
[1579598639.049056] [n004:109447:0]         mxm.c:196  MXM  WARN  The 'ulimit -s' on the system is set to 'unlimited'. This may have negative performance implications. Please set the stack size to the default value (10240) 
[1579598639.049433] [n004:109452:0]         mxm.c:196  MXM  WARN  The 'ulimit -s' on the system is set to 'unlimited'. This may have negative performance implications. Please set the stack size to the default value (10240) 
[1579598639.049592] [n004:109438:0]         mxm.c:196  MXM  WARN  The 'ulimit -s' on the system is set to 'unlimited'. This may have negative performance implications. Please set the stack size to the default value (10240) 
[1579598639.049580] [n004:109439:0]         mxm.c:196  MXM  WARN  The 'ulimit -s' on the system is set to 'unlimited'. This may have negative performance implications. Please set the stack size to the default value (10240) 
[1579598639.049580] [n004:109440:0]         mxm.c:196  MXM  WARN  The 'ulimit -s' on the system is set to 'unlimited'. This may have negative performance implications. Please set the stack size to the default value (10240) 
[1579598639.049580] [n004:109441:0]         mxm.c:196  MXM  WARN  The 'ulimit -s' on the system is set to 'unlimited'. This may have negative performance implications. Please set the stack size to the default value (10240) 
[1579598639.049583] [n004:109443:0]         mxm.c:196  MXM  WARN  The 'ulimit -s' on the system is set to 'unlimited'. This may have negative performance implications. Please set the stack size to the default value (10240) 
[1579598639.049693] [n004:109453:0]         mxm.c:196  MXM  WARN  The 'ulimit -s' on the system is set to 'unlimited'. This may have negative performance implications. Please set the stack size to the default value (10240) 
[1579598639.051167] [n004:109450:0]         mxm.c:196  MXM  WARN  The 'ulimit -s' on the system is set to 'unlimited'. This may have negative performance implications. Please set the stack size to the default value (10240) 
[1579598639.052675] [n004:109445:0]         mxm.c:196  MXM  WARN  The 'ulimit -s' on the system is set to 'unlimited'. This may have negative performance implications. Please set the stack size to the default value (10240) 
0: 0 

Rank 0 ghostCells: 726
Rank 1 ghostCells: 487
Rank 2 ghostCells: 684
Rank 3 ghostCells: 431
Rank 4 ghostCells: 732
Rank 5 ghostCells: 493
Rank 6 ghostCells: 789
Rank 7 ghostCells: 758
Rank 8 ghostCells: 477
Rank 9 ghostCells: 550
Rank 10 ghostCells: 391
Rank 11 ghostCells: 246
Rank 12 ghostCells: 633
Rank 13 ghostCells: 582
Rank 14 ghostCells: 304
Rank 15 ghostCells: 507

Rank 0 numCells: 3517
Rank 1 numCells: 3147
Rank 2 numCells: 3604
Rank 3 numCells: 2818
Rank 4 numCells: 3786
Rank 5 numCells: 2959
Rank 6 numCells: 3651
Rank 7 numCells: 3134
Rank 8 numCells: 3448
Rank 9 numCells: 3521
Rank 10 numCells: 3118
Rank 11 numCells: 2929
Rank 12 numCells: 3390
Rank 13 numCells: 3598
Rank 14 numCells: 3131
Rank 15 numCells: 3470

Rank 0 interiorCells: 2791
Rank 1 interiorCells: 2660
Rank 2 interiorCells: 2920
Rank 3 interiorCells: 2387
Rank 4 interiorCells: 3054
Rank 5 interiorCells: 2466
Rank 6 interiorCells: 2862
Rank 7 interiorCells: 2376
Rank 8 interiorCells: 2971
Rank 9 interiorCells: 2971
Rank 10 interiorCells: 2727
Rank 11 interiorCells: 2683
Rank 12 interiorCells: 2757
Rank 13 interiorCells: 3016
Rank 14 interiorCells: 2827
Rank 15 interiorCells: 2963

MeasComm+1 16: 5.831e-05 3.597e-05 5.718e-05 3.431e-05 6.038e-05 5.713e-05 6.074e-05 6.67e-05 4.5081e-05 4.829e-05 2.9221e-05 2.724e-05 5.677e-05 4.299e-05 3.336e-05 3.402e-05 
MeasComm+1 16: 5.795e-05 3.614e-05 5.739e-05 3.409e-05 6.0471e-05 5.6491e-05 6.144e-05 6.65e-05 4.51e-05 4.78e-05 2.886e-05 2.676e-05 5.697e-05 4.292e-05 3.338e-05 3.394e-05 
MeasComm+1 16: 5.75e-05 3.661e-05 5.693e-05 3.392e-05 6.046e-05 5.648e-05 6.062e-05 6.643e-05 4.486e-05 4.814e-05 2.779e-05 2.694e-05 5.716e-05 4.285e-05 3.274e-05 3.416e-05 
MeasComm+1 16: 5.823e-05 3.566e-05 5.674e-05 3.4291e-05 6.048e-05 5.622e-05 6.132e-05 6.633e-05 4.531e-05 4.813e-05 2.796e-05 2.675e-05 5.698e-05 4.263e-05 3.31e-05 3.442e-05 
MeasComm+1 16: 5.823e-05 3.637e-05 5.69e-05 3.402e-05 6.039e-05 5.634e-05 6.159e-05 6.6491e-05 4.461e-05 4.794e-05 2.908e-05 2.452e-05 5.686e-05 4.203e-05 3.313e-05 3.397e-05 
MeasComm+1 16: 5.816e-05 3.574e-05 5.67e-05 3.415e-05 6.008e-05 5.5771e-05 6.081e-05 6.59e-05 4.525e-05 4.811e-05 2.936e-05 2.659e-05 5.668e-05 4.276e-05 3.318e-05 3.415e-05 
MeasComm+1 16: 5.823e-05 3.606e-05 5.654e-05 3.398e-05 6.039e-05 5.661e-05 6.116e-05 6.639e-05 4.511e-05 4.824e-05 2.923e-05 1.956e-05 5.665e-05 4.284e-05 3.338e-05 3.402e-05 
MeasComm+1 16: 5.804e-05 3.594e-05 5.695e-05 3.414e-05 6.079e-05 5.66e-05 6.041e-05 6.619e-05 4.51e-05 4.8011e-05 2.895e-05 2.689e-05 5.695e-05 4.299e-05 3.336e-05 3.4031e-05 
MeasComm+1 16: 5.835e-05 3.607e-05 5.709e-05 3.356e-05 6.073e-05 5.677e-05 6.114e-05 6.615e-05 4.522e-05 4.814e-05 2.978e-05 2.682e-05 5.716e-05 4.277e-05 3.342e-05 3.3971e-05 
MeasComm+1 16: 5.844e-05 3.574e-05 5.712e-05 3.4e-05 6.052e-05 5.646e-05 6.1e-05 6.6561e-05 4.52e-05 4.775e-05 2.899e-05 2.683e-05 5.715e-05 4.2751e-05 3.348e-05 3.443e-05 

MeasCopy 16: 3.404e-05 2.284e-05 3.204e-05 2.019e-05 3.429e-05 2.312e-05 3.698e-05 3.556e-05 2.238e-05 2.577e-05 1.831e-05 1.154e-05 2.967e-05 2.727e-05 1.425e-05 2.378e-05 
MeasCopy 16: 3.401e-05 2.282e-05 3.205e-05 2.022e-05 3.432e-05 2.31e-05 3.691e-05 3.555e-05 2.236e-05 2.575e-05 1.833e-05 1.155e-05 2.963e-05 2.727e-05 1.426e-05 2.375e-05 
MeasCopy 16: 3.402e-05 2.284e-05 3.207e-05 2.021e-05 3.428e-05 2.311e-05 3.697e-05 3.553e-05 2.239e-05 2.578e-05 1.83e-05 1.154e-05 2.964e-05 2.726e-05 1.428e-05 2.376e-05 
MeasCopy 16: 3.403e-05 2.282e-05 3.209e-05 2.02e-05 3.43e-05 2.31e-05 3.698e-05 3.554e-05 2.238e-05 2.579e-05 1.835e-05 1.155e-05 2.965e-05 2.727e-05 1.423e-05 2.375e-05 
MeasCopy 16: 3.401e-05 2.281e-05 3.204e-05 2.019e-05 3.43e-05 2.31e-05 3.699e-05 3.556e-05 2.236e-05 2.58e-05 1.832e-05 1.155e-05 2.964e-05 2.729e-05 1.427e-05 2.38e-05 
MeasCopy 16: 3.4e-05 2.281e-05 3.205e-05 2.021e-05 3.431e-05 2.311e-05 3.697e-05 3.555e-05 2.237e-05 2.576e-05 1.833e-05 1.155e-05 2.966e-05 2.726e-05 1.42e-05 2.375e-05 
MeasCopy 16: 3.402e-05 2.281e-05 3.207e-05 2.019e-05 3.432e-05 2.312e-05 3.695e-05 3.553e-05 2.237e-05 2.577e-05 1.834e-05 1.156e-05 2.962e-05 2.724e-05 1.427e-05 2.375e-05 
MeasCopy 16: 3.406e-05 2.284e-05 3.2071e-05 2.019e-05 3.431e-05 2.31e-05 3.699e-05 3.554e-05 2.236e-05 2.577e-05 1.832e-05 1.155e-05 2.966e-05 2.728e-05 1.425e-05 2.376e-05 
MeasCopy 16: 3.4e-05 2.283e-05 3.208e-05 2.021e-05 3.431e-05 2.309e-05 3.699e-05 3.553e-05 2.239e-05 2.579e-05 1.832e-05 1.155e-05 2.966e-05 2.728e-05 1.424e-05 2.376e-05 
MeasCopy 16: 3.403e-05 2.281e-05 3.207e-05 2.02e-05 3.432e-05 2.313e-05 3.699e-05 3.555e-05 2.238e-05 2.574e-05 1.831e-05 1.154e-05 2.966e-05 2.727e-05 1.424e-05 2.377e-05 

ComTab rank 0: 0 262 246 52 0 12 223 13 0 0 0 0 0 0 0 0 
ComTab rank 1: 270 0 17 215 0 17 0 0 0 0 0 0 0 0 0 0 
ComTab rank 2: 240 17 0 202 183 52 85 0 0 0 0 0 0 0 0 0 
ComTab rank 3: 52 215 200 0 0 14 0 0 0 0 0 0 0 0 0 0 
ComTab rank 4: 0 0 182 0 0 176 222 88 149 46 0 0 4 0 0 0 
ComTab rank 5: 9 9 56 14 212 0 16 142 61 63 0 0 0 0 0 0 
ComTab rank 6: 223 0 88 0 214 16 0 332 0 0 0 0 7 2 0 0 
ComTab rank 7: 14 0 0 0 82 139 291 0 13 6 0 0 204 124 0 0 
ComTab rank 8: 0 0 0 0 149 49 0 13 0 243 0 0 79 0 0 0 
ComTab rank 9: 0 0 0 0 48 59 0 6 233 0 190 46 22 0 0 0 
ComTab rank 10: 0 0 0 0 0 0 0 0 0 185 0 213 0 0 0 0 
ComTab rank 11: 0 0 0 0 0 0 0 0 0 42 211 0 0 0 0 0 
ComTab rank 12: 0 0 0 0 4 0 7 204 57 22 0 0 0 279 57 65 
ComTab rank 13: 0 0 0 0 0 0 2 124 0 0 0 0 256 0 0 227 
ComTab rank 14: 0 0 0 0 0 0 0 0 0 0 0 0 57 0 0 255 
ComTab rank 15: 0 0 0 0 0 0 0 0 0 0 0 0 66 227 246 0 

Edge-cut: 5434

Wgt-cut: 6.35991e-08

[1579598644.886707] [n004:109442:0]          mpool.c:38   UCX  WARN  object 0x55555d87df40 was not returned to mpool ucp_am_bufs
[1579598644.936561] [n004:109446:0]          mpool.c:38   UCX  WARN  object 0x1555394f4c60 was not returned to mpool mm_recv_desc
[1579598644.960009] [n004:109439:0]          mpool.c:38   UCX  WARN  object 0x55555886f080 was not returned to mpool ucp_am_bufs
[1579598644.975677] [n004:109440:0]          mpool.c:38   UCX  WARN  object 0x55555c42ce80 was not returned to mpool ucp_am_bufs
