 Data for JOB [14137,1] offset 0 Total slots allocated 8

 ========================   JOB MAP   ========================

 Data for node: n003	Num slots: 8	Max slots: 0	Num procs: 8
 	Process OMPI jobid: [14137,1] App: 0 Process rank: 0 Bound: socket 1[core 32[hwt 0-1]]:[../../../../../../../../../../../../../../../../../../../../../../../../../../../../../../../..][BB/../../../../../../../../../../../../../../../../../../../../../../../../../../../../../../..]
 	Process OMPI jobid: [14137,1] App: 0 Process rank: 1 Bound: socket 1[core 33[hwt 0-1]]:[../../../../../../../../../../../../../../../../../../../../../../../../../../../../../../../..][../BB/../../../../../../../../../../../../../../../../../../../../../../../../../../../../../..]
 	Process OMPI jobid: [14137,1] App: 0 Process rank: 2 Bound: socket 1[core 34[hwt 0-1]]:[../../../../../../../../../../../../../../../../../../../../../../../../../../../../../../../..][../../BB/../../../../../../../../../../../../../../../../../../../../../../../../../../../../..]
 	Process OMPI jobid: [14137,1] App: 0 Process rank: 3 Bound: socket 1[core 35[hwt 0-1]]:[../../../../../../../../../../../../../../../../../../../../../../../../../../../../../../../..][../../../BB/../../../../../../../../../../../../../../../../../../../../../../../../../../../..]
 	Process OMPI jobid: [14137,1] App: 0 Process rank: 4 Bound: socket 1[core 44[hwt 0-1]]:[../../../../../../../../../../../../../../../../../../../../../../../../../../../../../../../..][../../../../../../../../../../../../BB/../../../../../../../../../../../../../../../../../../..]
 	Process OMPI jobid: [14137,1] App: 0 Process rank: 5 Bound: socket 1[core 45[hwt 0-1]]:[../../../../../../../../../../../../../../../../../../../../../../../../../../../../../../../..][../../../../../../../../../../../../../BB/../../../../../../../../../../../../../../../../../..]
 	Process OMPI jobid: [14137,1] App: 0 Process rank: 6 Bound: socket 1[core 46[hwt 0-1]]:[../../../../../../../../../../../../../../../../../../../../../../../../../../../../../../../..][../../../../../../../../../../../../../../BB/../../../../../../../../../../../../../../../../..]
 	Process OMPI jobid: [14137,1] App: 0 Process rank: 7 Bound: socket 1[core 47[hwt 0-1]]:[../../../../../../../../../../../../../../../../../../../../../../../../../../../../../../../..][../../../../../../../../../../../../../../../BB/../../../../../../../../../../../../../../../..]

 =============================================================
Two group cota
0 1 3
0 2 2
0 3 1
1 2 0
1 3 3
1 0 2
2 3 1
2 0 0
2 1 3
3 0 2
3 1 1
3 2 0
4 5 7
4 6 6
4 7 5
5 6 4
5 7 7
5 4 6
6 7 5
6 4 4
6 5 7
7 4 6
7 5 5
7 6 4
dune-size 1 8.45899e-06 7.21539e-06 8.46659e-06 8.50829e-06 8.50999e-06 7.27809e-06 8.51969e-06 8.55349e-06 
dune-size 2 8.82018e-06 8.82928e-06 8.82318e-06 8.82998e-06 9.15168e-06 9.15008e-06 9.14918e-06 9.14888e-06 
dune-size 4 6.98519e-06 8.33169e-06 6.98429e-06 8.34119e-06 7.04599e-06 8.39719e-06 7.04139e-06 8.39389e-06 
dune-size 8 7.60109e-06 7.60059e-06 7.59929e-06 7.60339e-06 7.59779e-06 7.60959e-06 7.60459e-06 7.60959e-06 
dune-size 16 8.90379e-06 8.91749e-06 8.91439e-06 8.91259e-06 8.97639e-06 8.96799e-06 8.96769e-06 8.97919e-06 
dune-size 32 1.10771e-05 1.10837e-05 1.10786e-05 1.10809e-05 1.10726e-05 1.10737e-05 1.10837e-05 1.10826e-05 
dune-size 64 1.58186e-05 1.58256e-05 1.58312e-05 1.58359e-05 1.57886e-05 1.58198e-05 1.58174e-05 1.57966e-05 
dune-size 128 2.56006e-05 2.55631e-05 2.55754e-05 2.5568e-05 2.49789e-05 2.50016e-05 2.50013e-05 2.49794e-05 
dune-size 256 4.33639e-05 4.34013e-05 4.33862e-05 4.33712e-05 4.3365e-05 4.33455e-05 4.33391e-05 4.33391e-05 
dune-size 512 7.99202e-05 7.99006e-05 7.98956e-05 7.99115e-05 7.98574e-05 7.98678e-05 7.98837e-05 7.98571e-05 
dune-size 1024 0.000180691 0.000180693 0.00018092 0.00018111 0.000174612 0.000175027 0.000174822 0.000174611 
dune-size 2048 0.000323559 0.000323566 0.000324274 0.000323872 0.000325277 0.000325674 0.00032555 0.000325278 
dune-size 4096 0.000613469 0.000612616 0.000612618 0.000614229 0.000615106 0.000616806 0.000615947 0.000615112 
dune-size 8192 0.00119221 0.00119054 0.00119056 0.00119381 0.00119162 0.00119322 0.00119161 0.00119481 
dune-size 16384 0.00238549 0.00238517 0.00238519 0.00238504 0.00238518 0.00238516 0.00238499 0.00238588 
dune-size 32768 0.00483194 0.00483114 0.0048316 0.00483099 0.00481265 0.0048125 0.00481248 0.00481256 
dune-size 65536 0.00979242 0.00964221 0.00968943 0.00964221 0.0097584 0.00976014 0.00975925 0.0097584 
dune-size 131072 0.0197124 0.019712 0.0197123 0.0197122 0.0195478 0.0195472 0.0195476 0.0195472 
