 Data for JOB [43451,1] offset 0 Total slots allocated 2

 ========================   JOB MAP   ========================

 Data for node: n001	Num slots: 2	Max slots: 0	Num procs: 2
 	Process OMPI jobid: [43451,1] App: 0 Process rank: 0 Bound: socket 0[core 17[hwt 0-1]]:[../../../../../../../../../../../../../../../../../BB/../../../../../../../../../../../../../..][../../../../../../../../../../../../../../../../../../../../../../../../../../../../../../../..]
 	Process OMPI jobid: [43451,1] App: 0 Process rank: 1 Bound: socket 1[core 50[hwt 0-1]]:[../../../../../../../../../../../../../../../../../../../../../../../../../../../../../../../..][../../../../../../../../../../../../../../../../../../BB/../../../../../../../../../../../../..]

 =============================================================
dune-size 1 5.48049e-06 5.47549e-06 
dune-size 2 5.23179e-06 5.23619e-06 
dune-size 4 5.32779e-06 5.32609e-06 
dune-size 8 7.13218e-06 7.13748e-06 
dune-size 16 6.02228e-06 6.02008e-06 
dune-size 32 6.96798e-06 6.96648e-06 
dune-size 64 8.90138e-06 8.89928e-06 
dune-size 128 1.22228e-05 1.22322e-05 
dune-size 256 1.99448e-05 1.99489e-05 
dune-size 512 3.33375e-05 3.33407e-05 
dune-size 1024 0.000107026 0.000107007 
dune-size 2048 0.000197297 0.000197299 
dune-size 4096 0.000382398 0.000382379 
dune-size 8192 0.000655402 0.000655855 
dune-size 16384 0.000937945 0.000937965 
dune-size 32768 0.00169256 0.0016925 
dune-size 65536 0.00335914 0.00335794 
dune-size 131072 0.00661827 0.00661558 
dune-size 262144 0.0130845 0.0130955 
dune-size 524288 0.0259132 0.0259257 
dune-size 1048576 0.0513109 0.0513345 
