 Data for JOB [49171,1] offset 0 Total slots allocated 16

 ========================   JOB MAP   ========================

 Data for node: n004	Num slots: 16	Max slots: 0	Num procs: 16
 	Process OMPI jobid: [49171,1] App: 0 Process rank: 0 Bound: socket 0[core 0[hwt 0-1]]:[BB/../../../../../../../../../../../../../../../../../../../../../../../../../../../../../../..][../../../../../../../../../../../../../../../../../../../../../../../../../../../../../../../..]
 	Process OMPI jobid: [49171,1] App: 0 Process rank: 1 Bound: socket 0[core 1[hwt 0-1]]:[../BB/../../../../../../../../../../../../../../../../../../../../../../../../../../../../../..][../../../../../../../../../../../../../../../../../../../../../../../../../../../../../../../..]
 	Process OMPI jobid: [49171,1] App: 0 Process rank: 2 Bound: socket 0[core 8[hwt 0-1]]:[../../../../../../../../BB/../../../../../../../../../../../../../../../../../../../../../../..][../../../../../../../../../../../../../../../../../../../../../../../../../../../../../../../..]
 	Process OMPI jobid: [49171,1] App: 0 Process rank: 3 Bound: socket 0[core 9[hwt 0-1]]:[../../../../../../../../../BB/../../../../../../../../../../../../../../../../../../../../../..][../../../../../../../../../../../../../../../../../../../../../../../../../../../../../../../..]
 	Process OMPI jobid: [49171,1] App: 0 Process rank: 4 Bound: socket 0[core 16[hwt 0-1]]:[../../../../../../../../../../../../../../../../BB/../../../../../../../../../../../../../../..][../../../../../../../../../../../../../../../../../../../../../../../../../../../../../../../..]
 	Process OMPI jobid: [49171,1] App: 0 Process rank: 5 Bound: socket 0[core 17[hwt 0-1]]:[../../../../../../../../../../../../../../../../../BB/../../../../../../../../../../../../../..][../../../../../../../../../../../../../../../../../../../../../../../../../../../../../../../..]
 	Process OMPI jobid: [49171,1] App: 0 Process rank: 6 Bound: socket 0[core 24[hwt 0-1]]:[../../../../../../../../../../../../../../../../../../../../../../../../BB/../../../../../../..][../../../../../../../../../../../../../../../../../../../../../../../../../../../../../../../..]
 	Process OMPI jobid: [49171,1] App: 0 Process rank: 7 Bound: socket 0[core 25[hwt 0-1]]:[../../../../../../../../../../../../../../../../../../../../../../../../../BB/../../../../../..][../../../../../../../../../../../../../../../../../../../../../../../../../../../../../../../..]
 	Process OMPI jobid: [49171,1] App: 0 Process rank: 8 Bound: socket 1[core 32[hwt 0-1]]:[../../../../../../../../../../../../../../../../../../../../../../../../../../../../../../../..][BB/../../../../../../../../../../../../../../../../../../../../../../../../../../../../../../..]
 	Process OMPI jobid: [49171,1] App: 0 Process rank: 9 Bound: socket 1[core 33[hwt 0-1]]:[../../../../../../../../../../../../../../../../../../../../../../../../../../../../../../../..][../BB/../../../../../../../../../../../../../../../../../../../../../../../../../../../../../..]
 	Process OMPI jobid: [49171,1] App: 0 Process rank: 10 Bound: socket 1[core 40[hwt 0-1]]:[../../../../../../../../../../../../../../../../../../../../../../../../../../../../../../../..][../../../../../../../../BB/../../../../../../../../../../../../../../../../../../../../../../..]
 	Process OMPI jobid: [49171,1] App: 0 Process rank: 11 Bound: socket 1[core 41[hwt 0-1]]:[../../../../../../../../../../../../../../../../../../../../../../../../../../../../../../../..][../../../../../../../../../BB/../../../../../../../../../../../../../../../../../../../../../..]
 	Process OMPI jobid: [49171,1] App: 0 Process rank: 12 Bound: socket 1[core 48[hwt 0-1]]:[../../../../../../../../../../../../../../../../../../../../../../../../../../../../../../../..][../../../../../../../../../../../../../../../../BB/../../../../../../../../../../../../../../..]
 	Process OMPI jobid: [49171,1] App: 0 Process rank: 13 Bound: socket 1[core 49[hwt 0-1]]:[../../../../../../../../../../../../../../../../../../../../../../../../../../../../../../../..][../../../../../../../../../../../../../../../../../BB/../../../../../../../../../../../../../..]
 	Process OMPI jobid: [49171,1] App: 0 Process rank: 14 Bound: socket 1[core 56[hwt 0-1]]:[../../../../../../../../../../../../../../../../../../../../../../../../../../../../../../../..][../../../../../../../../../../../../../../../../../../../../../../../../BB/../../../../../../..]
 	Process OMPI jobid: [49171,1] App: 0 Process rank: 15 Bound: socket 1[core 57[hwt 0-1]]:[../../../../../../../../../../../../../../../../../../../../../../../../../../../../../../../..][../../../../../../../../../../../../../../../../../../../../../../../../../BB/../../../../../..]

 =============================================================
[1579248150.376271] [n004:49457:0]         mxm.c:196  MXM  WARN  The 'ulimit -s' on the system is set to 'unlimited'. This may have negative performance implications. Please set the stack size to the default value (10240) 
[1579248150.376851] [n004:49456:0]         mxm.c:196  MXM  WARN  The 'ulimit -s' on the system is set to 'unlimited'. This may have negative performance implications. Please set the stack size to the default value (10240) 
[1579248150.377097] [n004:49454:0]         mxm.c:196  MXM  WARN  The 'ulimit -s' on the system is set to 'unlimited'. This may have negative performance implications. Please set the stack size to the default value (10240) 
[1579248150.377208] [n004:49455:0]         mxm.c:196  MXM  WARN  The 'ulimit -s' on the system is set to 'unlimited'. This may have negative performance implications. Please set the stack size to the default value (10240) 
[1579248150.377485] [n004:49446:0]         mxm.c:196  MXM  WARN  The 'ulimit -s' on the system is set to 'unlimited'. This may have negative performance implications. Please set the stack size to the default value (10240) 
[1579248150.377543] [n004:49445:0]         mxm.c:196  MXM  WARN  The 'ulimit -s' on the system is set to 'unlimited'. This may have negative performance implications. Please set the stack size to the default value (10240) 
[1579248150.377573] [n004:49450:0]         mxm.c:196  MXM  WARN  The 'ulimit -s' on the system is set to 'unlimited'. This may have negative performance implications. Please set the stack size to the default value (10240) 
[1579248150.378954] [n004:49452:0]         mxm.c:196  MXM  WARN  The 'ulimit -s' on the system is set to 'unlimited'. This may have negative performance implications. Please set the stack size to the default value (10240) 
[1579248150.378954] [n004:49453:0]         mxm.c:196  MXM  WARN  The 'ulimit -s' on the system is set to 'unlimited'. This may have negative performance implications. Please set the stack size to the default value (10240) 
[1579248150.379896] [n004:49444:0]         mxm.c:196  MXM  WARN  The 'ulimit -s' on the system is set to 'unlimited'. This may have negative performance implications. Please set the stack size to the default value (10240) 
[1579248150.380029] [n004:49451:0]         mxm.c:196  MXM  WARN  The 'ulimit -s' on the system is set to 'unlimited'. This may have negative performance implications. Please set the stack size to the default value (10240) 
[1579248150.380493] [n004:49448:0]         mxm.c:196  MXM  WARN  The 'ulimit -s' on the system is set to 'unlimited'. This may have negative performance implications. Please set the stack size to the default value (10240) 
[1579248150.380573] [n004:49449:0]         mxm.c:196  MXM  WARN  The 'ulimit -s' on the system is set to 'unlimited'. This may have negative performance implications. Please set the stack size to the default value (10240) 
[1579248150.380637] [n004:49447:0]         mxm.c:196  MXM  WARN  The 'ulimit -s' on the system is set to 'unlimited'. This may have negative performance implications. Please set the stack size to the default value (10240) 
[1579248150.381479] [n004:49442:0]         mxm.c:196  MXM  WARN  The 'ulimit -s' on the system is set to 'unlimited'. This may have negative performance implications. Please set the stack size to the default value (10240) 
[1579248150.381479] [n004:49443:0]         mxm.c:196  MXM  WARN  The 'ulimit -s' on the system is set to 'unlimited'. This may have negative performance implications. Please set the stack size to the default value (10240) 
0: 1 

Rank 0 ghostCells: 1442
Rank 1 ghostCells: 1756
Rank 2 ghostCells: 843
Rank 3 ghostCells: 795
Rank 4 ghostCells: 664
Rank 5 ghostCells: 885
Rank 6 ghostCells: 622
Rank 7 ghostCells: 831
Rank 8 ghostCells: 1767
Rank 9 ghostCells: 1172
Rank 10 ghostCells: 1378
Rank 11 ghostCells: 2091
Rank 12 ghostCells: 846
Rank 13 ghostCells: 3045
Rank 14 ghostCells: 560
Rank 15 ghostCells: 1597

Rank 0 numCells: 4474
Rank 1 numCells: 4744
Rank 2 numCells: 3705
Rank 3 numCells: 3581
Rank 4 numCells: 3648
Rank 5 numCells: 3722
Rank 6 numCells: 3661
Rank 7 numCells: 3258
Rank 8 numCells: 4738
Rank 9 numCells: 4178
Rank 10 numCells: 4129
Rank 11 numCells: 4788
Rank 12 numCells: 3560
Rank 13 numCells: 5950
Rank 14 numCells: 1984
Rank 15 numCells: 4605

Rank 0 interiorCells: 3032
Rank 1 interiorCells: 2988
Rank 2 interiorCells: 2862
Rank 3 interiorCells: 2786
Rank 4 interiorCells: 2984
Rank 5 interiorCells: 2837
Rank 6 interiorCells: 3039
Rank 7 interiorCells: 2427
Rank 8 interiorCells: 2971
Rank 9 interiorCells: 3006
Rank 10 interiorCells: 2751
Rank 11 interiorCells: 2697
Rank 12 interiorCells: 2714
Rank 13 interiorCells: 2905
Rank 14 interiorCells: 1424
Rank 15 interiorCells: 3008

MeasComm+1 16: 0.00017625 0.0002227 0.00013066 0.00010591 0.000144381 0.000141601 0.00013231 0.00014679 0.000190931 0.000161861 0.000168001 0.0002226 0.00013707 0.00026047 0.00014118 0.000175191 
MeasComm+1 16: 0.0001733 0.00022016 0.00012276 0.00010357 0.0001485 0.000145091 0.00013665 0.0001522 0.00018866 0.00016566 0.00016823 0.00021774 0.00013978 0.00025478 0.00014329 0.000178291 
MeasComm+1 16: 0.00017747 0.00021137 0.00012687 0.000106831 0.00013484 0.00014682 0.00012856 0.00013782 0.00018207 0.0001563 0.00015659 0.00022273 0.00012661 0.00025309 0.000134501 0.00016574 
MeasComm+1 16: 0.00016739 0.000216071 0.00012394 0.00010497 0.00014599 0.00014462 0.00013223 0.00014844 0.0001925 0.00016 0.00016362 0.00021651 0.00013748 0.00025516 0.0001361 0.00017284 
MeasComm+1 16: 0.00017206 0.000217101 0.00012357 0.00010248 0.000146701 0.000145291 0.000132521 0.00014891 0.000192221 0.000160741 0.000168051 0.000222491 0.000134781 0.000252621 0.00013684 0.000174561 
MeasComm+1 16: 0.00017413 0.00022242 0.00012491 0.00010672 0.0001454 0.00014573 0.00013246 0.00015291 0.00019149 0.00016503 0.00017168 0.00021834 0.00013431 0.00025681 0.00013773 0.00017758 
MeasComm+1 16: 0.00017467 0.000218081 0.00012002 0.00010586 0.000144691 0.000147651 0.00013224 0.00015024 0.000195361 0.000163681 0.0001681 0.000216911 0.00013788 0.000254651 0.000139891 0.00016714 
MeasComm+1 16: 0.00017454 0.00022166 0.000124131 0.00010421 0.00014428 0.00015161 0.0001276 0.00014456 0.00018912 0.00016653 0.00016749 0.000219481 0.0001368 0.00024761 0.00013548 0.00018476 
MeasComm+1 16: 0.00017754 0.00022086 0.00012415 0.00010716 0.000144 0.00014029 0.00013198 0.00014312 0.00019026 0.0001647 0.00016415 0.00021941 0.00013397 0.00025531 0.00013749 0.00017233 
MeasComm+1 16: 0.00017258 0.000223091 0.00012677 0.00010662 0.000146731 0.000144341 0.000134201 0.000147611 0.000190681 0.000154381 0.000168671 0.00021865 0.0001407 0.00025766 0.000140551 0.000173011 

MeasCopy 16: 6.761e-05 8.23e-05 3.951e-05 3.729e-05 3.109e-05 4.153e-05 2.911e-05 3.895e-05 8.284e-05 5.495e-05 6.464e-05 9.802e-05 3.967e-05 0.00014276 2.625e-05 7.487e-05 
MeasCopy 16: 6.76e-05 8.234e-05 3.951e-05 3.723e-05 3.1111e-05 4.153e-05 2.914e-05 3.894e-05 8.284e-05 5.49e-05 6.459e-05 9.802e-05 3.966e-05 0.00014273 2.625e-05 7.49e-05 
MeasCopy 16: 6.766e-05 8.227e-05 3.95e-05 3.727e-05 3.113e-05 4.151e-05 2.908e-05 3.895e-05 8.286e-05 5.492e-05 6.469e-05 9.7931e-05 3.964e-05 0.00014276 2.624e-05 7.4931e-05 
MeasCopy 16: 6.759e-05 8.2311e-05 3.951e-05 3.728e-05 3.111e-05 4.158e-05 2.915e-05 3.894e-05 8.277e-05 5.491e-05 6.464e-05 9.803e-05 3.963e-05 0.00014279 2.626e-05 7.489e-05 
MeasCopy 16: 6.759e-05 8.236e-05 3.949e-05 3.725e-05 3.115e-05 4.151e-05 2.915e-05 3.897e-05 8.283e-05 5.493e-05 6.466e-05 9.795e-05 3.966e-05 0.000142791 2.625e-05 7.485e-05 
MeasCopy 16: 6.759e-05 8.232e-05 3.953e-05 3.727e-05 3.111e-05 4.151e-05 2.918e-05 3.897e-05 8.285e-05 5.4931e-05 6.466e-05 9.801e-05 3.9651e-05 0.00014276 2.625e-05 7.482e-05 
MeasCopy 16: 6.763e-05 8.236e-05 3.952e-05 3.727e-05 3.109e-05 4.156e-05 2.917e-05 3.9e-05 8.285e-05 5.49e-05 6.468e-05 9.807e-05 3.963e-05 0.00014285 2.626e-05 7.487e-05 
MeasCopy 16: 6.761e-05 8.2351e-05 3.954e-05 3.726e-05 3.109e-05 4.151e-05 2.915e-05 3.894e-05 8.281e-05 5.496e-05 6.472e-05 9.806e-05 3.9661e-05 0.000142801 2.623e-05 7.487e-05 
MeasCopy 16: 6.762e-05 8.229e-05 3.95e-05 3.721e-05 3.112e-05 4.154e-05 2.915e-05 3.895e-05 8.281e-05 5.4951e-05 6.467e-05 9.808e-05 3.964e-05 0.000142751 2.624e-05 7.487e-05 
MeasCopy 16: 6.761e-05 8.233e-05 3.954e-05 3.726e-05 3.1e-05 4.158e-05 2.915e-05 3.899e-05 8.282e-05 5.495e-05 6.471e-05 9.8061e-05 3.965e-05 0.00014279 2.625e-05 7.488e-05 

ComTab rank 0: 0 867 367 172 0 45 0 0 140 64 0 49 0 58 0 80 
ComTab rank 1: 810 0 168 199 79 9 0 50 204 29 29 67 0 383 0 198 
ComTab rank 2: 329 146 0 272 0 64 0 0 0 0 0 0 0 0 0 344 
ComTab rank 3: 295 172 253 0 0 75 0 0 61 0 0 0 0 0 0 179 
ComTab rank 4: 0 22 0 0 0 5 140 72 0 0 80 0 0 293 162 12 
ComTab rank 5: 89 9 77 83 11 0 351 349 0 0 0 0 0 27 5 12 
ComTab rank 6: 0 0 0 0 141 244 0 231 0 0 0 0 0 106 0 0 
ComTab rank 7: 0 74 0 0 131 310 272 0 40 0 24 11 0 33 44 37 
ComTab rank 8: 136 205 0 38 0 0 0 27 0 313 338 288 0 738 51 201 
ComTab rank 9: 66 29 0 0 0 0 0 0 310 0 110 476 257 65 1 103 
ComTab rank 10: 0 14 0 0 80 0 0 22 307 110 0 268 152 576 154 116 
ComTab rank 11: 44 65 0 0 0 0 0 10 275 451 262 0 356 994 25 201 
ComTab rank 12: 0 0 0 0 0 0 0 0 0 262 148 404 0 79 4 153 
ComTab rank 13: 57 480 0 0 366 28 110 34 684 61 587 1118 73 0 89 77 
ComTab rank 14: 0 0 0 0 170 4 0 32 46 1 141 24 4 86 0 215 
ComTab rank 15: 68 218 435 191 9 15 0 36 212 93 125 218 181 86 226 0 

Edge-cut: 16193

Wgt-cut: 7.33318e-09

[1579248164.666788] [n004:49446:0]          mpool.c:38   UCX  WARN  object 0x1555441088e0 was not returned to mpool mm_recv_desc
[1579248164.709797] [n004:49444:0]          mpool.c:38   UCX  WARN  object 0x155544122f60 was not returned to mpool mm_recv_desc
[1579248164.743875] [n004:49450:0]          mpool.c:38   UCX  WARN  object 0x15554410ea60 was not returned to mpool mm_recv_desc
[1579248164.757921] [n004:49443:0]          mpool.c:38   UCX  WARN  object 0x1555394fade0 was not returned to mpool mm_recv_desc
