 Data for JOB [31280,1] offset 0 Total slots allocated 4

 ========================   JOB MAP   ========================

 Data for node: n004	Num slots: 4	Max slots: 0	Num procs: 4
 	Process OMPI jobid: [31280,1] App: 0 Process rank: 0 Bound: socket 0[core 17[hwt 0-1]]:[../../../../../../../../../../../../../../../../../BB/../../../../../../../../../../../../../..][../../../../../../../../../../../../../../../../../../../../../../../../../../../../../../../..]
 	Process OMPI jobid: [31280,1] App: 0 Process rank: 1 Bound: socket 1[core 35[hwt 0-1]]:[../../../../../../../../../../../../../../../../../../../../../../../../../../../../../../../..][../../../BB/../../../../../../../../../../../../../../../../../../../../../../../../../../../..]
 	Process OMPI jobid: [31280,1] App: 0 Process rank: 2 Bound: socket 0[core 18[hwt 0-1]]:[../../../../../../../../../../../../../../../../../../BB/../../../../../../../../../../../../..][../../../../../../../../../../../../../../../../../../../../../../../../../../../../../../../..]
 	Process OMPI jobid: [31280,1] App: 0 Process rank: 3 Bound: socket 1[core 36[hwt 0-1]]:[../../../../../../../../../../../../../../../../../../../../../../../../../../../../../../../..][../../../../BB/../../../../../../../../../../../../../../../../../../../../../../../../../../..]

 =============================================================
3 2 2
Two group cota
0 1 1
2 3 3
1 0 0
dune-size 1 8.83211e-06 8.83421e-06 8.73621e-06 8.73041e-06 
dune-size 2 8.76921e-06 8.35981e-06 8.79501e-06 8.38451e-06 
dune-size 4 8.96661e-06 8.97271e-06 9.05561e-06 9.06861e-06 
dune-size 8 8.51791e-06 8.51231e-06 8.64531e-06 8.64321e-06 
dune-size 16 7.59841e-06 7.58491e-06 7.49921e-06 7.49341e-06 
dune-size 32 8.86511e-06 8.85901e-06 8.92031e-06 8.92831e-06 
dune-size 64 1.12662e-05 1.12522e-05 1.15669e-05 1.15644e-05 
dune-size 128 1.3222e-05 1.32128e-05 1.74206e-05 1.74088e-05 
dune-size 256 1.99414e-05 1.99384e-05 1.99401e-05 1.99355e-05 
dune-size 512 3.52579e-05 3.52521e-05 3.55913e-05 3.55913e-05 
dune-size 1024 0.000108012 0.000108026 0.000109049 0.000109071 
dune-size 2048 0.000202907 0.000202951 0.000201738 0.000201747 
dune-size 4096 0.000390381 0.000390439 0.000389784 0.000389833 
dune-size 8192 0.000665756 0.000665795 0.000658825 0.000658891 
dune-size 16384 0.000988761 0.000988842 0.000977034 0.000977117 
dune-size 32768 0.0016579 0.00165808 0.00166847 0.00166866 
dune-size 65536 0.00329622 0.00329943 0.00328887 0.003293 
dune-size 131072 0.00644752 0.00645296 0.00653146 0.00653769 
