 Data for JOB [45943,1] offset 0 Total slots allocated 2

 ========================   JOB MAP   ========================

 Data for node: n001	Num slots: 2	Max slots: 0	Num procs: 2
 	Process OMPI jobid: [45943,1] App: 0 Process rank: 0 Bound: socket 1[core 33[hwt 0-1]]:[../../../../../../../../../../../../../../../../../../../../../../../../../../../../../../../..][../BB/../../../../../../../../../../../../../../../../../../../../../../../../../../../../../..]
 	Process OMPI jobid: [45943,1] App: 0 Process rank: 1 Bound: socket 1[core 50[hwt 0-1]]:[../../../../../../../../../../../../../../../../../../../../../../../../../../../../../../../..][../../../../../../../../../../../../../../../../../../BB/../../../../../../../../../../../../..]

 =============================================================
dune-size 1 4.18009e-06 4.18269e-06 
dune-size 2 3.96309e-06 3.96189e-06 
dune-size 4 4.14269e-06 4.14139e-06 
dune-size 8 4.35749e-06 4.35709e-06 
dune-size 16 4.75899e-06 4.75759e-06 
dune-size 32 5.49888e-06 5.50198e-06 
dune-size 64 7.17238e-06 7.17168e-06 
dune-size 128 1.06563e-05 1.06496e-05 
dune-size 256 1.81221e-05 1.81181e-05 
dune-size 512 3.05272e-05 3.0533e-05 
dune-size 1024 8.67334e-05 8.67432e-05 
dune-size 2048 0.000156434 0.000156443 
dune-size 4096 0.000305094 0.000305103 
dune-size 8192 0.000557252 0.000557253 
dune-size 16384 0.000886126 0.000886113 
dune-size 32768 0.0016361 0.00163611 
dune-size 65536 0.00323285 0.00323342 
dune-size 131072 0.00640718 0.00640833 
dune-size 262144 0.0128069 0.0128095 
dune-size 524288 0.0254373 0.0254352 
dune-size 1048576 0.050767 0.0507304 
