 Data for JOB [63535,1] offset 0 Total slots allocated 2

 ========================   JOB MAP   ========================

 Data for node: n001	Num slots: 2	Max slots: 0	Num procs: 2
 	Process OMPI jobid: [63535,1] App: 0 Process rank: 0 Bound: socket 1[core 41[hwt 0-1]]:[../../../../../../../../../../../../../../../../../../../../../../../../../../../../../../../..][../../../../../../../../../BB/../../../../../../../../../../../../../../../../../../../../../..]
 	Process OMPI jobid: [63535,1] App: 0 Process rank: 1 Bound: socket 0[core 2[hwt 0-1]]:[../../BB/../../../../../../../../../../../../../../../../../../../../../../../../../../../../..][../../../../../../../../../../../../../../../../../../../../../../../../../../../../../../../..]

 =============================================================
dune-size 1 5.68628e-06 5.69098e-06 
dune-size 2 5.35749e-06 5.35369e-06 
dune-size 4 7.31198e-06 5.53908e-06 
dune-size 8 5.71718e-06 5.72188e-06 
dune-size 16 6.05908e-06 6.05628e-06 
dune-size 32 6.81539e-06 6.81679e-06 
dune-size 64 8.68768e-06 8.68868e-06 
dune-size 128 1.21965e-05 1.21873e-05 
dune-size 256 1.95757e-05 1.95754e-05 
dune-size 512 3.28786e-05 3.28799e-05 
dune-size 1024 0.000108853 0.000108855 
dune-size 2048 0.000199063 0.000199035 
dune-size 4096 0.000379985 0.000379962 
dune-size 8192 0.000665575 0.000665598 
dune-size 16384 0.000979304 0.000979276 
dune-size 32768 0.00171384 0.00171379 
dune-size 65536 0.00331833 0.00331777 
dune-size 131072 0.00657775 0.00655544 
dune-size 262144 0.0129965 0.0129975 
dune-size 524288 0.0257984 0.0257854 
dune-size 1048576 0.051408 0.0513964 
