 Data for JOB [48365,1] offset 0 Total slots allocated 2

 ========================   JOB MAP   ========================

 Data for node: n001	Num slots: 2	Max slots: 0	Num procs: 2
 	Process OMPI jobid: [48365,1] App: 0 Process rank: 0 Bound: socket 1[core 57[hwt 0-1]]:[../../../../../../../../../../../../../../../../../../../../../../../../../../../../../../../..][../../../../../../../../../../../../../../../../../../../../../../../../../BB/../../../../../..]
 	Process OMPI jobid: [48365,1] App: 0 Process rank: 1 Bound: socket 0[core 18[hwt 0-1]]:[../../../../../../../../../../../../../../../../../../BB/../../../../../../../../../../../../..][../../../../../../../../../../../../../../../../../../../../../../../../../../../../../../../..]

 =============================================================
dune-size 1 5.26319e-06 5.25939e-06 
dune-size 2 5.09539e-06 5.09729e-06 
dune-size 4 5.25999e-06 5.26049e-06 
dune-size 8 5.41668e-06 5.41468e-06 
dune-size 16 5.97508e-06 5.97508e-06 
dune-size 32 6.74579e-06 6.74119e-06 
dune-size 64 8.55558e-06 8.55588e-06 
dune-size 128 1.19349e-05 1.19345e-05 
dune-size 256 1.90624e-05 1.90636e-05 
dune-size 512 3.34643e-05 3.34715e-05 
dune-size 1024 0.000104429 0.000104456 
dune-size 2048 0.000198429 0.000198404 
dune-size 4096 0.000379392 0.000379364 
dune-size 8192 0.000659989 0.000659917 
dune-size 16384 0.00096828 0.000968097 
dune-size 32768 0.00168189 0.00168181 
dune-size 65536 0.0034179 0.00341443 
dune-size 131072 0.00666954 0.00665931 
dune-size 262144 0.0130723 0.0130645 
dune-size 524288 0.0261024 0.0260896 
dune-size 1048576 0.0517083 0.0516995 
