 Data for JOB [52510,1] offset 0 Total slots allocated 2

 ========================   JOB MAP   ========================

 Data for node: n001	Num slots: 2	Max slots: 0	Num procs: 2
 	Process OMPI jobid: [52510,1] App: 0 Process rank: 0 Bound: socket 0[core 1[hwt 0-1]]:[../BB/../../../../../../../../../../../../../../../../../../../../../../../../../../../../../..][../../../../../../../../../../../../../../../../../../../../../../../../../../../../../../../..]
 	Process OMPI jobid: [52510,1] App: 0 Process rank: 1 Bound: socket 0[core 18[hwt 0-1]]:[../../../../../../../../../../../../../../../../../../BB/../../../../../../../../../../../../..][../../../../../../../../../../../../../../../../../../../../../../../../../../../../../../../..]

 =============================================================
dune-size 1 4.11499e-06 4.11589e-06 
dune-size 2 3.95199e-06 3.95379e-06 
dune-size 4 5.15558e-06 5.15068e-06 
dune-size 8 4.27439e-06 4.27519e-06 
dune-size 16 4.64739e-06 4.64689e-06 
dune-size 32 5.44949e-06 5.44769e-06 
dune-size 64 7.27948e-06 7.29288e-06 
dune-size 128 1.05119e-05 1.05106e-05 
dune-size 256 1.73753e-05 1.73736e-05 
dune-size 512 3.11298e-05 3.11166e-05 
dune-size 1024 9.04461e-05 9.04327e-05 
dune-size 2048 0.00015622 0.000156229 
dune-size 4096 0.000302932 0.000302945 
dune-size 8192 0.000548611 0.000548597 
dune-size 16384 0.000875025 0.00087501 
dune-size 32768 0.00163043 0.00163036 
dune-size 65536 0.0032333 0.00323194 
dune-size 131072 0.00638532 0.006385 
dune-size 262144 0.0129419 0.0129693 
dune-size 524288 0.0254539 0.0254538 
dune-size 1048576 0.0513058 0.0512343 
