 Data for JOB [64427,1] offset 0 Total slots allocated 2

 ========================   JOB MAP   ========================

 Data for node: n001	Num slots: 2	Max slots: 0	Num procs: 2
 	Process OMPI jobid: [64427,1] App: 0 Process rank: 0 Bound: socket 1[core 41[hwt 0-1]]:[../../../../../../../../../../../../../../../../../../../../../../../../../../../../../../../..][../../../../../../../../../BB/../../../../../../../../../../../../../../../../../../../../../..]
 	Process OMPI jobid: [64427,1] App: 0 Process rank: 1 Bound: socket 0[core 10[hwt 0-1]]:[../../../../../../../../../../BB/../../../../../../../../../../../../../../../../../../../../..][../../../../../../../../../../../../../../../../../../../../../../../../../../../../../../../..]

 =============================================================
dune-size 1 5.57719e-06 5.57689e-06 
dune-size 2 6.50618e-06 6.51228e-06 
dune-size 4 5.51429e-06 5.50989e-06 
dune-size 8 5.77239e-06 5.77629e-06 
dune-size 16 6.21709e-06 6.22129e-06 
dune-size 32 7.15748e-06 7.15308e-06 
dune-size 64 8.95238e-06 8.95448e-06 
dune-size 128 1.25764e-05 1.25886e-05 
dune-size 256 2.08727e-05 2.087e-05 
dune-size 512 3.35649e-05 3.35662e-05 
dune-size 1024 0.000107062 0.000107054 
dune-size 2048 0.000200721 0.000200712 
dune-size 4096 0.000383265 0.000383252 
dune-size 8192 0.000656905 0.000656858 
dune-size 16384 0.000906763 0.000906687 
dune-size 32768 0.0016765 0.0016764 
dune-size 65536 0.00334252 0.00334029 
dune-size 131072 0.00643662 0.00643678 
dune-size 262144 0.0129588 0.0129564 
dune-size 524288 0.0258434 0.0258281 
dune-size 1048576 0.0514082 0.0513946 
