[1578471058.427142] [srl-mds1:14460:0]         mxm.c:196  MXM  WARN  The 'ulimit -s' on the system is set to 'unlimited'. This may have negative performance implications. Please set the stack size to the default value (10240) 
[1578471058.427249] [srl-mds1:14459:0]         mxm.c:196  MXM  WARN  The 'ulimit -s' on the system is set to 'unlimited'. This may have negative performance implications. Please set the stack size to the default value (10240) 
[1578471058.430035] [srl-mds1:14457:0]         mxm.c:196  MXM  WARN  The 'ulimit -s' on the system is set to 'unlimited'. This may have negative performance implications. Please set the stack size to the default value (10240) 
[1578471058.430134] [srl-mds1:14458:0]         mxm.c:196  MXM  WARN  The 'ulimit -s' on the system is set to 'unlimited'. This may have negative performance implications. Please set the stack size to the default value (10240) 
0: 1 
After loadbalancing process 3 has 11991 cells.
After loadbalancing process 2 has 14089 cells.
After loadbalancing process 1 has 13817 cells.
After loadbalancing process 0 has 15015 cells.

Rank 0 ghostCells: 2800
Rank 1 ghostCells: 3841
Rank 2 ghostCells: 2044
Rank 3 ghostCells: 1796

Rank 0 numCells: 15015
Rank 1 numCells: 13817
Rank 2 numCells: 14089
Rank 3 numCells: 11991

Rank 0 interiorCells: 12215
Rank 1 interiorCells: 9976
Rank 2 interiorCells: 12045
Rank 3 interiorCells: 10195

ComTab rank 0: 0 1786 565 753 
ComTab rank 1: 1933 0 1316 811 
ComTab rank 2: 489 1127 0 679 
ComTab rank 3: 568 657 705 0 

Edge-cut: 8822

Wgt-cut: 2.52833e-09

[1578471061.795111] [srl-mds1:14458:0]          mpool.c:38   UCX  WARN  object 0x1555394feee0 was not returned to mpool mm_recv_desc
[1578471061.795918] [srl-mds1:14459:0]          mpool.c:38   UCX  WARN  object 0x155539500f60 was not returned to mpool mm_recv_desc
[1578471061.796099] [srl-mds1:14460:0]          mpool.c:38   UCX  WARN  object 0x1555394fce60 was not returned to mpool mm_recv_desc
[1578476416.515270] [srl-mds1:29516:0]         mxm.c:196  MXM  WARN  The 'ulimit -s' on the system is set to 'unlimited'. This may have negative performance implications. Please set the stack size to the default value (10240) 
[1578476416.515368] [srl-mds1:29517:0]         mxm.c:196  MXM  WARN  The 'ulimit -s' on the system is set to 'unlimited'. This may have negative performance implications. Please set the stack size to the default value (10240) 
[1578476416.515400] [srl-mds1:29515:0]         mxm.c:196  MXM  WARN  The 'ulimit -s' on the system is set to 'unlimited'. This may have negative performance implications. Please set the stack size to the default value (10240) 
[1578476416.515491] [srl-mds1:29514:0]         mxm.c:196  MXM  WARN  The 'ulimit -s' on the system is set to 'unlimited'. This may have negative performance implications. Please set the stack size to the default value (10240) 
0: 1 
After loadbalancing process 3 has 11991 cells.
After loadbalancing process 2 has 14089 cells.
After loadbalancing process 0 has 15015 cells.
After loadbalancing process 1 has 13817 cells.

Rank 0 ghostCells: 2800
Rank 1 ghostCells: 3841
Rank 2 ghostCells: 2044
Rank 3 ghostCells: 1796

Rank 0 numCells: 15015
Rank 1 numCells: 13817
Rank 2 numCells: 14089
Rank 3 numCells: 11991

Rank 0 interiorCells: 12215
Rank 1 interiorCells: 9976
Rank 2 interiorCells: 12045
Rank 3 interiorCells: 10195

ComTab rank 0: 0 1786 565 753 
ComTab rank 1: 1933 0 1316 811 
ComTab rank 2: 489 1127 0 679 
ComTab rank 3: 568 657 705 0 

Edge-cut: 8822

Wgt-cut: 2.52833e-09

[1578476419.984618] [srl-mds1:29516:0]          mpool.c:38   UCX  WARN  object 0x155539500f60 was not returned to mpool mm_recv_desc
[1578476419.984959] [srl-mds1:29517:0]          mpool.c:38   UCX  WARN  object 0x55555c1ca000 was not returned to mpool ucp_am_bufs
[1578476419.985317] [srl-mds1:29515:0]          mpool.c:38   UCX  WARN  object 0x155544c6eee0 was not returned to mpool mm_recv_desc
