[1578476958.335992] [srl-adm2:7901 :0]         mxm.c:196  MXM  WARN  The 'ulimit -s' on the system is set to 'unlimited'. This may have negative performance implications. Please set the stack size to the default value (10240) 
[1578476958.336207] [srl-adm2:7902 :0]         mxm.c:196  MXM  WARN  The 'ulimit -s' on the system is set to 'unlimited'. This may have negative performance implications. Please set the stack size to the default value (10240) 
0: 10 
Edge Weight Method: 10
Cell on rank 0: 21449
Cell on rank 1: 22982
Edge-cut: 607
After loadbalancing process 0 has 21993 cells.
After loadbalancing process 1 has 23530 cells.

Rank 0 ghostCells: 544
Rank 1 ghostCells: 548

Rank 0 numCells: 21993
Rank 1 numCells: 23530

Rank 0 interiorCells: 21449
Rank 1 interiorCells: 22982

ComTab rank 0: 0 544 
ComTab rank 1: 548 0 

Edge-cut: 677

Wgt-cut: 3.55789e-09

[1578476962.089222] [srl-adm2:7902 :0]          mpool.c:38   UCX  WARN  object 0x55555c308240 was not returned to mpool ucp_am_bufs
