 Data for JOB [11934,1] offset 0 Total slots allocated 4

 ========================   JOB MAP   ========================

 Data for node: n003	Num slots: 4	Max slots: 0	Num procs: 4
 	Process OMPI jobid: [11934,1] App: 0 Process rank: 0 Bound: socket 0[core 9[hwt 0-1]]:[../../../../../../../../../BB/../../../../../../../../../../../../../../../../../../../../../..][../../../../../../../../../../../../../../../../../../../../../../../../../../../../../../../..]
 	Process OMPI jobid: [11934,1] App: 0 Process rank: 1 Bound: socket 1[core 59[hwt 0-1]]:[../../../../../../../../../../../../../../../../../../../../../../../../../../../../../../../..][../../../../../../../../../../../../../../../../../../../../../../../../../../../BB/../../../..]
 	Process OMPI jobid: [11934,1] App: 0 Process rank: 2 Bound: socket 1[core 60[hwt 0-1]]:[../../../../../../../../../../../../../../../../../../../../../../../../../../../../../../../..][../../../../../../../../../../../../../../../../../../../../../../../../../../../../BB/../../..]
 	Process OMPI jobid: [11934,1] App: 0 Process rank: 3 Bound: socket 0[core 10[hwt 0-1]]:[../../../../../../../../../../BB/../../../../../../../../../../../../../../../../../../../../..][../../../../../../../../../../../../../../../../../../../../../../../../../../../../../../../..]

 =============================================================
1 0 0
Two group cota
0 1 1
3 2 2
2 3 3
dune-size 1 5.03719e-06 5.04379e-06 5.18629e-06 5.19549e-06 
dune-size 2 4.84309e-06 4.83999e-06 4.87769e-06 4.87539e-06 
dune-size 4 4.94049e-06 4.94509e-06 5.04749e-06 5.05089e-06 
dune-size 8 5.29229e-06 5.29579e-06 5.25489e-06 5.25379e-06 
dune-size 16 5.63759e-06 5.63559e-06 5.65459e-06 5.65509e-06 
dune-size 32 6.35348e-06 6.35788e-06 6.42738e-06 6.43228e-06 
dune-size 64 8.29678e-06 8.29908e-06 8.37178e-06 8.36978e-06 
dune-size 128 1.14581e-05 1.14544e-05 1.14344e-05 1.14318e-05 
dune-size 256 1.88546e-05 1.88484e-05 1.88989e-05 1.88675e-05 
dune-size 512 3.21385e-05 3.21443e-05 3.21187e-05 3.21144e-05 
dune-size 1024 0.00010233 0.000102343 0.000102608 0.000102616 
dune-size 2048 0.000192773 0.000192781 0.000192563 0.000192559 
dune-size 4096 0.000364025 0.000364045 0.000368783 0.000368781 
dune-size 8192 0.000615251 0.000615316 0.000617559 0.000617513 
dune-size 16384 0.000969155 0.000969323 0.000986019 0.000986026 
dune-size 32768 0.00167051 0.00167066 0.00168703 0.00168688 
dune-size 65536 0.00333855 0.0033401 0.00333312 0.00333057 
dune-size 131072 0.00658289 0.00658078 0.00661448 0.00661612 
