 Data for JOB [39411,1] offset 0 Total slots allocated 32

 ========================   JOB MAP   ========================

 Data for node: srl-adm2	Num slots: 32	Max slots: 0	Num procs: 32
 	Process OMPI jobid: [39411,1] App: 0 Process rank: 0 Bound: socket 0[core 0[hwt 0-1]]:[BB/../../../../../../../../../../../../../../..][../../../../../../../../../../../../../../../..]
 	Process OMPI jobid: [39411,1] App: 0 Process rank: 1 Bound: socket 0[core 1[hwt 0-1]]:[../BB/../../../../../../../../../../../../../..][../../../../../../../../../../../../../../../..]
 	Process OMPI jobid: [39411,1] App: 0 Process rank: 2 Bound: socket 0[core 2[hwt 0-1]]:[../../BB/../../../../../../../../../../../../..][../../../../../../../../../../../../../../../..]
 	Process OMPI jobid: [39411,1] App: 0 Process rank: 3 Bound: socket 0[core 3[hwt 0-1]]:[../../../BB/../../../../../../../../../../../..][../../../../../../../../../../../../../../../..]
 	Process OMPI jobid: [39411,1] App: 0 Process rank: 4 Bound: socket 0[core 4[hwt 0-1]]:[../../../../BB/../../../../../../../../../../..][../../../../../../../../../../../../../../../..]
 	Process OMPI jobid: [39411,1] App: 0 Process rank: 5 Bound: socket 0[core 5[hwt 0-1]]:[../../../../../BB/../../../../../../../../../..][../../../../../../../../../../../../../../../..]
 	Process OMPI jobid: [39411,1] App: 0 Process rank: 6 Bound: socket 0[core 6[hwt 0-1]]:[../../../../../../BB/../../../../../../../../..][../../../../../../../../../../../../../../../..]
 	Process OMPI jobid: [39411,1] App: 0 Process rank: 7 Bound: socket 0[core 7[hwt 0-1]]:[../../../../../../../BB/../../../../../../../..][../../../../../../../../../../../../../../../..]
 	Process OMPI jobid: [39411,1] App: 0 Process rank: 8 Bound: socket 0[core 8[hwt 0-1]]:[../../../../../../../../BB/../../../../../../..][../../../../../../../../../../../../../../../..]
 	Process OMPI jobid: [39411,1] App: 0 Process rank: 9 Bound: socket 0[core 9[hwt 0-1]]:[../../../../../../../../../BB/../../../../../..][../../../../../../../../../../../../../../../..]
 	Process OMPI jobid: [39411,1] App: 0 Process rank: 10 Bound: socket 0[core 10[hwt 0-1]]:[../../../../../../../../../../BB/../../../../..][../../../../../../../../../../../../../../../..]
 	Process OMPI jobid: [39411,1] App: 0 Process rank: 11 Bound: socket 0[core 11[hwt 0-1]]:[../../../../../../../../../../../BB/../../../..][../../../../../../../../../../../../../../../..]
 	Process OMPI jobid: [39411,1] App: 0 Process rank: 12 Bound: socket 0[core 12[hwt 0-1]]:[../../../../../../../../../../../../BB/../../..][../../../../../../../../../../../../../../../..]
 	Process OMPI jobid: [39411,1] App: 0 Process rank: 13 Bound: socket 0[core 13[hwt 0-1]]:[../../../../../../../../../../../../../BB/../..][../../../../../../../../../../../../../../../..]
 	Process OMPI jobid: [39411,1] App: 0 Process rank: 14 Bound: socket 0[core 14[hwt 0-1]]:[../../../../../../../../../../../../../../BB/..][../../../../../../../../../../../../../../../..]
 	Process OMPI jobid: [39411,1] App: 0 Process rank: 15 Bound: socket 0[core 15[hwt 0-1]]:[../../../../../../../../../../../../../../../BB][../../../../../../../../../../../../../../../..]
 	Process OMPI jobid: [39411,1] App: 0 Process rank: 16 Bound: socket 1[core 16[hwt 0-1]]:[../../../../../../../../../../../../../../../..][BB/../../../../../../../../../../../../../../..]
 	Process OMPI jobid: [39411,1] App: 0 Process rank: 17 Bound: socket 1[core 17[hwt 0-1]]:[../../../../../../../../../../../../../../../..][../BB/../../../../../../../../../../../../../..]
 	Process OMPI jobid: [39411,1] App: 0 Process rank: 18 Bound: socket 1[core 18[hwt 0-1]]:[../../../../../../../../../../../../../../../..][../../BB/../../../../../../../../../../../../..]
 	Process OMPI jobid: [39411,1] App: 0 Process rank: 19 Bound: socket 1[core 19[hwt 0-1]]:[../../../../../../../../../../../../../../../..][../../../BB/../../../../../../../../../../../..]
 	Process OMPI jobid: [39411,1] App: 0 Process rank: 20 Bound: socket 1[core 20[hwt 0-1]]:[../../../../../../../../../../../../../../../..][../../../../BB/../../../../../../../../../../..]
 	Process OMPI jobid: [39411,1] App: 0 Process rank: 21 Bound: socket 1[core 21[hwt 0-1]]:[../../../../../../../../../../../../../../../..][../../../../../BB/../../../../../../../../../..]
 	Process OMPI jobid: [39411,1] App: 0 Process rank: 22 Bound: socket 1[core 22[hwt 0-1]]:[../../../../../../../../../../../../../../../..][../../../../../../BB/../../../../../../../../..]
 	Process OMPI jobid: [39411,1] App: 0 Process rank: 23 Bound: socket 1[core 23[hwt 0-1]]:[../../../../../../../../../../../../../../../..][../../../../../../../BB/../../../../../../../..]
 	Process OMPI jobid: [39411,1] App: 0 Process rank: 24 Bound: socket 1[core 24[hwt 0-1]]:[../../../../../../../../../../../../../../../..][../../../../../../../../BB/../../../../../../..]
 	Process OMPI jobid: [39411,1] App: 0 Process rank: 25 Bound: socket 1[core 25[hwt 0-1]]:[../../../../../../../../../../../../../../../..][../../../../../../../../../BB/../../../../../..]
 	Process OMPI jobid: [39411,1] App: 0 Process rank: 26 Bound: socket 1[core 26[hwt 0-1]]:[../../../../../../../../../../../../../../../..][../../../../../../../../../../BB/../../../../..]
 	Process OMPI jobid: [39411,1] App: 0 Process rank: 27 Bound: socket 1[core 27[hwt 0-1]]:[../../../../../../../../../../../../../../../..][../../../../../../../../../../../BB/../../../..]
 	Process OMPI jobid: [39411,1] App: 0 Process rank: 28 Bound: socket 1[core 28[hwt 0-1]]:[../../../../../../../../../../../../../../../..][../../../../../../../../../../../../BB/../../..]
 	Process OMPI jobid: [39411,1] App: 0 Process rank: 29 Bound: socket 1[core 29[hwt 0-1]]:[../../../../../../../../../../../../../../../..][../../../../../../../../../../../../../BB/../..]
 	Process OMPI jobid: [39411,1] App: 0 Process rank: 30 Bound: socket 1[core 30[hwt 0-1]]:[../../../../../../../../../../../../../../../..][../../../../../../../../../../../../../../BB/..]
 	Process OMPI jobid: [39411,1] App: 0 Process rank: 31 Bound: socket 1[core 31[hwt 0-1]]:[../../../../../../../../../../../../../../../..][../../../../../../../../../../../../../../../BB]

 =============================================================
[1578561637.214570] [srl-adm2:57260:0]         mxm.c:196  MXM  WARN  The 'ulimit -s' on the system is set to 'unlimited'. This may have negative performance implications. Please set the stack size to the default value (10240) 
[1578561637.214585] [srl-adm2:57269:0]         mxm.c:196  MXM  WARN  The 'ulimit -s' on the system is set to 'unlimited'. This may have negative performance implications. Please set the stack size to the default value (10240) 
[1578561637.215086] [srl-adm2:57266:0]         mxm.c:196  MXM  WARN  The 'ulimit -s' on the system is set to 'unlimited'. This may have negative performance implications. Please set the stack size to the default value (10240) 
[1578561637.215861] [srl-adm2:57265:0]         mxm.c:196  MXM  WARN  The 'ulimit -s' on the system is set to 'unlimited'. This may have negative performance implications. Please set the stack size to the default value (10240) 
[1578561637.217591] [srl-adm2:57259:0]         mxm.c:196  MXM  WARN  The 'ulimit -s' on the system is set to 'unlimited'. This may have negative performance implications. Please set the stack size to the default value (10240) 
[1578561637.218121] [srl-adm2:57253:0]         mxm.c:196  MXM  WARN  The 'ulimit -s' on the system is set to 'unlimited'. This may have negative performance implications. Please set the stack size to the default value (10240) 
[1578561637.218251] [srl-adm2:57243:0]         mxm.c:196  MXM  WARN  The 'ulimit -s' on the system is set to 'unlimited'. This may have negative performance implications. Please set the stack size to the default value (10240) 
[1578561637.219891] [srl-adm2:57256:0]         mxm.c:196  MXM  WARN  The 'ulimit -s' on the system is set to 'unlimited'. This may have negative performance implications. Please set the stack size to the default value (10240) 
[1578561637.220020] [srl-adm2:57250:0]         mxm.c:196  MXM  WARN  The 'ulimit -s' on the system is set to 'unlimited'. This may have negative performance implications. Please set the stack size to the default value (10240) 
[1578561637.220597] [srl-adm2:57258:0]         mxm.c:196  MXM  WARN  The 'ulimit -s' on the system is set to 'unlimited'. This may have negative performance implications. Please set the stack size to the default value (10240) 
[1578561637.221027] [srl-adm2:57262:0]         mxm.c:196  MXM  WARN  The 'ulimit -s' on the system is set to 'unlimited'. This may have negative performance implications. Please set the stack size to the default value (10240) 
[1578561637.222175] [srl-adm2:57240:0]         mxm.c:196  MXM  WARN  The 'ulimit -s' on the system is set to 'unlimited'. This may have negative performance implications. Please set the stack size to the default value (10240) 
[1578561637.223473] [srl-adm2:57238:0]         mxm.c:196  MXM  WARN  The 'ulimit -s' on the system is set to 'unlimited'. This may have negative performance implications. Please set the stack size to the default value (10240) 
[1578561637.226767] [srl-adm2:57239:0]         mxm.c:196  MXM  WARN  The 'ulimit -s' on the system is set to 'unlimited'. This may have negative performance implications. Please set the stack size to the default value (10240) 
[1578561637.227066] [srl-adm2:57251:0]         mxm.c:196  MXM  WARN  The 'ulimit -s' on the system is set to 'unlimited'. This may have negative performance implications. Please set the stack size to the default value (10240) 
[1578561637.227470] [srl-adm2:57241:0]         mxm.c:196  MXM  WARN  The 'ulimit -s' on the system is set to 'unlimited'. This may have negative performance implications. Please set the stack size to the default value (10240) 
[1578561637.227974] [srl-adm2:57245:0]         mxm.c:196  MXM  WARN  The 'ulimit -s' on the system is set to 'unlimited'. This may have negative performance implications. Please set the stack size to the default value (10240) 
[1578561637.228140] [srl-adm2:57270:0]         mxm.c:196  MXM  WARN  The 'ulimit -s' on the system is set to 'unlimited'. This may have negative performance implications. Please set the stack size to the default value (10240) 
[1578561637.228668] [srl-adm2:57257:0]         mxm.c:196  MXM  WARN  The 'ulimit -s' on the system is set to 'unlimited'. This may have negative performance implications. Please set the stack size to the default value (10240) 
[1578561637.229337] [srl-adm2:57242:0]         mxm.c:196  MXM  WARN  The 'ulimit -s' on the system is set to 'unlimited'. This may have negative performance implications. Please set the stack size to the default value (10240) 
[1578561637.229599] [srl-adm2:57244:0]         mxm.c:196  MXM  WARN  The 'ulimit -s' on the system is set to 'unlimited'. This may have negative performance implications. Please set the stack size to the default value (10240) 
[1578561637.230360] [srl-adm2:57261:0]         mxm.c:196  MXM  WARN  The 'ulimit -s' on the system is set to 'unlimited'. This may have negative performance implications. Please set the stack size to the default value (10240) 
[1578561637.230513] [srl-adm2:57263:0]         mxm.c:196  MXM  WARN  The 'ulimit -s' on the system is set to 'unlimited'. This may have negative performance implications. Please set the stack size to the default value (10240) 
[1578561637.230701] [srl-adm2:57246:0]         mxm.c:196  MXM  WARN  The 'ulimit -s' on the system is set to 'unlimited'. This may have negative performance implications. Please set the stack size to the default value (10240) 
[1578561637.231039] [srl-adm2:57264:0]         mxm.c:196  MXM  WARN  The 'ulimit -s' on the system is set to 'unlimited'. This may have negative performance implications. Please set the stack size to the default value (10240) 
[1578561637.231198] [srl-adm2:57267:0]         mxm.c:196  MXM  WARN  The 'ulimit -s' on the system is set to 'unlimited'. This may have negative performance implications. Please set the stack size to the default value (10240) 
[1578561637.231628] [srl-adm2:57254:0]         mxm.c:196  MXM  WARN  The 'ulimit -s' on the system is set to 'unlimited'. This may have negative performance implications. Please set the stack size to the default value (10240) 
[1578561637.231810] [srl-adm2:57249:0]         mxm.c:196  MXM  WARN  The 'ulimit -s' on the system is set to 'unlimited'. This may have negative performance implications. Please set the stack size to the default value (10240) 
[1578561637.231861] [srl-adm2:57255:0]         mxm.c:196  MXM  WARN  The 'ulimit -s' on the system is set to 'unlimited'. This may have negative performance implications. Please set the stack size to the default value (10240) 
[1578561637.231971] [srl-adm2:57268:0]         mxm.c:196  MXM  WARN  The 'ulimit -s' on the system is set to 'unlimited'. This may have negative performance implications. Please set the stack size to the default value (10240) 
[1578561637.232096] [srl-adm2:57247:0]         mxm.c:196  MXM  WARN  The 'ulimit -s' on the system is set to 'unlimited'. This may have negative performance implications. Please set the stack size to the default value (10240) 
[1578561637.232085] [srl-adm2:57252:0]         mxm.c:196  MXM  WARN  The 'ulimit -s' on the system is set to 'unlimited'. This may have negative performance implications. Please set the stack size to the default value (10240) 
0: 1 

Rank 0 ghostCells: 5641
Rank 1 ghostCells: 3496
Rank 2 ghostCells: 3887
Rank 3 ghostCells: 6046
Rank 4 ghostCells: 3326
Rank 5 ghostCells: 2394
Rank 6 ghostCells: 2740
Rank 7 ghostCells: 14460
Rank 8 ghostCells: 3621
Rank 9 ghostCells: 3421
Rank 10 ghostCells: 4479
Rank 11 ghostCells: 2712
Rank 12 ghostCells: 4178
Rank 13 ghostCells: 2512
Rank 14 ghostCells: 7286
Rank 15 ghostCells: 7892
Rank 16 ghostCells: 5654
Rank 17 ghostCells: 11408
Rank 18 ghostCells: 5445
Rank 19 ghostCells: 5112
Rank 20 ghostCells: 1654
Rank 21 ghostCells: 1494
Rank 22 ghostCells: 2112
Rank 23 ghostCells: 1475
Rank 24 ghostCells: 2336
Rank 25 ghostCells: 1410
Rank 26 ghostCells: 2461
Rank 27 ghostCells: 1603
Rank 28 ghostCells: 1443
Rank 29 ghostCells: 2759
Rank 30 ghostCells: 2700
Rank 31 ghostCells: 1300

Rank 0 numCells: 17779
Rank 1 numCells: 15575
Rank 2 numCells: 15611
Rank 3 numCells: 17782
Rank 4 numCells: 14599
Rank 5 numCells: 14593
Rank 6 numCells: 12222
Rank 7 numCells: 24253
Rank 8 numCells: 15806
Rank 9 numCells: 13568
Rank 10 numCells: 16693
Rank 11 numCells: 14020
Rank 12 numCells: 16362
Rank 13 numCells: 13767
Rank 14 numCells: 18105
Rank 15 numCells: 17490
Rank 16 numCells: 16802
Rank 17 numCells: 23573
Rank 18 numCells: 17565
Rank 19 numCells: 13892
Rank 20 numCells: 12637
Rank 21 numCells: 10914
Rank 22 numCells: 14288
Rank 23 numCells: 12607
Rank 24 numCells: 13875
Rank 25 numCells: 12642
Rank 26 numCells: 11555
Rank 27 numCells: 11807
Rank 28 numCells: 12889
Rank 29 numCells: 14970
Rank 30 numCells: 13881
Rank 31 numCells: 11742

Rank 0 interiorCells: 12138
Rank 1 interiorCells: 12079
Rank 2 interiorCells: 11724
Rank 3 interiorCells: 11736
Rank 4 interiorCells: 11273
Rank 5 interiorCells: 12199
Rank 6 interiorCells: 9482
Rank 7 interiorCells: 9793
Rank 8 interiorCells: 12185
Rank 9 interiorCells: 10147
Rank 10 interiorCells: 12214
Rank 11 interiorCells: 11308
Rank 12 interiorCells: 12184
Rank 13 interiorCells: 11255
Rank 14 interiorCells: 10819
Rank 15 interiorCells: 9598
Rank 16 interiorCells: 11148
Rank 17 interiorCells: 12165
Rank 18 interiorCells: 12120
Rank 19 interiorCells: 8780
Rank 20 interiorCells: 10983
Rank 21 interiorCells: 9420
Rank 22 interiorCells: 12176
Rank 23 interiorCells: 11132
Rank 24 interiorCells: 11539
Rank 25 interiorCells: 11232
Rank 26 interiorCells: 9094
Rank 27 interiorCells: 10204
Rank 28 interiorCells: 11446
Rank 29 interiorCells: 12211
Rank 30 interiorCells: 11181
Rank 31 interiorCells: 10442

MeasComm+1 32: 0.000622659 0.000508873 0.000590118 0.000646434 0.000510242 0.000450192 0.000467755 0.000784118 0.000467849 0.000389405 0.000433449 0.00036658 0.00052372 0.000450274 0.000452919 0.00072317 0.000601281 0.000659827 0.000552342 0.000524064 0.000431013 0.000424203 0.000436671 0.000429208 0.000443571 0.000435249 0.000464901 0.000189114 0.000193304 0.000216295 0.000230756 0.000426532 
MeasComm+1 32: 0.000616694 0.000503473 0.000581754 0.000640333 0.000491553 0.000448003 0.000457003 0.000784893 0.000228815 0.000383477 0.000416665 0.000362163 0.000511935 0.000153272 0.000687225 0.000722101 0.000597767 0.000656699 0.00054114 0.000520974 0.000434989 0.000426458 0.000438002 0.000430962 0.000399332 0.000436291 0.000454587 0.000205385 0.000191693 0.000249668 0.000229545 0.000427814 
MeasComm+1 32: 0.000626518 0.000477444 0.000592642 0.000649981 0.000513336 0.000449356 0.000466207 0.000786191 0.00046937 0.000389119 0.000437776 0.00036707 0.000526662 0.000446252 0.000689863 0.000725061 0.000593703 0.000656882 0.000574441 0.000519366 0.000434362 0.000424863 0.000437383 0.000431099 0.00044468 0.000436904 0.000467201 0.00020698 0.000192875 0.000233128 0.000227755 0.000427799 
MeasComm+1 32: 0.000369013 0.000476195 0.0003843 0.000647444 0.000377993 0.00044782 0.000464463 0.000787167 0.000372801 0.00038613 0.000294526 0.000367702 0.000264403 0.000447234 0.000667695 0.000719352 0.000383881 0.000655883 0.000354944 0.000498221 0.000354779 0.000425633 0.000456545 0.000429773 0.000160848 0.000435447 0.000366332 0.000100516 0.00013196 0.000219007 0.000213323 0.000428016 
MeasComm+1 32: 0.000625677 0.000509878 0.000593702 0.000648551 0.00051286 0.000445622 0.000463295 0.000785026 0.000470825 0.000388411 0.000435222 0.000365188 0.000527032 0.000445605 0.000663448 0.000721894 0.00059669 0.000654426 0.000536323 0.000522322 0.000433967 0.000425268 0.000437232 0.00043346 0.000439825 0.00043177 0.000467041 0.000195817 0.000192906 0.000228392 0.00022715 0.000427587 
MeasComm+1 32: 0.000626414 0.000486739 0.000581271 0.000648925 0.000524939 0.00044517 0.000457642 0.000784363 0.00051057 0.000401943 0.000441046 0.00036634 0.000538102 0.000446295 0.000704592 0.000736653 0.000638485 0.000702362 0.000608859 0.000535755 0.000434264 0.000425089 0.000437514 0.000428612 0.000456105 0.000446684 0.000508302 0.000204132 0.000192443 0.000225697 0.000218746 0.000427757 
MeasComm+1 32: 0.000436055 0.000508379 0.000588472 0.000648495 0.000512316 0.000448698 0.000467226 0.00078427 0.000384879 0.000397722 0.000435367 0.000300724 0.000525054 0.000446798 0.000688149 0.000724335 0.000435811 0.000656017 0.00053725 0.000526606 0.000434612 0.000424804 0.000437235 0.000428887 0.000156711 0.00043277 0.000464146 0.000205441 0.000192007 0.000231486 0.000228534 0.000427582 
MeasComm+1 32: 0.000624829 0.000510116 0.000593463 0.000648085 0.000513552 0.000450021 0.00046752 0.000785837 0.00047011 0.000390839 0.000436391 0.00036604 0.000526569 0.000447928 0.000688841 0.000724087 0.000598406 0.000657028 0.000595242 0.000521659 0.000434098 0.00044084 0.000437388 0.000427507 0.000445998 0.000434977 0.000460001 0.000205721 0.000192317 0.000230867 0.000226183 0.000428769 
MeasComm+1 32: 0.000622254 0.000509591 0.000590142 0.000647474 0.000510977 0.000164092 0.000468008 0.000784139 0.000455878 0.000388704 0.000436352 0.00036727 0.000524296 0.000152975 0.000422664 0.000723153 0.000590877 0.000656083 0.000530722 0.000526004 0.000433336 0.00017326 0.000438018 0.000427437 0.00044238 0.00043471 0.000456902 0.000203344 0.000192721 0.000169482 0.000230459 0.000427977 
MeasComm+1 32: 0.000624977 0.000506131 0.000592305 0.000648185 0.000511807 0.000448016 0.000467556 0.000784563 0.000469921 0.000399315 0.000436002 0.000366644 0.000526687 0.000447588 0.000674458 0.000472836 0.000593511 0.000656226 0.000529924 0.000519085 0.000432264 0.000425031 0.000436141 0.000435429 0.000442393 0.000434059 0.000461704 0.000205192 0.000192257 0.000220855 0.000216206 0.000428115 

ComTab rank 0: 0 952 1085 2865 152 142 337 1100 159 106 591 0 0 0 138 71 215 117 0 0 0 3 2 85 0 0 0 0 0 0 0 23 
ComTab rank 1: 930 0 430 1110 287 1058 38 112 0 0 0 0 0 0 0 19 0 0 0 0 93 135 322 21 0 0 0 0 0 0 0 0 
ComTab rank 2: 775 371 0 1744 82 0 161 1444 0 0 0 0 212 0 94 22 0 0 0 0 231 15 118 0 0 275 93 0 0 0 0 163 
ComTab rank 3: 2697 1059 1821 0 513 316 312 1827 21 0 113 0 168 0 366 49 264 183 0 0 104 15 3 28 0 0 0 0 0 0 0 15 
ComTab rank 4: 133 333 81 456 0 659 125 507 382 172 423 0 0 284 204 155 409 55 0 0 24 54 0 5 0 0 0 0 0 0 0 267 
ComTab rank 5: 121 877 0 267 664 0 370 566 0 0 0 0 0 0 0 426 0 0 0 0 0 109 0 0 0 0 0 0 0 0 0 28 
ComTab rank 6: 340 34 221 348 159 361 0 1774 0 0 0 0 16 0 0 753 0 0 0 0 0 143 33 0 0 0 0 0 0 0 0 109 
ComTab rank 7: 1086 90 1640 1977 534 632 1810 0 29 0 0 0 3373 485 2080 3483 37 108 185 431 110 24 25 4 43 31 109 0 0 0 0 611 
ComTab rank 8: 186 0 0 22 383 0 0 32 0 1211 1009 509 34 29 67 0 718 529 57 0 0 0 30 34 0 0 0 0 0 0 0 0 
ComTab rank 9: 131 0 0 0 181 0 0 0 1218 0 131 144 0 674 340 166 239 647 322 0 0 0 31 10 0 0 0 0 0 0 0 0 
ComTab rank 10: 698 0 0 114 414 0 0 0 978 126 0 753 0 0 232 0 1387 690 0 0 0 0 112 103 0 0 158 0 0 0 0 0 
ComTab rank 11: 0 0 0 0 0 0 0 0 523 130 806 0 41 0 3 0 528 631 591 0 0 0 18 0 0 0 269 0 0 0 0 0 
ComTab rank 12: 0 0 189 187 0 0 16 3395 23 0 0 132 0 247 1836 1438 38 62 72 0 13 0 37 8 0 0 234 0 0 0 0 0 
ComTab rank 13: 0 0 0 0 293 0 0 521 29 667 0 0 254 0 811 735 0 0 13 0 0 0 0 13 0 0 0 0 0 0 0 0 
ComTab rank 14: 144 0 94 473 196 0 0 2067 55 331 241 3 1832 795 0 590 2306 3051 140 3 19 0 48 34 0 0 192 0 0 0 0 0 
ComTab rank 15: 71 18 33 50 145 439 766 3329 0 185 0 0 1438 746 571 0 616 2171 623 634 0 17 20 45 155 0 76 0 0 0 0 464 
ComTab rank 16: 175 0 0 216 393 0 0 40 690 218 1376 523 23 0 2107 616 0 4367 54 24 0 0 23 28 0 0 169 0 0 0 0 0 
ComTab rank 17: 162 0 0 237 52 0 0 108 523 619 723 631 58 0 2949 1981 4545 0 760 144 0 0 0 0 51 25 565 0 0 0 0 0 
ComTab rank 18: 0 0 0 0 0 0 0 183 22 336 0 598 82 13 112 594 63 666 0 2033 62 113 64 9 348 125 754 686 250 342 944 0 
ComTab rank 19: 0 0 0 0 0 0 0 420 0 0 0 0 0 0 3 646 35 138 2087 0 23 0 0 0 651 700 67 366 198 356 1001 0 
ComTab rank 20: 0 45 232 108 6 0 0 88 0 0 0 0 9 0 23 0 0 0 50 18 0 349 46 295 257 118 156 0 136 6 67 0 
ComTab rank 21: 3 300 38 20 61 184 84 16 0 0 0 0 0 0 0 12 0 0 96 0 324 0 203 215 0 0 64 0 0 0 0 51 
ComTab rank 22: 2 759 166 3 0 0 27 19 25 53 231 27 10 0 36 15 6 0 62 0 51 180 0 540 0 0 10 0 0 0 0 96 
ComTab rank 23: 68 52 0 40 9 0 0 4 30 11 177 0 7 17 46 72 33 0 14 0 291 202 540 0 0 0 42 0 0 0 0 0 
ComTab rank 24: 0 0 0 0 0 0 0 39 0 0 0 0 0 0 0 153 0 41 356 614 116 0 0 0 0 594 347 0 15 360 305 0 
ComTab rank 25: 0 0 64 0 0 0 0 27 0 0 0 0 0 0 0 0 0 25 60 588 59 0 0 0 523 0 273 0 0 0 18 0 
ComTab rank 26: 0 0 31 0 0 0 0 47 0 0 109 269 76 0 144 40 167 500 732 57 78 31 10 26 407 279 0 200 11 202 0 0 
ComTab rank 27: 0 0 0 0 0 0 0 0 0 0 0 0 0 0 0 0 0 0 667 366 0 0 0 0 0 0 190 0 409 207 0 0 
ComTab rank 28: 0 0 0 0 0 0 0 0 0 0 0 0 0 0 0 0 0 0 224 199 138 0 0 0 37 0 22 427 0 462 299 0 
ComTab rank 29: 0 0 0 0 0 0 0 0 0 0 0 0 0 0 0 0 0 0 287 332 6 0 0 0 357 0 175 190 365 0 1411 228 
ComTab rank 30: 0 0 0 0 0 0 0 0 0 0 0 0 0 0 0 0 0 0 833 925 49 0 0 0 307 19 0 0 258 1401 0 68 
ComTab rank 31: 20 0 175 11 253 28 88 592 0 0 0 0 0 0 0 464 0 0 0 0 0 31 60 0 0 0 0 0 0 254 70 0 

Edge-cut: 92373

Wgt-cut: 1.9077e-08

[1578561681.889215] [srl-adm2:57242:0]          mpool.c:38   UCX  WARN  object 0x1555440f6460 was not returned to mpool mm_recv_desc
[1578561681.890510] [srl-adm2:57255:0]          mpool.c:38   UCX  WARN  object 0x155544120ee0 was not returned to mpool mm_recv_desc
[1578561681.890830] [srl-adm2:57246:0]          mpool.c:38   UCX  WARN  object 0x15554411cde0 was not returned to mpool mm_recv_desc
[1578561681.891779] [srl-adm2:57239:0]          mpool.c:38   UCX  WARN  object 0x15554410ea60 was not returned to mpool mm_recv_desc
[1578561681.891841] [srl-adm2:57240:0]          mpool.c:38   UCX  WARN  object 0x5555640ee0c0 was not returned to mpool ucp_am_bufs
