 Data for JOB [9932,1] offset 0 Total slots allocated 8

 ========================   JOB MAP   ========================

 Data for node: n003	Num slots: 8	Max slots: 0	Num procs: 8
 	Process OMPI jobid: [9932,1] App: 0 Process rank: 0 Bound: socket 1[core 56[hwt 0-1]]:[../../../../../../../../../../../../../../../../../../../../../../../../../../../../../../../..][../../../../../../../../../../../../../../../../../../../../../../../../BB/../../../../../../..]
 	Process OMPI jobid: [9932,1] App: 0 Process rank: 1 Bound: socket 1[core 57[hwt 0-1]]:[../../../../../../../../../../../../../../../../../../../../../../../../../../../../../../../..][../../../../../../../../../../../../../../../../../../../../../../../../../BB/../../../../../..]
 	Process OMPI jobid: [9932,1] App: 0 Process rank: 2 Bound: socket 1[core 58[hwt 0-1]]:[../../../../../../../../../../../../../../../../../../../../../../../../../../../../../../../..][../../../../../../../../../../../../../../../../../../../../../../../../../../BB/../../../../..]
 	Process OMPI jobid: [9932,1] App: 0 Process rank: 3 Bound: socket 1[core 59[hwt 0-1]]:[../../../../../../../../../../../../../../../../../../../../../../../../../../../../../../../..][../../../../../../../../../../../../../../../../../../../../../../../../../../../BB/../../../..]
 	Process OMPI jobid: [9932,1] App: 0 Process rank: 4 Bound: socket 1[core 52[hwt 0-1]]:[../../../../../../../../../../../../../../../../../../../../../../../../../../../../../../../..][../../../../../../../../../../../../../../../../../../../../BB/../../../../../../../../../../..]
 	Process OMPI jobid: [9932,1] App: 0 Process rank: 5 Bound: socket 1[core 53[hwt 0-1]]:[../../../../../../../../../../../../../../../../../../../../../../../../../../../../../../../..][../../../../../../../../../../../../../../../../../../../../../BB/../../../../../../../../../..]
 	Process OMPI jobid: [9932,1] App: 0 Process rank: 6 Bound: socket 1[core 54[hwt 0-1]]:[../../../../../../../../../../../../../../../../../../../../../../../../../../../../../../../..][../../../../../../../../../../../../../../../../../../../../../../BB/../../../../../../../../..]
 	Process OMPI jobid: [9932,1] App: 0 Process rank: 7 Bound: socket 1[core 55[hwt 0-1]]:[../../../../../../../../../../../../../../../../../../../../../../../../../../../../../../../..][../../../../../../../../../../../../../../../../../../../../../../../BB/../../../../../../../..]

 =============================================================
Two group cota
0 1 3
0 2 2
0 3 1
1 2 0
1 3 3
1 0 2
2 3 1
2 0 0
2 1 3
3 0 2
3 1 1
3 2 0
4 5 7
4 6 6
4 7 5
5 6 4
5 7 7
5 4 6
6 7 5
6 4 4
6 5 7
7 4 6
7 5 5
7 6 4
dune-size 1 8.56808e-06 8.58248e-06 7.24889e-06 8.57378e-06 8.56758e-06 8.57158e-06 7.22849e-06 8.57048e-06 
dune-size 2 6.58939e-06 6.58309e-06 6.58819e-06 6.58309e-06 6.50679e-06 6.50819e-06 6.51429e-06 6.50889e-06 
dune-size 4 7.26648e-06 7.02278e-06 1.32612e-05 1.32735e-05 7.20898e-06 6.95388e-06 1.32e-05 1.32122e-05 
dune-size 8 7.55259e-06 7.56439e-06 7.55899e-06 7.55269e-06 7.54729e-06 7.53299e-06 7.53629e-06 7.54469e-06 
dune-size 16 9.79989e-06 9.80169e-06 9.81269e-06 9.82019e-06 9.86399e-06 9.87899e-06 9.86389e-06 9.87979e-06 
dune-size 32 1.10127e-05 1.10065e-05 1.10068e-05 1.10061e-05 1.09213e-05 1.09237e-05 1.09304e-05 1.09258e-05 
dune-size 64 1.57697e-05 1.57597e-05 1.5756e-05 1.57625e-05 1.57641e-05 1.57389e-05 1.5743e-05 1.57448e-05 
dune-size 128 2.59762e-05 2.59832e-05 2.59918e-05 2.59887e-05 2.6325e-05 2.63425e-05 2.63278e-05 2.63459e-05 
dune-size 256 4.48273e-05 4.47647e-05 4.47714e-05 4.48826e-05 4.50452e-05 4.50929e-05 4.50548e-05 4.51237e-05 
dune-size 512 8.15283e-05 8.14797e-05 8.14886e-05 8.16266e-05 8.24203e-05 8.24021e-05 8.24497e-05 8.24654e-05 
dune-size 1024 0.000172883 0.00017288 0.000173308 0.000173101 0.000173866 0.000173688 0.000173689 0.000173768 
dune-size 2048 0.00032348 0.000323905 0.000324309 0.000323471 0.000325532 0.000325017 0.000325023 0.00032534 
dune-size 4096 0.000619923 0.000619929 0.000620639 0.000620269 0.000622417 0.000620943 0.000620938 0.000621617 
dune-size 8192 0.00119666 0.00119526 0.00119758 0.00119526 0.00119939 0.00120117 0.00119938 0.00120061 
dune-size 16384 0.00237708 0.0023742 0.00237607 0.00237421 0.00243589 0.00243787 0.00243254 0.0024325 
dune-size 32768 0.00480128 0.00480127 0.00480052 0.00480052 0.00480017 0.00480124 0.00479991 0.00479988 
dune-size 65536 0.00982575 0.00982551 0.00983857 0.00984204 0.00968915 0.00968228 0.00968901 0.0096758 
dune-size 131072 0.0194815 0.019481 0.0194815 0.0194833 0.0196612 0.019661 0.0196603 0.0196613 
