 Data for JOB [52949,1] offset 0 Total slots allocated 2

 ========================   JOB MAP   ========================

 Data for node: n001	Num slots: 2	Max slots: 0	Num procs: 2
 	Process OMPI jobid: [52949,1] App: 0 Process rank: 0 Bound: socket 0[core 1[hwt 0-1]]:[../BB/../../../../../../../../../../../../../../../../../../../../../../../../../../../../../..][../../../../../../../../../../../../../../../../../../../../../../../../../../../../../../../..]
 	Process OMPI jobid: [52949,1] App: 0 Process rank: 1 Bound: socket 1[core 42[hwt 0-1]]:[../../../../../../../../../../../../../../../../../../../../../../../../../../../../../../../..][../../../../../../../../../../BB/../../../../../../../../../../../../../../../../../../../../..]

 =============================================================
dune-size 1 5.54359e-06 5.54749e-06 
dune-size 2 5.29949e-06 5.30129e-06 
dune-size 4 7.20398e-06 7.20058e-06 
dune-size 8 5.67738e-06 5.68078e-06 
dune-size 16 6.10298e-06 6.10058e-06 
dune-size 32 7.04038e-06 7.04088e-06 
dune-size 64 8.96058e-06 8.95288e-06 
dune-size 128 1.24323e-05 1.24377e-05 
dune-size 256 1.9843e-05 1.98534e-05 
dune-size 512 3.4347e-05 3.43475e-05 
dune-size 1024 0.000108562 0.000108525 
dune-size 2048 0.000199072 0.000199088 
dune-size 4096 0.000382709 0.000382676 
dune-size 8192 0.000661158 0.000661022 
dune-size 16384 0.000944656 0.000944567 
dune-size 32768 0.00169904 0.00169904 
dune-size 65536 0.00334809 0.00334536 
dune-size 131072 0.00650017 0.00649771 
dune-size 262144 0.0129681 0.0129681 
dune-size 524288 0.0258803 0.025899 
dune-size 1048576 0.0516258 0.051653 
