 Data for JOB [61827,1] offset 0 Total slots allocated 2

 ========================   JOB MAP   ========================

 Data for node: n004	Num slots: 2	Max slots: 0	Num procs: 2
 	Process OMPI jobid: [61827,1] App: 0 Process rank: 0 Bound: socket 0[core 0[hwt 0-1]]:[BB/../../../../../../../../../../../../../../../../../../../../../../../../../../../../../../..][../../../../../../../../../../../../../../../../../../../../../../../../../../../../../../../..]
 	Process OMPI jobid: [61827,1] App: 0 Process rank: 1 Bound: socket 0[core 1[hwt 0-1]]:[../BB/../../../../../../../../../../../../../../../../../../../../../../../../../../../../../..][../../../../../../../../../../../../../../../../../../../../../../../../../../../../../../../..]

 =============================================================
[1579604617.447084] [n004:127121:0]         mxm.c:196  MXM  WARN  The 'ulimit -s' on the system is set to 'unlimited'. This may have negative performance implications. Please set the stack size to the default value (10240) 
[1579604617.447084] [n004:127123:0]         mxm.c:196  MXM  WARN  The 'ulimit -s' on the system is set to 'unlimited'. This may have negative performance implications. Please set the stack size to the default value (10240) 
0: 1 

Rank 0 ghostCells: 12469
Rank 1 ghostCells: 13431

Rank 0 numCells: 206192
Rank 1 numCells: 175115

Rank 0 interiorCells: 193723
Rank 1 interiorCells: 161684

MeasComm+1 2: 0.00100212 0.00100443 
MeasComm+1 2: 0.00100902 0.00100354 
MeasComm+1 2: 0.000988172 0.000994502 
MeasComm+1 2: 0.00100764 0.00100801 
MeasComm+1 2: 0.00101475 0.00100808 
MeasComm+1 2: 0.000996652 0.00100293 
MeasComm+1 2: 0.000982512 0.000991742 
MeasComm+1 2: 0.000995393 0.00100157 
MeasComm+1 2: 0.00100782 0.00100247 
MeasComm+1 2: 0.000996722 0.000992592 

MeasCopy 2: 0.000584801 0.000630212 
MeasCopy 2: 0.000584821 0.000630251 
MeasCopy 2: 0.000585041 0.000630362 
MeasCopy 2: 0.000584891 0.000630301 
MeasCopy 2: 0.000585021 0.000630151 
MeasCopy 2: 0.000584931 0.000630021 
MeasCopy 2: 0.000585031 0.000630171 
MeasCopy 2: 0.000585151 0.000630152 
MeasCopy 2: 0.000585162 0.000630271 
MeasCopy 2: 0.000585062 0.000630251 

ComTab rank 0: 0 12469 
ComTab rank 1: 13431 0 

Edge-cut: 21788

Wgt-cut: 2.68323e-09

[1579604756.151075] [n004:127123:0]          mpool.c:38   UCX  WARN  object 0x5555628c54c0 was not returned to mpool ucp_am_bufs
