 Data for JOB [61592,1] offset 0 Total slots allocated 4

 ========================   JOB MAP   ========================

 Data for node: n004	Num slots: 4	Max slots: 0	Num procs: 4
 	Process OMPI jobid: [61592,1] App: 0 Process rank: 0 Bound: socket 0[core 0[hwt 0-1]]:[BB/../../../../../../../../../../../../../../../../../../../../../../../../../../../../../../..][../../../../../../../../../../../../../../../../../../../../../../../../../../../../../../../..]
 	Process OMPI jobid: [61592,1] App: 0 Process rank: 1 Bound: socket 0[core 8[hwt 0-1]]:[../../../../../../../../BB/../../../../../../../../../../../../../../../../../../../../../../..][../../../../../../../../../../../../../../../../../../../../../../../../../../../../../../../..]
 	Process OMPI jobid: [61592,1] App: 0 Process rank: 2 Bound: socket 0[core 16[hwt 0-1]]:[../../../../../../../../../../../../../../../../BB/../../../../../../../../../../../../../../..][../../../../../../../../../../../../../../../../../../../../../../../../../../../../../../../..]
 	Process OMPI jobid: [61592,1] App: 0 Process rank: 3 Bound: socket 0[core 24[hwt 0-1]]:[../../../../../../../../../../../../../../../../../../../../../../../../BB/../../../../../../..][../../../../../../../../../../../../../../../../../../../../../../../../../../../../../../../..]

 =============================================================
[1579604758.355227] [n004:127400:0]         mxm.c:196  MXM  WARN  The 'ulimit -s' on the system is set to 'unlimited'. This may have negative performance implications. Please set the stack size to the default value (10240) 
[1579604758.355154] [n004:127402:0]         mxm.c:196  MXM  WARN  The 'ulimit -s' on the system is set to 'unlimited'. This may have negative performance implications. Please set the stack size to the default value (10240) 
[1579604758.355929] [n004:127401:0]         mxm.c:196  MXM  WARN  The 'ulimit -s' on the system is set to 'unlimited'. This may have negative performance implications. Please set the stack size to the default value (10240) 
[1579604758.356054] [n004:127399:0]         mxm.c:196  MXM  WARN  The 'ulimit -s' on the system is set to 'unlimited'. This may have negative performance implications. Please set the stack size to the default value (10240) 
0: 1 

Rank 0 ghostCells: 21015
Rank 1 ghostCells: 12650
Rank 2 ghostCells: 7285
Rank 3 ghostCells: 15733

Rank 0 numCells: 108160
Rank 1 numCells: 109869
Rank 2 numCells: 99270
Rank 3 numCells: 94791

Rank 0 interiorCells: 87145
Rank 1 interiorCells: 97219
Rank 2 interiorCells: 91985
Rank 3 interiorCells: 79058

MeasComm+1 4: 0.00116682 0.00101834 0.000761091 0.00100357 
MeasComm+1 4: 0.00116748 0.00102391 0.000763492 0.00101005 
MeasComm+1 4: 0.00116892 0.00101943 0.000759811 0.00101753 
MeasComm+1 4: 0.00116913 0.000997452 0.000760532 0.00102029 
MeasComm+1 4: 0.00117718 0.00108048 0.000753972 0.00106074 
MeasComm+1 4: 0.00120318 0.00100221 0.000766281 0.00103386 
MeasComm+1 4: 0.00117428 0.0010046 0.000760341 0.00103923 
MeasComm+1 4: 0.00117407 0.00101916 0.000766402 0.00102544 
MeasComm+1 4: 0.00117303 0.00103257 0.000765221 0.00100147 
MeasComm+1 4: 0.00117049 0.0010268 0.000758112 0.0010163 

MeasCopy 4: 0.000985863 0.000593421 0.000341471 0.000738302 
MeasCopy 4: 0.000986062 0.000593402 0.000341701 0.000738171 
MeasCopy 4: 0.000986213 0.000593452 0.00034154 0.000738302 
MeasCopy 4: 0.000986332 0.000593511 0.00034163 0.000738442 
MeasCopy 4: 0.000986242 0.000593311 0.000341711 0.000738432 
MeasCopy 4: 0.000986202 0.000593301 0.000341721 0.000738152 
MeasCopy 4: 0.000986112 0.000593461 0.000341671 0.000738391 
MeasCopy 4: 0.000986032 0.000593471 0.000341751 0.000738461 
MeasCopy 4: 0.000986112 0.000593511 0.000341671 0.000738981 
MeasCopy 4: 0.000986252 0.000593492 0.000341811 0.000738331 

ComTab rank 0: 0 9642 3459 8842 
ComTab rank 1: 9952 0 502 6390 
ComTab rank 2: 3025 660 0 3745 
ComTab rank 3: 9461 6413 4046 0 

Edge-cut: 43990

Wgt-cut: 4.17767e-09

[1579604813.963353] [n004:127402:0]          mpool.c:38   UCX  WARN  object 0x1555394feee0 was not returned to mpool mm_recv_desc
[1579604813.978404] [n004:127401:0]          mpool.c:38   UCX  WARN  object 0x1555394fce60 was not returned to mpool mm_recv_desc
[1579604813.979231] [n004:127400:0]          mpool.c:38   UCX  WARN  object 0x155539500f60 was not returned to mpool mm_recv_desc
